<?xml version="1.0" encoding="UTF-8"?>
<!DOCTYPE svg PUBLIC "-//W3C//DTD SVG 1.1//EN" "http://www.w3.org/Graphics/SVG/1.1/DTD/svg11.dtd">
<svg version="1.2" width="138.98mm" height="40.61mm" viewBox="1000 10658 13898 4061" preserveAspectRatio="xMidYMid" fill-rule="evenodd" stroke-width="28.222" stroke-linejoin="round" xmlns="http://www.w3.org/2000/svg" xmlns:ooo="http://xml.openoffice.org/svg/export" xmlns:xlink="http://www.w3.org/1999/xlink" xmlns:presentation="http://sun.com/xmlns/staroffice/presentation" xmlns:smil="http://www.w3.org/2001/SMIL20/" xmlns:anim="urn:oasis:names:tc:opendocument:xmlns:animation:1.0" xml:space="preserve">
 <defs class="ClipPathGroup">
  <clipPath id="presentation_clip_path" clipPathUnits="userSpaceOnUse">
   <rect x="1000" y="10658" width="13898" height="4061"/>
  </clipPath>
  <clipPath id="presentation_clip_path_shrink" clipPathUnits="userSpaceOnUse">
   <rect x="1013" y="10662" width="13871" height="4053"/>
  </clipPath>
 </defs>
 <defs>
  <font id="EmbeddedFont_1" horiz-adv-x="2048">
   <font-face font-family="Liberation Serif embedded" units-per-em="2048" font-weight="normal" font-style="normal" ascent="1799" descent="423"/>
   <missing-glyph horiz-adv-x="2048" d="M 0,0 L 2047,0 2047,2047 0,2047 0,0 Z"/>
   <glyph unicode="s" horiz-adv-x="663" d="M 723,264 C 723,222 717,184 704,149 691,114 670,84 642,59 614,34 578,14 534,1 489,-13 436,-20 373,-20 342,-20 311,-18 281,-15 250,-11 222,-6 196,-2 170,4 147,9 128,14 109,19 95,24 86,27 L 86,258 131,258 180,127 C 201,108 227,92 260,79 293,66 331,59 375,59 437,59 485,73 519,100 552,127 569,168 569,225 569,258 562,286 548,308 534,329 516,347 493,362 470,377 445,389 416,399 387,408 357,418 327,428 296,438 267,449 238,462 209,475 183,491 160,511 137,531 119,556 105,586 91,616 84,653 84,698 84,741 92,779 107,812 122,845 144,873 172,896 199,919 232,936 271,948 309,959 351,965 397,965 442,965 487,962 530,956 573,949 615,942 655,934 L 655,729 608,729 566,838 C 549,853 525,865 495,873 465,881 433,885 399,885 345,885 304,872 276,845 247,818 233,782 233,737 233,706 240,681 254,662 268,642 287,625 310,612 333,598 359,586 388,576 417,566 447,556 478,545 509,534 539,522 568,509 597,495 624,477 647,456 670,435 688,409 702,378 716,347 723,309 723,264 Z"/>
   <glyph unicode="o" horiz-adv-x="901" d="M 946,475 C 946,316 910,193 839,108 768,23 657,-20 506,-20 365,-20 258,22 186,107 114,192 78,314 78,475 78,634 114,755 186,839 258,923 367,965 514,965 657,965 764,924 837,842 910,759 946,637 946,475 Z M 766,475 C 766,540 762,598 753,649 744,700 730,743 710,778 689,813 662,839 629,858 596,876 555,885 506,885 457,885 416,876 384,858 352,839 327,813 308,778 289,743 276,700 269,649 262,598 258,540 258,475 258,410 262,351 269,300 276,249 289,205 308,170 327,134 352,107 384,88 416,69 457,59 506,59 555,59 596,69 629,88 662,107 689,134 710,170 730,205 744,249 753,300 762,351 766,410 766,475 Z"/>
   <glyph unicode="n" horiz-adv-x="980" d="M 324,864 C 343,875 365,886 391,898 416,910 443,921 471,931 499,941 527,949 555,956 583,962 609,965 633,965 669,965 702,960 732,950 762,940 788,924 810,902 831,880 848,851 861,816 873,781 879,738 879,688 L 879,70 993,45 993,0 588,0 588,45 713,70 713,670 C 713,725 700,769 673,801 646,832 604,848 547,848 528,848 509,847 488,845 467,843 447,841 427,838 407,835 388,832 371,829 353,825 338,822 326,819 L 326,70 453,45 453,0 47,0 47,45 160,70 160,870 47,895 47,940 315,940 324,864 Z"/>
   <glyph unicode="i" horiz-adv-x="504" d="M 379,1247 C 379,1232 376,1219 371,1206 365,1193 357,1181 347,1171 337,1161 325,1153 312,1148 299,1142 285,1139 270,1139 255,1139 242,1142 229,1148 216,1153 204,1161 194,1171 184,1181 176,1193 171,1206 165,1219 162,1232 162,1247 162,1262 165,1276 171,1289 176,1302 184,1314 194,1324 204,1334 216,1342 229,1348 242,1353 255,1356 270,1356 285,1356 299,1353 312,1348 325,1342 337,1334 347,1324 357,1314 365,1302 371,1289 376,1276 379,1262 379,1247 Z M 369,70 L 530,45 530,0 43,0 43,45 203,70 203,870 70,895 70,940 369,940 369,70 Z"/>
   <glyph unicode="c" horiz-adv-x="795" d="M 846,57 C 829,44 808,33 784,24 760,14 734,6 707,-1 680,-7 651,-12 622,-15 592,-18 563,-20 535,-20 454,-20 384,-9 327,14 269,36 222,68 185,111 148,154 121,206 104,268 87,329 78,399 78,477 78,562 89,636 112,698 134,759 165,810 205,850 245,889 293,918 348,937 403,956 463,965 528,965 582,965 634,962 685,956 736,949 782,942 823,934 L 823,672 768,672 725,838 C 700,852 671,863 636,872 601,881 564,885 526,885 483,885 445,877 412,862 379,846 351,821 328,788 305,755 287,712 276,661 264,610 258,548 258,477 258,417 263,363 273,315 283,266 301,225 326,191 351,157 386,131 429,112 472,93 526,84 592,84 615,84 638,85 662,87 685,88 708,91 731,94 753,97 774,100 794,104 813,108 831,112 846,117 L 846,57 Z"/>
   <glyph unicode="1" horiz-adv-x="742" d="M 627,80 L 901,53 901,0 180,0 180,53 455,80 455,1174 184,1077 184,1130 575,1352 627,1352 627,80 Z"/>
  </font>
 </defs>
 <defs>
  <font id="EmbeddedFont_2" horiz-adv-x="2048">
   <font-face font-family="Liberation Serif embedded" units-per-em="2048" font-weight="normal" font-style="italic" ascent="1799" descent="423"/>
   <missing-glyph horiz-adv-x="2048" d="M 0,0 L 2047,0 2047,2047 0,2047 0,0 Z"/>
   <glyph unicode="y" horiz-adv-x="1112" d="M 52,940 L 308,940 453,208 688,614 C 710,653 726,688 737,721 747,753 752,782 752,807 752,832 745,851 731,866 717,881 702,890 686,895 L 694,940 884,940 C 890,935 896,926 902,915 907,904 910,891 910,877 910,856 904,828 893,793 882,758 860,713 827,657 L 431,-9 C 392,-76 355,-136 320,-189 285,-242 250,-288 215,-325 180,-362 143,-391 105,-411 66,-431 24,-441 -22,-441 -39,-441 -54,-441 -68,-441 -80,-441 -92,-440 -104,-438 -114,-437 -125,-435 -136,-433 -147,-430 -158,-428 -171,-424 L -134,-221 -89,-221 -73,-317 C -56,-332 -29,-340 9,-340 38,-340 66,-332 93,-315 120,-298 145,-277 170,-251 194,-224 217,-195 238,-163 259,-131 277,-100 294,-70 L 339,12 156,870 44,895 52,940 Z"/>
   <glyph unicode="x" horiz-adv-x="927" d="M 248,236 C 227,215 209,197 196,182 182,167 171,153 163,142 155,130 150,119 147,110 144,101 142,92 142,84 142,73 146,65 154,59 161,53 171,48 184,45 L 176,0 -9,0 C -13,3 -17,9 -20,17 -23,24 -25,33 -25,43 -25,52 -22,63 -18,74 -12,85 -5,97 6,111 17,125 31,141 48,159 65,177 87,198 112,221 L 385,475 213,870 106,895 114,940 362,940 507,582 631,700 C 674,741 704,773 721,796 738,819 747,839 747,856 747,861 745,866 742,870 738,874 733,878 727,881 721,884 715,886 708,889 701,891 694,893 688,895 L 696,940 873,940 C 879,935 884,930 888,923 892,916 894,907 894,897 894,858 848,794 756,707 L 542,506 734,66 850,45 842,0 586,0 419,400 248,236 Z"/>
   <glyph unicode="n" horiz-adv-x="901" d="M 755,748 C 755,778 747,802 731,821 715,840 690,849 655,849 627,849 598,843 569,830 540,817 511,800 484,779 457,758 431,735 408,709 385,682 365,656 349,630 L 239,0 73,0 226,871 108,896 116,941 394,941 367,749 C 392,782 419,811 447,838 474,865 503,887 533,906 562,925 593,939 624,950 655,960 686,965 718,965 749,965 777,961 802,953 827,945 848,932 866,915 883,898 897,876 907,849 916,822 921,791 921,754 921,746 920,735 919,722 917,708 915,693 912,677 909,661 907,645 904,628 901,611 899,595 896,580 L 808,69 939,45 931,0 630,0 732,582 C 735,597 737,612 740,628 743,644 745,660 748,675 750,690 752,704 753,717 754,730 755,740 755,748 Z"/>
   <glyph unicode="j" horiz-adv-x="768" d="M 285,-39 C 272,-110 256,-170 235,-221 214,-271 189,-312 160,-344 131,-376 98,-399 61,-414 24,-429 -16,-436 -59,-436 -89,-436 -118,-433 -147,-427 -176,-420 -200,-413 -219,-406 L -186,-219 -139,-219 -124,-329 C -117,-336 -107,-343 -96,-348 -85,-353 -70,-356 -53,-356 -34,-356 -17,-352 -1,-344 15,-336 30,-322 43,-302 56,-282 69,-255 80,-221 91,-186 102,-143 111,-90 L 281,870 144,895 152,940 459,940 285,-39 Z M 519,1247 C 519,1232 516,1219 511,1206 505,1193 497,1181 487,1171 477,1161 465,1153 452,1148 439,1142 425,1139 410,1139 395,1139 382,1142 369,1148 356,1153 344,1161 334,1171 324,1181 316,1193 311,1206 305,1219 302,1232 302,1247 302,1262 305,1276 311,1289 316,1302 324,1314 334,1324 344,1334 356,1342 369,1348 382,1353 395,1356 410,1356 425,1356 439,1353 452,1348 465,1342 477,1334 487,1324 497,1314 505,1302 511,1289 516,1276 519,1262 519,1247 Z"/>
   <glyph unicode="Z" horiz-adv-x="1165" d="M 42,94 L 907,1255 707,1255 C 620,1255 547,1253 489,1249 431,1245 389,1240 364,1235 L 296,1024 227,1024 283,1341 1156,1341 1140,1255 267,84 507,84 C 550,84 594,85 637,88 680,90 721,93 758,97 795,100 828,104 856,108 884,111 904,114 917,117 L 1021,373 1091,373 998,0 25,0 42,94 Z"/>
   <glyph unicode="A" horiz-adv-x="1403" d="M 264,53 L 254,0 -112,0 -102,53 10,80 692,1352 883,1352 1133,80 1258,53 1247,0 772,0 783,53 926,80 862,467 334,467 129,80 264,53 Z M 723,1208 L 379,557 846,557 723,1208 Z"/>
  </font>
 </defs>
 <defs>
  <font id="EmbeddedFont_3" horiz-adv-x="2048">
   <font-face font-family="OpenSymbol embedded" units-per-em="2048" font-weight="normal" font-style="normal" ascent="1402" descent="423"/>
   <missing-glyph horiz-adv-x="2048" d="M 0,0 L 2047,0 2047,2047 0,2047 0,0 Z"/>
   <glyph unicode="−" horiz-adv-x="1191" d="M 221,543 L 221,641 1405,641 1405,543 221,543 Z"/>
   <glyph unicode="×" horiz-adv-x="1191" d="M 221,70 L 743,592 221,1114 293,1184 813,662 1337,1184 1405,1114 883,592 1405,70 1337,0 813,522 293,0 221,70 Z"/>
   <glyph unicode="]" horiz-adv-x="398" d="M 428,-403 L 74,-403 74,-330 330,-330 330,1553 74,1553 74,1622 428,1622 428,-403 Z"/>
   <glyph unicode="[" horiz-adv-x="372" d="M 150,-403 L 150,1622 504,1622 504,1552 248,1552 248,-332 504,-332 504,-403 150,-403 Z"/>
   <glyph unicode="+" horiz-adv-x="980" d="M 512,115 L 512,516 115,516 115,684 512,684 512,1083 682,1083 682,684 1081,684 1081,516 682,516 682,115 512,115 Z"/>
   <glyph unicode=")" horiz-adv-x="424" d="M 123,-434 C 318,-246 416,112 416,641 416,1162 318,1521 123,1716 L 123,1767 C 269,1651 375,1480 442,1253 497,1074 524,870 524,641 524,109 390,-266 123,-483 L 123,-434 Z"/>
   <glyph unicode="(" horiz-adv-x="424" d="M 573,-434 L 573,-483 C 306,-259 172,116 172,641 172,1172 306,1548 573,1767 L 573,1716 C 378,1524 281,1166 281,641 281,111 378,-247 573,-434 Z"/>
  </font>
 </defs>
 <defs class="TextShapeIndex">
  <g ooo:slide="id1" ooo:id-list="id3 id4 id5 id6 id7 id8 id9 id10 id11 id12 id13 id14 id15 id16 id17 id18 id19 id20 id21 id22 id23 id24 id25 id26 id27 id28 id29 id30 id31 id32 id33 id34"/>
 </defs>
 <defs class="EmbeddedBulletChars">
  <g id="bullet-char-template(57356)" transform="scale(0.00048828125,-0.00048828125)">
   <path d="M 580,1141 L 1163,571 580,0 -4,571 580,1141 Z"/>
  </g>
  <g id="bullet-char-template(57354)" transform="scale(0.00048828125,-0.00048828125)">
   <path d="M 8,1128 L 1137,1128 1137,0 8,0 8,1128 Z"/>
  </g>
  <g id="bullet-char-template(10146)" transform="scale(0.00048828125,-0.00048828125)">
   <path d="M 174,0 L 602,739 174,1481 1456,739 174,0 Z M 1358,739 L 309,1346 659,739 1358,739 Z"/>
  </g>
  <g id="bullet-char-template(10132)" transform="scale(0.00048828125,-0.00048828125)">
   <path d="M 2015,739 L 1276,0 717,0 1260,543 174,543 174,936 1260,936 717,1481 1274,1481 2015,739 Z"/>
  </g>
  <g id="bullet-char-template(10007)" transform="scale(0.00048828125,-0.00048828125)">
   <path d="M 0,-2 C -7,14 -16,27 -25,37 L 356,567 C 262,823 215,952 215,954 215,979 228,992 255,992 264,992 276,990 289,987 310,991 331,999 354,1012 L 381,999 492,748 772,1049 836,1024 860,1049 C 881,1039 901,1025 922,1006 886,937 835,863 770,784 769,783 710,716 594,584 L 774,223 C 774,196 753,168 711,139 L 727,119 C 717,90 699,76 672,76 641,76 570,178 457,381 L 164,-76 C 142,-110 111,-127 72,-127 30,-127 9,-110 8,-76 1,-67 -2,-52 -2,-32 -2,-23 -1,-13 0,-2 Z"/>
  </g>
  <g id="bullet-char-template(10004)" transform="scale(0.00048828125,-0.00048828125)">
   <path d="M 285,-33 C 182,-33 111,30 74,156 52,228 41,333 41,471 41,549 55,616 82,672 116,743 169,778 240,778 293,778 328,747 346,684 L 369,508 C 377,444 397,411 428,410 L 1163,1116 C 1174,1127 1196,1133 1229,1133 1271,1133 1292,1118 1292,1087 L 1292,965 C 1292,929 1282,901 1262,881 L 442,47 C 390,-6 338,-33 285,-33 Z"/>
  </g>
  <g id="bullet-char-template(9679)" transform="scale(0.00048828125,-0.00048828125)">
   <path d="M 813,0 C 632,0 489,54 383,161 276,268 223,411 223,592 223,773 276,916 383,1023 489,1130 632,1184 813,1184 992,1184 1136,1130 1245,1023 1353,916 1407,772 1407,592 1407,412 1353,268 1245,161 1136,54 992,0 813,0 Z"/>
  </g>
  <g id="bullet-char-template(8226)" transform="scale(0.00048828125,-0.00048828125)">
   <path d="M 346,457 C 273,457 209,483 155,535 101,586 74,649 74,723 74,796 101,859 155,911 209,963 273,989 346,989 419,989 480,963 531,910 582,859 608,796 608,723 608,648 583,586 532,535 482,483 420,457 346,457 Z"/>
  </g>
  <g id="bullet-char-template(8211)" transform="scale(0.00048828125,-0.00048828125)">
   <path d="M -4,459 L 1135,459 1135,606 -4,606 -4,459 Z"/>
  </g>
  <g id="bullet-char-template(61548)" transform="scale(0.00048828125,-0.00048828125)">
   <path d="M 173,740 C 173,903 231,1043 346,1159 462,1274 601,1332 765,1332 928,1332 1067,1274 1183,1159 1299,1043 1357,903 1357,740 1357,577 1299,437 1183,322 1067,206 928,148 765,148 601,148 462,206 346,322 231,437 173,577 173,740 Z"/>
  </g>
 </defs>
 <defs class="TextEmbeddedBitmaps"/>
 <g class="SlideGroup">
  <g>
   <g id="container-id1">
    <g id="id1" class="Slide" clip-path="url(#presentation_clip_path)">
     <g class="Page">
      <g class="OLE2">
       <g id="id3">
        <rect class="BoundingBox" stroke="none" fill="none" x="1000" y="12350" width="992" height="481"/>
        <defs>
         <clipPath id="clip_path_1" clipPathUnits="userSpaceOnUse">
          <path d="M 1005,12356 L 1984,12356 1984,12832 1005,12832 1005,12356 Z"/>
         </clipPath>
        </defs>
        <g clip-path="url(#clip_path_1)">
         <text class="TextShape"><tspan class="TextParagraph" font-family="Liberation Serif, serif" font-size="422px" font-style="italic" font-weight="400"><tspan class="TextPosition" x="1132" y="12720"><tspan fill="rgb(0,0,0)" stroke="none">x</tspan></tspan></tspan></text>
         <text class="TextShape"><tspan class="TextParagraph" font-family="OpenSymbol" font-size="422px" font-weight="400"><tspan class="TextPosition" x="1370" y="12720"><tspan fill="rgb(0,0,0)" stroke="none">[</tspan></tspan></tspan></text>
         <text class="TextShape"><tspan class="TextParagraph" font-family="Liberation Serif, serif" font-size="422px" font-style="italic" font-weight="400"><tspan class="TextPosition" x="1529" y="12720"><tspan fill="rgb(0,0,0)" stroke="none">n</tspan></tspan></tspan></text>
         <text class="TextShape"><tspan class="TextParagraph" font-family="OpenSymbol" font-size="422px" font-weight="400"><tspan class="TextPosition" x="1767" y="12720"><tspan fill="rgb(0,0,0)" stroke="none">]</tspan></tspan></tspan></text>
        </g>
       </g>
      </g>
      <g class="com.sun.star.drawing.CustomShape">
       <g id="id4">
        <rect class="BoundingBox" stroke="none" fill="none" x="3024" y="12187" width="842" height="842"/>
        <path fill="none" stroke="rgb(0,0,0)" stroke-width="40" stroke-linejoin="round" d="M 3444,12207 C 3671,12207 3844,12380 3844,12607 3844,12834 3671,13007 3444,13007 3217,13007 3044,12834 3044,12607 3044,12380 3217,12207 3444,12207 Z"/>
       </g>
      </g>
      <g class="OLE2">
       <g id="id5">
        <rect class="BoundingBox" stroke="none" fill="none" x="3227" y="12518" width="491" height="234"/>
        <defs>
         <clipPath id="clip_path_2" clipPathUnits="userSpaceOnUse">
          <path d="M 3228,12515 L 3704,12515 3704,12753 3228,12753 3228,12515 Z"/>
         </clipPath>
        </defs>
        <g clip-path="url(#clip_path_2)">
         <text class="TextShape"><tspan class="TextParagraph" font-family="OpenSymbol" font-size="422px" font-weight="400"><tspan class="TextPosition" x="3333" y="12756"><tspan fill="rgb(0,0,0)" stroke="none">+</tspan></tspan></tspan></text>
        </g>
       </g>
      </g>
      <g class="OLE2">
       <g id="id6">
        <rect class="BoundingBox" stroke="none" fill="none" x="13872" y="12340" width="1027" height="481"/>
        <defs>
         <clipPath id="clip_path_3" clipPathUnits="userSpaceOnUse">
          <path d="M 13864,12330 L 14896,12330 14896,12832 13864,12832 13864,12330 Z"/>
         </clipPath>
        </defs>
        <g clip-path="url(#clip_path_3)">
         <text class="TextShape"><tspan class="TextParagraph" font-family="Liberation Serif, serif" font-size="422px" font-style="italic" font-weight="400"><tspan class="TextPosition" x="14031" y="12710"><tspan fill="rgb(0,0,0)" stroke="none">y</tspan></tspan></tspan></text>
         <text class="TextShape"><tspan class="TextParagraph" font-family="OpenSymbol" font-size="422px" font-weight="400"><tspan class="TextPosition" x="14269" y="12710"><tspan fill="rgb(0,0,0)" stroke="none">[</tspan></tspan></tspan></text>
         <text class="TextShape"><tspan class="TextParagraph" font-family="Liberation Serif, serif" font-size="422px" font-style="italic" font-weight="400"><tspan class="TextPosition" x="14428" y="12710"><tspan fill="rgb(0,0,0)" stroke="none">n</tspan></tspan></tspan></text>
         <text class="TextShape"><tspan class="TextParagraph" font-family="OpenSymbol" font-size="422px" font-weight="400"><tspan class="TextPosition" x="14692" y="12710"><tspan fill="rgb(0,0,0)" stroke="none">]</tspan></tspan></tspan></text>
        </g>
       </g>
      </g>
      <g class="com.sun.star.drawing.LineShape">
       <g id="id7">
        <rect class="BoundingBox" stroke="none" fill="none" x="3912" y="12429" width="1780" height="353"/>
        <path fill="none" stroke="rgb(0,0,0)" stroke-width="35" stroke-linejoin="round" d="M 3930,12605 L 5362,12605"/>
        <path fill="rgb(0,0,0)" stroke="none" d="M 5343,12573 L 5352,12541 5368,12509 5390,12480 5419,12458 5451,12442 5483,12433 5515,12429 5547,12433 5580,12442 5612,12458 5640,12480 5662,12509 5678,12541 5688,12573 5691,12606 5688,12637 5678,12670 5662,12701 5640,12730 5612,12752 5580,12768 5547,12777 5515,12781 5483,12777 5451,12768 5419,12752 5390,12730 5368,12701 5352,12670 5343,12637 5339,12606 5343,12573 Z"/>
       </g>
      </g>
      <g class="com.sun.star.drawing.LineShape">
       <g id="id8">
        <rect class="BoundingBox" stroke="none" fill="none" x="4301" y="12494" width="354" height="1102"/>
        <path fill="none" stroke="rgb(0,0,0)" stroke-width="35" stroke-linejoin="round" d="M 4476,12730 L 4477,13090"/>
        <path fill="rgb(0,0,0)" stroke="none" d="M 4453,12744 L 4430,12738 4407,12727 4387,12711 4370,12690 4359,12667 4352,12645 4349,12621 4352,12598 4359,12575 4370,12552 4386,12532 4407,12516 4429,12505 4452,12497 4476,12495 4498,12497 4522,12504 4544,12515 4564,12531 4580,12551 4592,12574 4598,12597 4601,12620 4599,12644 4592,12666 4581,12689 4565,12710 4544,12726 4523,12737 4499,12744 4476,12747 4453,12744 Z"/>
        <path fill="rgb(0,0,0)" stroke="none" d="M 4479,13595 L 4653,13066 4301,13068 4479,13595 Z"/>
       </g>
      </g>
      <g class="com.sun.star.drawing.CustomShape">
       <g id="id9">
        <rect class="BoundingBox" stroke="none" fill="none" x="3945" y="13679" width="1041" height="1041"/>
        <path fill="none" stroke="rgb(0,0,0)" stroke-width="40" stroke-linejoin="round" d="M 4465,14699 L 3965,14699 3965,13699 4965,13699 4965,14699 4465,14699 Z"/>
       </g>
      </g>
      <g class="OLE2">
       <g id="id10">
        <rect class="BoundingBox" stroke="none" fill="none" x="4059" y="13937" width="813" height="525"/>
        <defs>
         <clipPath id="clip_path_4" clipPathUnits="userSpaceOnUse">
          <path d="M 4048,13944 L 4868,13944 4868,14473 4048,14473 4048,13944 Z"/>
         </clipPath>
        </defs>
        <g clip-path="url(#clip_path_4)">
         <text class="TextShape"><tspan class="TextParagraph" font-family="Liberation Serif, serif" font-size="422px" font-style="italic" font-weight="400"><tspan class="TextPosition" x="4166" y="14360"><tspan fill="rgb(0,0,0)" stroke="none">Z</tspan></tspan></tspan></text>
         <text class="TextShape"><tspan class="TextParagraph" font-family="OpenSymbol" font-size="253px" font-weight="400"><tspan class="TextPosition" x="4433" y="14175"><tspan fill="rgb(0,0,0)" stroke="none">−</tspan></tspan></tspan></text>
         <text class="TextShape"><tspan class="TextParagraph" font-family="Liberation Serif, serif" font-size="253px" font-weight="400"><tspan class="TextPosition" x="4647" y="14175"><tspan fill="rgb(0,0,0)" stroke="none">1</tspan></tspan></tspan></text>
        </g>
       </g>
      </g>
      <g class="com.sun.star.drawing.CustomShape">
       <g id="id11">
        <rect class="BoundingBox" stroke="none" fill="none" x="12062" y="12174" width="842" height="842"/>
        <path fill="none" stroke="rgb(0,0,0)" stroke-width="40" stroke-linejoin="round" d="M 12482,12194 C 12709,12194 12882,12367 12882,12594 12882,12821 12709,12994 12482,12994 12255,12994 12082,12821 12082,12594 12082,12367 12255,12194 12482,12194 Z"/>
       </g>
      </g>
      <g class="OLE2">
       <g id="id12">
        <rect class="BoundingBox" stroke="none" fill="none" x="12265" y="12505" width="491" height="234"/>
        <defs>
         <clipPath id="clip_path_5" clipPathUnits="userSpaceOnUse">
          <path d="M 12277,12515 L 12753,12515 12753,12726 12277,12726 12277,12515 Z"/>
         </clipPath>
        </defs>
        <g clip-path="url(#clip_path_5)">
         <text class="TextShape"><tspan class="TextParagraph" font-family="OpenSymbol" font-size="422px" font-weight="400"><tspan class="TextPosition" x="12371" y="12743"><tspan fill="rgb(0,0,0)" stroke="none">+</tspan></tspan></tspan></text>
        </g>
       </g>
      </g>
      <g class="com.sun.star.drawing.LineShape">
       <g id="id13">
        <rect class="BoundingBox" stroke="none" fill="none" x="12915" y="12441" width="1019" height="353"/>
        <path fill="none" stroke="rgb(0,0,0)" stroke-width="35" stroke-linejoin="round" d="M 12933,12617 L 13428,12617"/>
        <path fill="rgb(0,0,0)" stroke="none" d="M 13933,12617 L 13405,12441 13405,12793 13933,12617 Z"/>
       </g>
      </g>
      <g class="com.sun.star.drawing.LineShape">
       <g id="id14">
        <rect class="BoundingBox" stroke="none" fill="none" x="1929" y="12454" width="1019" height="353"/>
        <path fill="none" stroke="rgb(0,0,0)" stroke-width="35" stroke-linejoin="round" d="M 1947,12630 L 2442,12630"/>
        <path fill="rgb(0,0,0)" stroke="none" d="M 2947,12630 L 2419,12454 2419,12806 2947,12630 Z"/>
       </g>
      </g>
      <g class="com.sun.star.drawing.LineShape">
       <g id="id15">
        <rect class="BoundingBox" stroke="none" fill="none" x="3275" y="13063" width="353" height="1138"/>
        <path fill="none" stroke="rgb(0,0,0)" stroke-width="35" stroke-linejoin="round" d="M 3451,14182 L 3451,13568"/>
        <path fill="rgb(0,0,0)" stroke="none" d="M 3451,13063 L 3275,13591 3627,13591 3451,13063 Z"/>
       </g>
      </g>
      <g class="com.sun.star.drawing.LineShape">
       <g id="id16">
        <rect class="BoundingBox" stroke="none" fill="none" x="3425" y="14146" width="510" height="41"/>
        <path fill="none" stroke="rgb(0,0,0)" stroke-width="40" stroke-linejoin="round" d="M 3445,14166 L 3914,14166"/>
       </g>
      </g>
      <g class="Group">
       <g class="com.sun.star.drawing.CustomShape">
        <g id="id17">
         <rect class="BoundingBox" stroke="none" fill="none" x="6545" y="13001" width="1541" height="1541"/>
         <path fill="none" stroke="rgb(0,0,0)" stroke-width="40" stroke-linejoin="round" d="M 7315,14521 L 6565,14521 6565,13021 8065,13021 8065,14521 7315,14521 Z"/>
        </g>
       </g>
       <g class="OLE2">
        <g id="id18">
         <rect class="BoundingBox" stroke="none" fill="none" x="6755" y="13517" width="1122" height="509"/>
         <defs>
          <clipPath id="clip_path_6" clipPathUnits="userSpaceOnUse">
           <path d="M 6747,13520 L 7884,13520 7884,14023 6747,14023 6747,13520 Z"/>
          </clipPath>
         </defs>
         <g clip-path="url(#clip_path_6)">
          <text class="TextShape"><tspan class="TextParagraph" font-family="Liberation Serif, serif" font-size="422px" font-weight="400"><tspan class="TextPosition" x="6862" y="13914"><tspan fill="rgb(0,0,0)" stroke="none">sin</tspan></tspan></tspan></text>
          <text class="TextShape"><tspan class="TextParagraph" font-family="OpenSymbol" font-size="422px" font-weight="400"><tspan class="TextPosition" x="7397" y="13914"><tspan fill="rgb(0,0,0)" stroke="none">(</tspan></tspan></tspan></text>
          <text class="TextShape"><tspan class="TextParagraph" font-family="OpenSymbol" font-size="422px" font-weight="400"><tspan class="TextPosition" x="7637" y="13914"><tspan fill="rgb(0,0,0)" stroke="none">)</tspan></tspan></tspan></text>
         </g>
        </g>
       </g>
      </g>
      <g class="Group">
       <g class="com.sun.star.drawing.CustomShape">
        <g id="id19">
         <rect class="BoundingBox" stroke="none" fill="none" x="6545" y="10708" width="1541" height="1541"/>
         <path fill="none" stroke="rgb(0,0,0)" stroke-width="40" stroke-linejoin="round" d="M 7315,12228 L 6565,12228 6565,10728 8065,10728 8065,12228 7315,12228 Z"/>
        </g>
       </g>
       <g class="OLE2">
        <g id="id20">
         <rect class="BoundingBox" stroke="none" fill="none" x="6723" y="11224" width="1185" height="509"/>
         <defs>
          <clipPath id="clip_path_7" clipPathUnits="userSpaceOnUse">
           <path d="M 6720,11218 L 7911,11218 7911,11721 6720,11721 6720,11218 Z"/>
          </clipPath>
         </defs>
         <g clip-path="url(#clip_path_7)">
          <text class="TextShape"><tspan class="TextParagraph" font-family="Liberation Serif, serif" font-size="422px" font-weight="400"><tspan class="TextPosition" x="6830" y="11621"><tspan fill="rgb(0,0,0)" stroke="none">cos</tspan></tspan></tspan></text>
          <text class="TextShape"><tspan class="TextParagraph" font-family="OpenSymbol" font-size="422px" font-weight="400"><tspan class="TextPosition" x="7444" y="11621"><tspan fill="rgb(0,0,0)" stroke="none">(</tspan></tspan></tspan></text>
          <text class="TextShape"><tspan class="TextParagraph" font-family="OpenSymbol" font-size="422px" font-weight="400"><tspan class="TextPosition" x="7658" y="11621"><tspan fill="rgb(0,0,0)" stroke="none">)</tspan></tspan></tspan></text>
         </g>
        </g>
       </g>
      </g>
      <g class="Group">
       <g class="OLE2">
        <g id="id21">
         <rect class="BoundingBox" stroke="none" fill="none" x="9145" y="13538" width="931" height="467"/>
         <defs>
          <clipPath id="clip_path_8" clipPathUnits="userSpaceOnUse">
           <path d="M 9155,13547 L 10081,13547 10081,13996 9155,13996 9155,13547 Z"/>
          </clipPath>
         </defs>
         <g clip-path="url(#clip_path_8)">
          <text class="TextShape"><tspan class="TextParagraph" font-family="OpenSymbol" font-size="422px" font-weight="400"><tspan class="TextPosition" x="9304" y="13908"><tspan fill="rgb(0,0,0)" stroke="none">×</tspan></tspan></tspan></text>
          <text class="TextShape"><tspan class="TextParagraph" font-family="Liberation Serif, serif" font-size="422px" font-style="italic" font-weight="400"><tspan class="TextPosition" x="9701" y="13908"><tspan fill="rgb(0,0,0)" stroke="none">A</tspan></tspan></tspan></text>
         </g>
        </g>
       </g>
       <g class="com.sun.star.drawing.CustomShape">
        <g id="id22">
         <rect class="BoundingBox" stroke="none" fill="none" x="9123" y="12950" width="1643" height="1643"/>
         <path fill="none" stroke="rgb(0,0,0)" stroke-width="40" stroke-linejoin="round" d="M 10745,13771 L 9145,14571 9145,12971 10745,13771 Z"/>
        </g>
       </g>
      </g>
      <g class="Group">
       <g class="OLE2">
        <g id="id23">
         <rect class="BoundingBox" stroke="none" fill="none" x="9145" y="11245" width="931" height="467"/>
         <defs>
          <clipPath id="clip_path_9" clipPathUnits="userSpaceOnUse">
           <path d="M 9155,11245 L 10081,11245 10081,11721 9155,11721 9155,11245 Z"/>
          </clipPath>
         </defs>
         <g clip-path="url(#clip_path_9)">
          <text class="TextShape"><tspan class="TextParagraph" font-family="OpenSymbol" font-size="422px" font-weight="400"><tspan class="TextPosition" x="9304" y="11615"><tspan fill="rgb(0,0,0)" stroke="none">×</tspan></tspan></tspan></text>
          <text class="TextShape"><tspan class="TextParagraph" font-family="Liberation Serif, serif" font-size="422px" font-style="italic" font-weight="400"><tspan class="TextPosition" x="9701" y="11615"><tspan fill="rgb(0,0,0)" stroke="none">A</tspan></tspan></tspan></text>
         </g>
        </g>
       </g>
       <g class="com.sun.star.drawing.CustomShape">
        <g id="id24">
         <rect class="BoundingBox" stroke="none" fill="none" x="9123" y="10657" width="1643" height="1643"/>
         <path fill="none" stroke="rgb(0,0,0)" stroke-width="40" stroke-linejoin="round" d="M 10745,11478 L 9145,12278 9145,10678 10745,11478 Z"/>
        </g>
       </g>
      </g>
      <g class="com.sun.star.drawing.LineShape">
       <g id="id25">
        <rect class="BoundingBox" stroke="none" fill="none" x="8116" y="11302" width="1019" height="353"/>
        <path fill="none" stroke="rgb(0,0,0)" stroke-width="35" stroke-linejoin="round" d="M 8134,11478 L 8629,11478"/>
        <path fill="rgb(0,0,0)" stroke="none" d="M 9134,11478 L 8606,11302 8606,11654 9134,11478 Z"/>
       </g>
      </g>
      <g class="com.sun.star.drawing.LineShape">
       <g id="id26">
        <rect class="BoundingBox" stroke="none" fill="none" x="8116" y="13595" width="1019" height="353"/>
        <path fill="none" stroke="rgb(0,0,0)" stroke-width="35" stroke-linejoin="round" d="M 8134,13771 L 8629,13771"/>
        <path fill="rgb(0,0,0)" stroke="none" d="M 9134,13771 L 8606,13595 8606,13947 9134,13771 Z"/>
       </g>
      </g>
      <g class="com.sun.star.drawing.LineShape">
       <g id="id27">
        <rect class="BoundingBox" stroke="none" fill="none" x="5470" y="11329" width="1019" height="353"/>
        <path fill="none" stroke="rgb(0,0,0)" stroke-width="35" stroke-linejoin="round" d="M 5488,11505 L 5983,11505"/>
        <path fill="rgb(0,0,0)" stroke="none" d="M 6488,11505 L 5960,11329 5960,11681 6488,11505 Z"/>
       </g>
      </g>
      <g class="com.sun.star.drawing.LineShape">
       <g id="id28">
        <rect class="BoundingBox" stroke="none" fill="none" x="5470" y="13551" width="1019" height="353"/>
        <path fill="none" stroke="rgb(0,0,0)" stroke-width="35" stroke-linejoin="round" d="M 5488,13727 L 5983,13727"/>
        <path fill="rgb(0,0,0)" stroke="none" d="M 6488,13727 L 5960,13551 5960,13903 6488,13727 Z"/>
       </g>
      </g>
      <g class="com.sun.star.drawing.LineShape">
       <g id="id29">
        <rect class="BoundingBox" stroke="none" fill="none" x="5486" y="11487" width="37" height="2237"/>
        <path fill="none" stroke="rgb(0,0,0)" stroke-width="35" stroke-linejoin="round" d="M 5504,13705 L 5504,11505"/>
       </g>
      </g>
      <g class="Group">
       <g class="com.sun.star.drawing.LineShape">
        <g id="id30">
         <rect class="BoundingBox" stroke="none" fill="none" x="12314" y="13044" width="353" height="749"/>
         <path fill="none" stroke="rgb(0,0,0)" stroke-width="35" stroke-linejoin="round" d="M 12490,13774 L 12490,13549"/>
         <path fill="rgb(0,0,0)" stroke="none" d="M 12490,13044 L 12314,13572 12666,13572 12490,13044 Z"/>
        </g>
       </g>
       <g class="com.sun.star.drawing.LineShape">
        <g id="id31">
         <rect class="BoundingBox" stroke="none" fill="none" x="10799" y="13753" width="1706" height="37"/>
         <path fill="none" stroke="rgb(0,0,0)" stroke-width="35" stroke-linejoin="round" d="M 10817,13771 L 12486,13771"/>
        </g>
       </g>
      </g>
      <g class="Group">
       <g class="com.sun.star.drawing.LineShape">
        <g id="id32">
         <rect class="BoundingBox" stroke="none" fill="none" x="12296" y="11429" width="353" height="749"/>
         <path fill="none" stroke="rgb(0,0,0)" stroke-width="35" stroke-linejoin="round" d="M 12472,11447 L 12472,11672"/>
         <path fill="rgb(0,0,0)" stroke="none" d="M 12472,12177 L 12648,11649 12296,11649 12472,12177 Z"/>
        </g>
       </g>
       <g class="com.sun.star.drawing.LineShape">
        <g id="id33">
         <rect class="BoundingBox" stroke="none" fill="none" x="10781" y="11432" width="1706" height="37"/>
         <path fill="none" stroke="rgb(0,0,0)" stroke-width="35" stroke-linejoin="round" d="M 10799,11450 L 12468,11450"/>
        </g>
       </g>
      </g>
      <g class="OLE2">
       <g id="id34">
        <rect class="BoundingBox" stroke="none" fill="none" x="11756" y="13765" width="801" height="467"/>
        <defs>
         <clipPath id="clip_path_10" clipPathUnits="userSpaceOnUse">
          <path d="M 11748,13758 L 12568,13758 12568,14235 11748,14235 11748,13758 Z"/>
         </clipPath>
        </defs>
        <g clip-path="url(#clip_path_10)">
         <text class="TextShape"><tspan class="TextParagraph" font-family="OpenSymbol" font-size="422px" font-weight="400"><tspan class="TextPosition" x="11915" y="14135"><tspan fill="rgb(0,0,0)" stroke="none">×</tspan></tspan></tspan></text>
         <text class="TextShape"><tspan class="TextParagraph" font-family="Liberation Serif, serif" font-size="422px" font-style="italic" font-weight="400"><tspan class="TextPosition" x="12338" y="14135"><tspan fill="rgb(0,0,0)" stroke="none">j</tspan></tspan></tspan></text>
        </g>
       </g>
      </g>
     </g>
    </g>
   </g>
  </g>
 </g>
</svg>