<?xml version="1.0" encoding="UTF-8"?>
<!DOCTYPE svg PUBLIC "-//W3C//DTD SVG 1.1//EN" "http://www.w3.org/Graphics/SVG/1.1/DTD/svg11.dtd">
<svg version="1.2" width="157.51mm" height="40.6mm" viewBox="1000 4543 15751 4060" preserveAspectRatio="xMidYMid" fill-rule="evenodd" stroke-width="28.222" stroke-linejoin="round" xmlns="http://www.w3.org/2000/svg" xmlns:ooo="http://xml.openoffice.org/svg/export" xmlns:xlink="http://www.w3.org/1999/xlink" xmlns:presentation="http://sun.com/xmlns/staroffice/presentation" xmlns:smil="http://www.w3.org/2001/SMIL20/" xmlns:anim="urn:oasis:names:tc:opendocument:xmlns:animation:1.0" xml:space="preserve">
 <defs class="ClipPathGroup">
  <clipPath id="presentation_clip_path" clipPathUnits="userSpaceOnUse">
   <rect x="1000" y="4543" width="15751" height="4060"/>
  </clipPath>
  <clipPath id="presentation_clip_path_shrink" clipPathUnits="userSpaceOnUse">
   <rect x="1015" y="4547" width="15720" height="4052"/>
  </clipPath>
 </defs>
 <defs>
  <font id="EmbeddedFont_1" horiz-adv-x="2048">
   <font-face font-family="Liberation Mono embedded" units-per-em="2048" font-weight="normal" font-style="normal" ascent="1693" descent="609"/>
   <missing-glyph horiz-adv-x="2048" d="M 0,0 L 2047,0 2047,2047 0,2047 0,0 Z"/>
   <glyph unicode="u" horiz-adv-x="900" d="M 365,1082 L 365,396 C 365,343 369,299 377,264 384,229 397,200 415,179 432,157 455,142 484,133 512,124 547,119 589,119 632,119 670,127 705,142 739,157 768,178 793,207 817,235 836,270 849,312 862,353 868,401 868,455 L 868,1082 1049,1082 1049,231 C 1049,208 1049,185 1050,160 1050,135 1050,111 1051,89 1052,66 1052,47 1053,31 1054,15 1054,5 1055,0 L 885,0 C 884,3 884,12 883,27 882,42 882,59 881,78 880,97 879,116 878,136 877,155 877,172 877,185 L 874,185 C 857,154 838,125 817,100 796,75 772,53 745,36 718,18 686,4 651,-6 616,-15 575,-20 528,-20 468,-20 416,-13 373,2 330,17 294,39 266,70 238,101 218,140 205,189 192,237 185,294 185,361 L 185,1082 365,1082 Z"/>
   <glyph unicode="t" horiz-adv-x="848" d="M 190,940 L 190,1082 360,1082 418,1364 538,1364 538,1082 970,1082 970,940 538,940 538,288 C 538,235 552,196 581,171 609,146 655,133 720,133 747,133 774,134 803,137 831,139 858,142 885,145 911,148 936,152 959,156 982,160 1001,164 1017,167 L 1017,30 C 1002,26 983,21 960,16 937,11 911,6 882,1 853,-4 821,-8 787,-11 753,-14 718,-16 682,-16 574,-16 493,7 439,53 385,98 358,170 358,269 L 358,940 190,940 Z"/>
   <glyph unicode="s" horiz-adv-x="900" d="M 1060,309 C 1060,258 1050,213 1031,172 1011,131 982,97 945,69 908,40 862,18 808,3 753,-12 691,-20 621,-20 558,-20 502,-15 452,-7 401,3 357,17 319,38 281,59 249,86 224,121 198,155 179,197 167,248 L 326,279 C 334,242 347,213 365,192 382,170 404,153 429,142 454,131 482,123 515,120 548,116 583,114 621,114 660,114 696,117 729,123 762,128 790,138 814,152 838,165 857,183 871,205 884,226 891,253 891,285 891,318 883,345 866,366 849,386 825,403 796,417 767,431 732,443 692,453 651,463 607,474 560,487 517,498 475,511 433,524 391,537 354,555 321,577 288,598 261,626 241,659 220,692 210,735 210,786 210,884 245,961 316,1016 387,1071 489,1099 623,1099 676,1099 725,1094 771,1085 817,1075 858,1060 894,1039 930,1018 960,991 985,958 1009,925 1026,885 1035,839 L 873,819 C 868,849 858,873 843,892 828,911 809,926 787,937 764,948 739,955 711,959 683,963 654,965 623,965 460,965 378,915 378,814 378,783 385,759 400,740 414,721 434,705 460,692 486,679 517,669 553,660 589,651 629,640 672,629 715,618 760,606 806,592 851,578 893,559 931,536 968,513 999,483 1024,447 1048,410 1060,364 1060,309 Z"/>
   <glyph unicode="r" horiz-adv-x="821" d="M 1045,918 C 1014,923 981,928 947,932 912,935 874,937 833,937 777,937 727,926 682,903 637,880 600,850 569,811 538,772 515,726 499,674 482,622 474,567 474,508 L 474,0 294,0 294,701 C 294,738 292,776 288,815 284,854 279,890 274,925 269,959 263,990 257,1017 251,1044 246,1066 242,1082 L 413,1082 C 418,1066 423,1048 428,1027 433,1006 437,985 442,963 447,940 451,918 454,895 457,872 460,851 461,832 L 466,832 C 485,873 504,911 525,944 546,977 570,1006 599,1029 627,1052 660,1070 699,1083 738,1096 784,1102 839,1102 876,1102 913,1100 949,1097 985,1094 1017,1090 1045,1085 L 1045,918 Z"/>
   <glyph unicode="p" horiz-adv-x="927" d="M 1090,546 C 1090,464 1083,388 1070,319 1057,250 1035,190 1004,140 973,90 933,51 883,23 833,-6 771,-20 698,-20 661,-20 626,-17 593,-10 560,-3 529,7 500,22 471,37 446,56 424,79 401,102 382,131 367,164 L 362,164 C 363,163 363,157 364,147 364,136 364,123 365,108 365,93 365,75 366,56 366,37 366,17 366,-2 L 366,-425 185,-425 185,858 C 185,885 185,910 185,935 184,960 184,982 183,1002 182,1021 182,1038 181,1052 180,1066 180,1076 179,1082 L 354,1082 C 355,1080 356,1073 357,1061 358,1048 359,1033 360,1016 361,999 362,980 363,960 364,940 364,921 364,904 L 368,904 C 385,939 404,969 425,994 446,1019 469,1040 496,1057 523,1073 553,1085 586,1093 619,1100 657,1104 698,1104 771,1104 833,1091 883,1064 933,1037 973,1000 1004,951 1035,902 1057,843 1070,774 1083,705 1090,629 1090,546 Z M 904,546 C 904,613 900,672 892,724 884,776 870,820 851,856 831,891 805,918 773,937 740,956 700,965 651,965 612,965 575,959 540,947 505,934 475,912 450,880 424,847 404,802 389,745 374,688 366,614 366,524 366,447 372,383 385,331 397,278 415,236 439,204 463,171 493,148 528,134 563,120 604,113 649,113 698,113 738,123 771,142 804,161 830,188 850,225 869,262 883,307 892,361 900,415 904,477 904,546 Z"/>
   <glyph unicode="o" horiz-adv-x="1006" d="M 1097,542 C 1097,447 1086,365 1064,295 1041,224 1009,166 967,119 925,72 874,38 814,15 753,-8 685,-20 609,-20 536,-20 471,-9 412,14 353,37 302,71 261,118 219,165 187,223 164,294 141,364 130,447 130,542 130,728 172,868 257,962 341,1055 460,1102 615,1102 778,1102 899,1056 978,963 1057,870 1097,730 1097,542 Z M 908,542 C 908,626 901,695 887,750 872,805 852,848 827,881 801,914 770,937 735,950 700,963 661,969 618,969 575,969 535,962 498,949 461,935 430,912 404,879 377,846 357,802 342,747 327,692 319,624 319,542 319,458 327,389 343,334 358,279 379,235 406,202 432,169 463,146 498,133 533,120 569,113 607,113 650,113 691,120 728,133 765,146 796,168 823,201 850,234 871,278 886,333 901,388 908,458 908,542 Z"/>
   <glyph unicode="n" horiz-adv-x="900" d="M 868,0 L 868,695 C 868,748 863,792 852,827 841,861 825,888 806,909 786,929 763,943 736,951 709,959 680,963 648,963 609,963 572,956 538,941 503,926 473,904 448,876 422,847 402,812 387,771 372,729 365,681 365,627 L 365,0 185,0 185,851 C 185,874 185,898 185,923 184,948 184,971 183,994 182,1016 182,1035 181,1051 180,1067 180,1077 179,1082 L 349,1082 C 350,1079 350,1070 351,1055 352,1040 353,1024 354,1005 355,986 355,966 356,947 357,927 357,910 357,897 L 360,897 C 376,928 395,957 417,982 438,1007 463,1029 492,1047 520,1064 552,1078 587,1088 622,1097 662,1102 706,1102 761,1102 810,1095 853,1080 896,1065 932,1043 961,1012 990,981 1012,942 1027,894 1042,846 1049,788 1049,721 L 1049,0 868,0 Z"/>
   <glyph unicode="m" horiz-adv-x="1060" d="M 531,0 L 531,686 C 531,739 529,783 525,818 521,853 515,882 506,904 497,925 485,941 471,950 456,959 438,963 417,963 395,963 375,955 358,938 341,921 326,897 313,866 300,835 291,797 284,754 277,710 274,661 274,607 L 274,0 105,0 105,851 C 105,874 105,898 105,923 104,948 104,971 103,994 102,1016 102,1035 101,1051 100,1067 100,1077 99,1082 L 248,1082 C 249,1079 249,1070 250,1057 251,1043 251,1027 252,1010 253,992 253,974 254,955 254,936 254,920 254,907 L 256,907 C 265,933 275,958 287,982 299,1005 314,1026 331,1044 348,1062 368,1076 391,1087 414,1097 441,1102 472,1102 531,1102 575,1086 604,1054 633,1022 653,973 666,906 L 668,906 C 680,937 693,965 708,990 722,1014 738,1034 757,1051 776,1068 797,1080 821,1089 845,1098 873,1102 904,1102 945,1102 979,1095 1007,1080 1035,1065 1058,1043 1075,1012 1092,981 1105,942 1113,894 1120,846 1124,788 1124,721 L 1124,0 956,0 956,686 C 956,739 954,783 950,818 946,853 940,882 931,904 922,925 910,941 896,950 881,959 863,963 842,963 798,963 763,935 738,879 712,823 699,739 699,627 L 699,0 531,0 Z"/>
   <glyph unicode="l" horiz-adv-x="980" d="M 736,142 L 1116,142 1116,0 134,0 134,142 556,142 556,1342 267,1342 267,1484 736,1484 736,142 Z"/>
   <glyph unicode="i" horiz-adv-x="1007" d="M 745,142 L 1125,142 1125,0 143,0 143,142 565,142 565,940 246,940 246,1082 745,1082 745,142 Z M 545,1292 L 545,1484 745,1484 745,1292 545,1292 Z"/>
   <glyph unicode="e" horiz-adv-x="980" d="M 322,503 C 322,446 328,394 341,347 354,299 373,258 398,224 423,189 455,163 493,144 530,125 574,115 623,115 660,115 694,119 725,128 756,136 783,147 808,162 833,177 853,194 870,215 887,235 899,257 907,281 L 1065,236 C 1054,206 1038,176 1017,146 996,115 967,88 932,64 897,39 854,19 803,4 752,-12 692,-20 623,-20 546,-20 478,-8 417,16 356,40 305,76 263,123 221,170 189,230 167,301 144,372 133,454 133,548 133,652 146,739 173,810 199,881 234,938 279,981 324,1024 375,1055 434,1074 492,1093 553,1102 617,1102 704,1102 778,1088 839,1060 899,1032 948,993 986,943 1024,892 1052,832 1069,761 1086,690 1094,612 1094,527 L 1094,503 322,503 Z M 619,969 C 588,969 556,964 523,955 489,945 458,928 429,903 400,878 376,845 357,803 337,760 326,706 324,641 L 908,641 C 903,704 891,756 874,798 857,840 835,874 810,899 784,924 755,942 722,953 689,964 655,969 619,969 Z"/>
   <glyph unicode="c" horiz-adv-x="980" d="M 130,542 C 130,651 144,741 173,813 202,885 240,942 287,985 334,1028 387,1058 447,1076 507,1093 569,1102 632,1102 697,1102 756,1094 807,1077 858,1060 903,1038 940,1009 977,980 1007,945 1030,906 1053,867 1069,824 1078,779 L 886,765 C 875,826 849,874 806,909 763,944 703,961 624,961 567,961 519,952 480,934 441,915 409,889 386,854 362,819 345,775 335,724 324,672 319,613 319,546 319,479 324,420 335,367 345,314 362,269 386,232 409,195 441,167 480,148 519,129 566,119 623,119 695,119 755,137 802,172 849,207 879,261 890,334 L 1080,322 C 1074,277 1060,234 1037,193 1014,152 984,115 946,84 908,53 863,28 810,9 757,-10 698,-20 631,-20 540,-20 462,-6 399,23 335,52 283,91 244,142 204,192 175,251 157,320 139,388 130,462 130,542 Z"/>
   <glyph unicode="a" horiz-adv-x="1059" d="M 1101,111 C 1111,111 1121,112 1131,113 1141,114 1151,116 1160,118 L 1160,6 C 1137,1 1115,-3 1093,-6 1070,-9 1046,-10 1021,-10 987,-10 958,-5 934,4 909,13 889,26 874,45 859,63 847,86 839,113 831,140 826,171 824,207 L 818,207 C 799,172 779,141 756,113 733,85 707,61 678,42 649,22 615,7 577,-4 539,-15 495,-20 446,-20 341,-20 261,9 208,66 155,123 128,202 128,302 128,373 141,432 168,478 194,523 228,559 271,585 314,611 362,629 417,640 471,650 526,655 582,656 L 818,660 818,719 C 818,764 814,802 805,833 796,864 782,890 764,909 745,928 722,943 694,952 666,961 633,965 596,965 563,965 533,963 506,958 479,953 455,944 436,931 417,918 401,900 389,878 376,855 368,827 364,793 L 176,810 C 183,853 195,892 214,928 232,963 258,994 291,1020 324,1046 366,1066 417,1081 467,1095 528,1102 599,1102 732,1102 833,1071 900,1009 967,946 1000,856 1000,738 L 1000,272 C 1000,219 1007,179 1021,152 1035,125 1062,111 1101,111 Z M 492,117 C 547,117 595,128 636,149 677,170 711,196 738,228 765,260 785,295 798,334 811,373 818,410 818,445 L 818,534 628,530 C 591,529 555,527 518,522 481,517 447,506 418,490 388,474 364,451 345,421 326,390 317,350 317,299 317,244 332,200 362,167 391,134 435,117 492,117 Z"/>
   <glyph unicode="_" horiz-adv-x="1271" d="M -5,-220 L -5,-124 1233,-124 1233,-220 -5,-220 Z"/>
   <glyph unicode=":" horiz-adv-x="266" d="M 496,0 L 496,299 731,299 731,0 496,0 Z M 496,783 L 496,1082 731,1082 731,783 496,783 Z"/>
   <glyph unicode="6" horiz-adv-x="980" d="M 1096,446 C 1096,379 1086,318 1067,261 1047,204 1018,154 980,113 941,71 894,38 837,15 780,-8 715,-20 641,-20 559,-20 487,-4 426,27 365,58 314,102 273,159 232,216 202,286 182,368 161,449 151,541 151,642 151,760 163,864 186,955 209,1046 242,1122 285,1183 328,1244 381,1291 444,1323 506,1354 576,1370 655,1370 703,1370 748,1365 790,1355 832,1345 870,1329 905,1307 939,1284 969,1255 995,1218 1021,1181 1042,1136 1057,1083 L 885,1052 C 866,1113 837,1157 796,1184 755,1211 707,1224 653,1224 604,1224 559,1213 519,1190 479,1167 445,1133 417,1088 389,1043 368,988 353,923 338,857 330,781 330,695 363,756 409,802 468,834 527,865 595,881 672,881 736,881 794,871 847,850 899,829 944,800 981,762 1018,724 1046,678 1066,625 1086,572 1096,512 1096,446 Z M 913,438 C 913,483 907,524 895,561 883,598 865,630 841,657 817,684 787,705 752,720 717,735 676,742 629,742 596,742 563,737 530,726 497,715 467,698 440,677 413,655 391,628 374,595 357,562 348,524 348,481 348,433 355,388 368,345 381,302 401,264 426,231 451,198 481,173 516,154 551,135 591,125 635,125 678,125 717,133 752,148 786,163 815,184 839,211 863,238 881,271 894,310 907,349 913,391 913,438 Z"/>
   <glyph unicode="5" horiz-adv-x="1006" d="M 1099,444 C 1099,377 1088,316 1067,259 1046,202 1014,153 972,112 930,71 878,38 816,15 753,-8 681,-20 599,-20 525,-20 461,-11 406,6 351,23 304,47 266,78 228,108 198,143 176,184 153,225 137,268 128,315 L 310,336 C 317,309 328,284 341,259 354,234 373,211 396,192 419,172 447,156 481,145 514,133 555,127 603,127 650,127 692,134 730,149 768,163 801,183 828,210 855,237 875,270 890,309 905,348 912,391 912,440 912,480 905,517 891,552 877,586 857,616 831,641 805,666 773,686 736,701 698,715 655,722 607,722 577,722 549,719 524,714 499,709 475,701 454,692 432,683 412,672 395,660 377,647 360,634 345,621 L 169,621 216,1349 1017,1349 1017,1204 382,1204 353,779 C 385,804 425,825 473,843 521,860 578,869 644,869 714,869 777,858 833,837 889,816 937,786 976,749 1015,711 1046,666 1067,614 1088,562 1099,505 1099,444 Z"/>
   <glyph unicode="4" horiz-adv-x="1060" d="M 937,319 L 937,0 757,0 757,319 103,319 103,459 738,1349 937,1349 937,461 1125,461 1125,319 937,319 Z M 757,1154 L 257,461 757,461 757,1154 Z"/>
   <glyph unicode="3" horiz-adv-x="1006" d="M 1099,370 C 1099,309 1089,255 1068,207 1047,158 1016,117 976,84 935,51 885,25 826,7 767,-11 698,-20 621,-20 534,-20 461,-9 401,13 341,34 292,63 253,99 214,134 185,175 166,221 147,266 134,313 128,362 L 314,379 C 319,342 329,308 344,277 358,246 377,220 402,198 427,176 457,159 494,147 530,135 572,129 621,129 712,129 783,150 835,192 886,234 912,295 912,376 912,421 901,459 878,489 855,519 826,543 792,561 757,578 720,591 680,598 639,605 602,609 568,609 L 466,609 466,765 564,765 C 598,765 633,769 670,778 707,786 740,799 771,818 801,836 826,860 846,890 865,919 875,955 875,997 875,1068 853,1123 809,1163 764,1202 698,1222 611,1222 532,1222 468,1202 419,1161 370,1120 341,1063 333,989 L 152,1003 C 159,1065 176,1119 203,1165 230,1211 264,1249 305,1280 346,1310 392,1333 445,1348 498,1363 554,1370 613,1370 692,1370 760,1361 817,1342 873,1323 919,1298 955,1266 991,1234 1018,1197 1035,1154 1052,1111 1060,1065 1060,1016 1060,979 1054,944 1042,910 1029,875 1011,844 987,815 962,786 932,761 895,740 858,719 814,703 765,693 L 765,689 C 820,683 868,670 910,650 951,630 986,606 1014,577 1042,548 1063,515 1078,480 1092,445 1099,408 1099,370 Z"/>
   <glyph unicode="2" horiz-adv-x="954" d="M 144,0 L 144,117 C 173,182 212,241 260,296 308,351 359,402 414,451 468,499 523,545 578,589 633,633 682,677 727,720 771,763 807,806 835,851 863,895 877,942 877,991 877,1031 871,1066 858,1095 845,1124 826,1148 803,1167 779,1186 751,1200 719,1209 686,1218 650,1222 611,1222 575,1222 542,1217 511,1207 480,1197 452,1182 429,1162 406,1142 387,1117 372,1088 357,1058 348,1023 343,984 L 159,1001 C 165,1052 179,1099 200,1144 221,1189 251,1228 288,1262 325,1295 370,1322 424,1341 478,1360 540,1370 611,1370 681,1370 744,1362 800,1346 855,1330 903,1307 942,1276 981,1245 1010,1206 1031,1160 1052,1114 1062,1061 1062,1002 1062,939 1048,881 1019,828 990,774 954,723 909,675 864,627 814,581 759,538 704,495 651,452 599,409 547,366 500,324 457,281 414,238 382,193 361,146 L 1084,146 1084,0 144,0 Z"/>
   <glyph unicode="1" horiz-adv-x="1007" d="M 157,0 L 157,145 596,145 596,1166 C 583,1139 561,1114 529,1091 497,1067 460,1046 419,1029 377,1012 332,998 285,988 238,977 192,972 148,972 L 148,1120 C 197,1120 246,1126 294,1137 341,1148 386,1164 427,1185 468,1205 505,1229 537,1257 569,1285 594,1316 611,1349 L 777,1349 777,145 1130,145 1130,0 157,0 Z"/>
   <glyph unicode="0" horiz-adv-x="1006" d="M 1103,675 C 1103,545 1090,436 1065,348 1039,259 1004,188 960,133 915,78 863,39 803,16 743,-8 679,-20 611,-20 542,-20 478,-8 419,16 360,39 308,78 265,133 221,187 187,258 162,347 137,436 124,545 124,675 124,811 137,924 162,1013 187,1102 221,1174 265,1227 309,1280 361,1317 421,1338 481,1359 546,1370 617,1370 684,1370 748,1359 807,1338 866,1317 917,1280 961,1227 1005,1174 1040,1102 1065,1013 1090,924 1103,811 1103,675 Z M 920,675 C 920,781 913,869 900,940 887,1011 867,1067 841,1109 815,1151 783,1181 746,1198 708,1215 665,1224 617,1224 566,1224 522,1215 483,1198 444,1180 412,1150 386,1108 359,1066 339,1010 326,940 313,869 306,781 306,675 306,572 313,486 327,416 340,346 360,290 387,247 413,204 445,174 483,155 521,136 564,127 613,127 660,127 703,136 741,155 779,174 811,204 838,247 864,290 884,346 899,416 913,486 920,572 920,675 Z M 496,555 L 496,804 731,804 731,555 496,555 Z"/>
   <glyph unicode=" " horiz-adv-x="1217"/>
  </font>
 </defs>
 <defs>
  <font id="EmbeddedFont_2" horiz-adv-x="2048">
   <font-face font-family="Liberation Sans embedded" units-per-em="2048" font-weight="normal" font-style="normal" ascent="1826" descent="423"/>
   <missing-glyph horiz-adv-x="2048" d="M 0,0 L 2047,0 2047,2047 0,2047 0,0 Z"/>
   <glyph unicode="t" horiz-adv-x="531" d="M 554,8 C 527,1 499,-5 471,-10 442,-14 409,-16 372,-16 228,-16 156,66 156,229 L 156,951 31,951 31,1082 163,1082 216,1324 336,1324 336,1082 536,1082 536,951 336,951 336,268 C 336,216 345,180 362,159 379,138 408,127 450,127 467,127 484,128 501,131 517,134 535,137 554,141 L 554,8 Z"/>
   <glyph unicode="r" horiz-adv-x="530" d="M 142,0 L 142,830 C 142,853 142,876 142,900 141,923 141,946 140,968 139,990 139,1011 138,1030 137,1049 137,1067 136,1082 L 306,1082 C 307,1067 308,1049 309,1030 310,1010 311,990 312,969 313,948 313,929 314,910 314,891 314,874 314,861 L 318,861 C 331,902 344,938 359,969 373,999 390,1024 409,1044 428,1063 451,1078 478,1088 505,1097 537,1102 575,1102 590,1102 604,1101 617,1099 630,1096 641,1094 648,1092 L 648,927 C 636,930 622,933 606,935 590,936 572,937 552,937 511,937 476,928 447,909 418,890 394,865 376,832 357,799 344,759 335,714 326,668 322,618 322,564 L 322,0 142,0 Z"/>
   <glyph unicode="o" horiz-adv-x="980" d="M 1053,542 C 1053,353 1011,212 928,119 845,26 724,-20 565,-20 490,-20 422,-9 363,14 304,37 254,71 213,118 172,165 140,223 119,294 97,364 86,447 86,542 86,915 248,1102 571,1102 655,1102 728,1090 789,1067 850,1044 900,1009 939,962 978,915 1006,857 1025,787 1044,717 1053,635 1053,542 Z M 864,542 C 864,626 858,695 845,750 832,805 813,848 788,881 763,914 732,937 696,950 660,963 619,969 574,969 528,969 487,962 450,949 413,935 381,912 355,879 329,846 309,802 296,747 282,692 275,624 275,542 275,458 282,389 297,334 312,279 332,235 358,202 383,169 414,146 449,133 484,120 522,113 563,113 609,113 651,120 688,133 725,146 757,168 783,201 809,234 829,278 843,333 857,388 864,458 864,542 Z"/>
   <glyph unicode="i" horiz-adv-x="187" d="M 137,1312 L 137,1484 317,1484 317,1312 137,1312 Z M 137,0 L 137,1082 317,1082 317,0 137,0 Z"/>
   <glyph unicode="b" horiz-adv-x="953" d="M 1053,546 C 1053,169 920,-20 655,-20 573,-20 505,-5 451,25 396,54 352,102 318,168 L 316,168 C 316,151 316,133 315,114 314,95 313,78 312,62 311,46 310,32 309,21 308,10 307,3 306,0 L 132,0 C 133,6 133,16 134,31 135,45 135,62 136,82 137,102 137,124 138,148 138,172 138,197 138,223 L 138,1484 318,1484 318,1061 C 318,1041 318,1022 318,1004 317,985 317,969 316,955 315,938 315,923 314,908 L 318,908 C 351,977 396,1027 451,1057 506,1087 574,1102 655,1102 792,1102 892,1056 957,964 1021,872 1053,733 1053,546 Z M 864,540 C 864,615 859,679 850,732 841,785 826,829 805,864 784,898 758,923 726,939 694,955 655,963 609,963 562,963 520,955 484,940 447,925 417,900 393,866 368,832 350,787 337,732 324,677 318,609 318,529 318,452 324,387 337,334 350,281 368,239 393,206 417,173 447,149 483,135 519,120 560,113 607,113 651,113 689,121 721,136 753,151 780,176 801,210 822,244 838,288 849,343 859,397 864,463 864,540 Z"/>
   <glyph unicode="E" horiz-adv-x="1138" d="M 168,0 L 168,1409 1237,1409 1237,1253 359,1253 359,801 1177,801 1177,647 359,647 359,156 1278,156 1278,0 168,0 Z"/>
   <glyph unicode=" " horiz-adv-x="556"/>
  </font>
 </defs>
 <defs class="TextShapeIndex">
  <g ooo:slide="id1" ooo:id-list="id3 id4 id5 id6 id7 id8 id9 id10 id11 id12 id13 id14 id15 id16 id17 id18 id19 id20 id21 id22 id23 id24 id25 id26 id27 id28 id29 id30 id31 id32 id33 id34 id35 id36 id37 id38 id39 id40 id41 id42 id43 id44 id45 id46 id47 id48 id49 id50 id51"/>
 </defs>
 <defs class="EmbeddedBulletChars">
  <g id="bullet-char-template(57356)" transform="scale(0.00048828125,-0.00048828125)">
   <path d="M 580,1141 L 1163,571 580,0 -4,571 580,1141 Z"/>
  </g>
  <g id="bullet-char-template(57354)" transform="scale(0.00048828125,-0.00048828125)">
   <path d="M 8,1128 L 1137,1128 1137,0 8,0 8,1128 Z"/>
  </g>
  <g id="bullet-char-template(10146)" transform="scale(0.00048828125,-0.00048828125)">
   <path d="M 174,0 L 602,739 174,1481 1456,739 174,0 Z M 1358,739 L 309,1346 659,739 1358,739 Z"/>
  </g>
  <g id="bullet-char-template(10132)" transform="scale(0.00048828125,-0.00048828125)">
   <path d="M 2015,739 L 1276,0 717,0 1260,543 174,543 174,936 1260,936 717,1481 1274,1481 2015,739 Z"/>
  </g>
  <g id="bullet-char-template(10007)" transform="scale(0.00048828125,-0.00048828125)">
   <path d="M 0,-2 C -7,14 -16,27 -25,37 L 356,567 C 262,823 215,952 215,954 215,979 228,992 255,992 264,992 276,990 289,987 310,991 331,999 354,1012 L 381,999 492,748 772,1049 836,1024 860,1049 C 881,1039 901,1025 922,1006 886,937 835,863 770,784 769,783 710,716 594,584 L 774,223 C 774,196 753,168 711,139 L 727,119 C 717,90 699,76 672,76 641,76 570,178 457,381 L 164,-76 C 142,-110 111,-127 72,-127 30,-127 9,-110 8,-76 1,-67 -2,-52 -2,-32 -2,-23 -1,-13 0,-2 Z"/>
  </g>
  <g id="bullet-char-template(10004)" transform="scale(0.00048828125,-0.00048828125)">
   <path d="M 285,-33 C 182,-33 111,30 74,156 52,228 41,333 41,471 41,549 55,616 82,672 116,743 169,778 240,778 293,778 328,747 346,684 L 369,508 C 377,444 397,411 428,410 L 1163,1116 C 1174,1127 1196,1133 1229,1133 1271,1133 1292,1118 1292,1087 L 1292,965 C 1292,929 1282,901 1262,881 L 442,47 C 390,-6 338,-33 285,-33 Z"/>
  </g>
  <g id="bullet-char-template(9679)" transform="scale(0.00048828125,-0.00048828125)">
   <path d="M 813,0 C 632,0 489,54 383,161 276,268 223,411 223,592 223,773 276,916 383,1023 489,1130 632,1184 813,1184 992,1184 1136,1130 1245,1023 1353,916 1407,772 1407,592 1407,412 1353,268 1245,161 1136,54 992,0 813,0 Z"/>
  </g>
  <g id="bullet-char-template(8226)" transform="scale(0.00048828125,-0.00048828125)">
   <path d="M 346,457 C 273,457 209,483 155,535 101,586 74,649 74,723 74,796 101,859 155,911 209,963 273,989 346,989 419,989 480,963 531,910 582,859 608,796 608,723 608,648 583,586 532,535 482,483 420,457 346,457 Z"/>
  </g>
  <g id="bullet-char-template(8211)" transform="scale(0.00048828125,-0.00048828125)">
   <path d="M -4,459 L 1135,459 1135,606 -4,606 -4,459 Z"/>
  </g>
  <g id="bullet-char-template(61548)" transform="scale(0.00048828125,-0.00048828125)">
   <path d="M 173,740 C 173,903 231,1043 346,1159 462,1274 601,1332 765,1332 928,1332 1067,1274 1183,1159 1299,1043 1357,903 1357,740 1357,577 1299,437 1183,322 1067,206 928,148 765,148 601,148 462,206 346,322 231,437 173,577 173,740 Z"/>
  </g>
 </defs>
 <defs class="TextEmbeddedBitmaps"/>
 <g class="SlideGroup">
  <g>
   <g id="container-id1">
    <g id="id1" class="Slide" clip-path="url(#presentation_clip_path)">
     <g class="Page">
      <g class="com.sun.star.drawing.TextShape">
       <g id="id3">
        <rect class="BoundingBox" stroke="none" fill="none" x="1000" y="6794" width="14897" height="570"/>
        <text class="TextShape"><tspan class="TextParagraph" font-family="Liberation Mono, monospace" font-size="282px" font-weight="400"><tspan class="TextPosition" x="1250" y="7152"><tspan fill="rgb(0,0,0)" stroke="none">sample_counter: 0 1 2 3 4 5 0</tspan><tspan fill="rgb(0,0,0)" stroke="none"> 1 2 3 4 5 6 0 0 1 2 3 4 5 6 0 1 2 3 4 5 6 0 0 1 2 3 4 5</tspan></tspan></tspan></text>
       </g>
      </g>
      <g class="com.sun.star.drawing.LineShape">
       <g id="id4">
        <rect class="BoundingBox" stroke="none" fill="none" x="3731" y="6545" width="13021" height="301"/>
        <path fill="none" stroke="rgb(0,0,0)" stroke-width="40" stroke-linejoin="round" d="M 3751,6695 L 16321,6695"/>
        <path fill="rgb(0,0,0)" stroke="none" d="M 16751,6695 L 16301,6545 16301,6845 16751,6695 Z"/>
       </g>
      </g>
      <g class="com.sun.star.drawing.LineShape">
       <g id="id5">
        <rect class="BoundingBox" stroke="none" fill="none" x="3914" y="5710" width="261" height="1021"/>
        <path fill="none" stroke="rgb(0,0,0)" stroke-width="40" stroke-linejoin="round" d="M 4044,6710 L 4044,5953"/>
        <path fill="rgb(0,0,0)" stroke="none" d="M 4020,5967 L 3997,5960 3973,5949 3952,5932 3935,5911 3924,5887 3917,5864 3914,5840 3917,5816 3924,5792 3935,5768 3952,5748 3973,5731 3997,5720 4020,5712 4045,5710 4068,5712 4092,5720 4115,5731 4136,5748 4153,5768 4164,5792 4171,5816 4174,5840 4171,5864 4164,5887 4153,5911 4136,5932 4115,5949 4092,5960 4068,5967 4045,5970 4020,5967 Z"/>
       </g>
      </g>
      <g class="com.sun.star.drawing.LineShape">
       <g id="id6">
        <rect class="BoundingBox" stroke="none" fill="none" x="4252" y="5710" width="261" height="1021"/>
        <path fill="none" stroke="rgb(0,0,0)" stroke-width="40" stroke-linejoin="round" d="M 4382,6710 L 4382,5953"/>
        <path fill="rgb(0,0,0)" stroke="none" d="M 4358,5967 L 4335,5960 4311,5949 4290,5932 4273,5911 4262,5887 4255,5864 4252,5840 4255,5816 4262,5792 4273,5768 4290,5748 4311,5731 4335,5720 4358,5712 4383,5710 4406,5712 4430,5720 4453,5731 4474,5748 4491,5768 4502,5792 4509,5816 4512,5840 4509,5864 4502,5887 4491,5911 4474,5932 4453,5949 4430,5960 4406,5967 4383,5970 4358,5967 Z"/>
       </g>
      </g>
      <g class="com.sun.star.drawing.LineShape">
       <g id="id7">
        <rect class="BoundingBox" stroke="none" fill="none" x="4591" y="5710" width="261" height="1021"/>
        <path fill="none" stroke="rgb(0,0,0)" stroke-width="40" stroke-linejoin="round" d="M 4721,6710 L 4721,5953"/>
        <path fill="rgb(0,0,0)" stroke="none" d="M 4697,5967 L 4674,5960 4650,5949 4629,5932 4612,5911 4601,5887 4594,5864 4591,5840 4594,5816 4601,5792 4612,5768 4629,5748 4650,5731 4674,5720 4697,5712 4722,5710 4745,5712 4769,5720 4792,5731 4813,5748 4830,5768 4841,5792 4848,5816 4851,5840 4848,5864 4841,5887 4830,5911 4813,5932 4792,5949 4769,5960 4745,5967 4722,5970 4697,5967 Z"/>
       </g>
      </g>
      <g class="com.sun.star.drawing.LineShape">
       <g id="id8">
        <rect class="BoundingBox" stroke="none" fill="none" x="4929" y="5710" width="261" height="1021"/>
        <path fill="none" stroke="rgb(43,43,210)" stroke-width="40" stroke-linejoin="round" d="M 5059,6710 L 5059,5953"/>
        <path fill="rgb(43,43,210)" stroke="none" d="M 5035,5967 L 5012,5960 4988,5949 4967,5932 4950,5911 4939,5887 4932,5864 4929,5840 4932,5816 4939,5792 4950,5768 4967,5748 4988,5731 5012,5720 5035,5712 5060,5710 5083,5712 5107,5720 5130,5731 5151,5748 5168,5768 5179,5792 5186,5816 5189,5840 5186,5864 5179,5887 5168,5911 5151,5932 5130,5949 5107,5960 5083,5967 5060,5970 5035,5967 Z"/>
       </g>
      </g>
      <g class="com.sun.star.drawing.LineShape">
       <g id="id9">
        <rect class="BoundingBox" stroke="none" fill="none" x="5267" y="5710" width="261" height="1021"/>
        <path fill="none" stroke="rgb(0,0,0)" stroke-width="40" stroke-linejoin="round" d="M 5397,6710 L 5397,5953"/>
        <path fill="rgb(0,0,0)" stroke="none" d="M 5373,5967 L 5350,5960 5326,5949 5305,5932 5288,5911 5277,5887 5270,5864 5267,5840 5270,5816 5277,5792 5288,5768 5305,5748 5326,5731 5350,5720 5373,5712 5398,5710 5421,5712 5445,5720 5468,5731 5489,5748 5506,5768 5517,5792 5524,5816 5527,5840 5524,5864 5517,5887 5506,5911 5489,5932 5468,5949 5445,5960 5421,5967 5398,5970 5373,5967 Z"/>
       </g>
      </g>
      <g class="com.sun.star.drawing.LineShape">
       <g id="id10">
        <rect class="BoundingBox" stroke="none" fill="none" x="5606" y="5710" width="261" height="1021"/>
        <path fill="none" stroke="rgb(0,0,0)" stroke-width="40" stroke-linejoin="round" d="M 5736,6710 L 5736,5953"/>
        <path fill="rgb(0,0,0)" stroke="none" d="M 5712,5967 L 5689,5960 5665,5949 5644,5932 5627,5911 5616,5887 5609,5864 5606,5840 5609,5816 5616,5792 5627,5768 5644,5748 5665,5731 5689,5720 5712,5712 5737,5710 5760,5712 5784,5720 5807,5731 5828,5748 5845,5768 5856,5792 5863,5816 5866,5840 5863,5864 5856,5887 5845,5911 5828,5932 5807,5949 5784,5960 5760,5967 5737,5970 5712,5967 Z"/>
       </g>
      </g>
      <g class="com.sun.star.drawing.LineShape">
       <g id="id11">
        <rect class="BoundingBox" stroke="none" fill="none" x="6280" y="6565" width="262" height="261"/>
        <path fill="rgb(0,0,0)" stroke="none" d="M 6383,6821 L 6359,6814 6336,6801 6315,6784 6299,6762 6288,6739 6282,6715 6280,6691 6284,6667 6291,6643 6304,6620 6321,6600 6343,6584 6366,6573 6390,6566 6415,6565 6438,6568 6462,6576 6484,6588 6505,6606 6521,6627 6532,6650 6538,6675 6540,6698 6536,6723 6529,6746 6517,6769 6499,6790 6478,6806 6455,6817 6430,6823 6407,6825 6383,6821 Z"/>
       </g>
      </g>
      <g class="com.sun.star.drawing.LineShape">
       <g id="id12">
        <rect class="BoundingBox" stroke="none" fill="none" x="6619" y="6565" width="262" height="261"/>
        <path fill="rgb(0,0,0)" stroke="none" d="M 6722,6821 L 6698,6814 6675,6801 6654,6784 6638,6762 6627,6739 6621,6715 6619,6691 6623,6667 6630,6643 6643,6620 6660,6600 6682,6584 6705,6573 6729,6566 6754,6565 6777,6568 6801,6576 6823,6588 6844,6606 6860,6627 6871,6650 6877,6675 6879,6698 6875,6723 6868,6746 6856,6769 6838,6790 6817,6806 6794,6817 6769,6823 6746,6825 6722,6821 Z"/>
       </g>
      </g>
      <g class="com.sun.star.drawing.LineShape">
       <g id="id13">
        <rect class="BoundingBox" stroke="none" fill="none" x="6957" y="6565" width="262" height="261"/>
        <path fill="rgb(0,0,0)" stroke="none" d="M 7060,6821 L 7036,6814 7013,6801 6992,6784 6976,6762 6965,6739 6959,6715 6957,6691 6961,6667 6968,6643 6981,6620 6998,6600 7020,6584 7043,6573 7067,6566 7092,6565 7115,6568 7139,6576 7161,6588 7182,6606 7198,6627 7209,6650 7215,6675 7217,6698 7213,6723 7206,6746 7194,6769 7176,6790 7155,6806 7132,6817 7107,6823 7084,6825 7060,6821 Z"/>
       </g>
      </g>
      <g class="com.sun.star.drawing.LineShape">
       <g id="id14">
        <rect class="BoundingBox" stroke="none" fill="none" x="7296" y="6565" width="262" height="261"/>
        <path fill="rgb(43,43,210)" stroke="none" d="M 7399,6821 L 7375,6814 7352,6801 7331,6784 7315,6762 7304,6739 7298,6715 7296,6691 7300,6667 7307,6643 7320,6620 7337,6600 7359,6584 7382,6573 7406,6566 7431,6565 7454,6568 7478,6576 7500,6588 7521,6606 7537,6627 7548,6650 7554,6675 7556,6698 7552,6723 7545,6746 7533,6769 7515,6790 7494,6806 7471,6817 7446,6823 7423,6825 7399,6821 Z"/>
       </g>
      </g>
      <g class="com.sun.star.drawing.LineShape">
       <g id="id15">
        <rect class="BoundingBox" stroke="none" fill="none" x="7634" y="6565" width="262" height="261"/>
        <path fill="rgb(0,0,0)" stroke="none" d="M 7737,6821 L 7713,6814 7690,6801 7669,6784 7653,6762 7642,6739 7636,6715 7634,6691 7638,6667 7645,6643 7658,6620 7675,6600 7697,6584 7720,6573 7744,6566 7769,6565 7792,6568 7816,6576 7838,6588 7859,6606 7875,6627 7886,6650 7892,6675 7894,6698 7890,6723 7883,6746 7871,6769 7853,6790 7832,6806 7809,6817 7784,6823 7761,6825 7737,6821 Z"/>
       </g>
      </g>
      <g class="com.sun.star.drawing.LineShape">
       <g id="id16">
        <rect class="BoundingBox" stroke="none" fill="none" x="7972" y="6565" width="262" height="261"/>
        <path fill="rgb(0,0,0)" stroke="none" d="M 8075,6821 L 8051,6814 8028,6801 8007,6784 7991,6762 7980,6739 7974,6715 7972,6691 7976,6667 7983,6643 7996,6620 8013,6600 8035,6584 8058,6573 8082,6566 8107,6565 8130,6568 8154,6576 8176,6588 8197,6606 8213,6627 8224,6650 8230,6675 8232,6698 8228,6723 8221,6746 8209,6769 8191,6790 8170,6806 8147,6817 8122,6823 8099,6825 8075,6821 Z"/>
       </g>
      </g>
      <g class="com.sun.star.drawing.LineShape">
       <g id="id17">
        <rect class="BoundingBox" stroke="none" fill="none" x="9666" y="5710" width="261" height="1021"/>
        <path fill="none" stroke="rgb(43,43,210)" stroke-width="40" stroke-linejoin="round" d="M 9796,6710 L 9796,5953"/>
        <path fill="rgb(43,43,210)" stroke="none" d="M 9772,5967 L 9749,5960 9725,5949 9704,5932 9687,5911 9676,5887 9669,5864 9666,5840 9669,5816 9676,5792 9687,5768 9704,5748 9725,5731 9749,5720 9772,5712 9797,5710 9820,5712 9844,5720 9867,5731 9888,5748 9905,5768 9916,5792 9923,5816 9926,5840 9923,5864 9916,5887 9905,5911 9888,5932 9867,5949 9844,5960 9820,5967 9797,5970 9772,5967 Z"/>
       </g>
      </g>
      <g class="com.sun.star.drawing.LineShape">
       <g id="id18">
        <rect class="BoundingBox" stroke="none" fill="none" x="10004" y="5710" width="261" height="1021"/>
        <path fill="none" stroke="rgb(0,0,0)" stroke-width="40" stroke-linejoin="round" d="M 10134,6710 L 10134,5953"/>
        <path fill="rgb(0,0,0)" stroke="none" d="M 10110,5967 L 10087,5960 10063,5949 10042,5932 10025,5911 10014,5887 10007,5864 10004,5840 10007,5816 10014,5792 10025,5768 10042,5748 10063,5731 10087,5720 10110,5712 10135,5710 10158,5712 10182,5720 10205,5731 10226,5748 10243,5768 10254,5792 10261,5816 10264,5840 10261,5864 10254,5887 10243,5911 10226,5932 10205,5949 10182,5960 10158,5967 10135,5970 10110,5967 Z"/>
       </g>
      </g>
      <g class="com.sun.star.drawing.LineShape">
       <g id="id19">
        <rect class="BoundingBox" stroke="none" fill="none" x="10343" y="5710" width="261" height="1021"/>
        <path fill="none" stroke="rgb(0,0,0)" stroke-width="40" stroke-linejoin="round" d="M 10473,6710 L 10473,5953"/>
        <path fill="rgb(0,0,0)" stroke="none" d="M 10449,5967 L 10426,5960 10402,5949 10381,5932 10364,5911 10353,5887 10346,5864 10343,5840 10346,5816 10353,5792 10364,5768 10381,5748 10402,5731 10426,5720 10449,5712 10474,5710 10497,5712 10521,5720 10544,5731 10565,5748 10582,5768 10593,5792 10600,5816 10603,5840 10600,5864 10593,5887 10582,5911 10565,5932 10544,5949 10521,5960 10497,5967 10474,5970 10449,5967 Z"/>
       </g>
      </g>
      <g class="com.sun.star.drawing.LineShape">
       <g id="id20">
        <rect class="BoundingBox" stroke="none" fill="none" x="10681" y="5710" width="261" height="1021"/>
        <path fill="none" stroke="rgb(0,0,0)" stroke-width="40" stroke-linejoin="round" d="M 10811,6710 L 10811,5953"/>
        <path fill="rgb(0,0,0)" stroke="none" d="M 10787,5967 L 10764,5960 10740,5949 10719,5932 10702,5911 10691,5887 10684,5864 10681,5840 10684,5816 10691,5792 10702,5768 10719,5748 10740,5731 10764,5720 10787,5712 10812,5710 10835,5712 10859,5720 10882,5731 10903,5748 10920,5768 10931,5792 10938,5816 10941,5840 10938,5864 10931,5887 10920,5911 10903,5932 10882,5949 10859,5960 10835,5967 10812,5970 10787,5967 Z"/>
       </g>
      </g>
      <g class="com.sun.star.drawing.LineShape">
       <g id="id21">
        <rect class="BoundingBox" stroke="none" fill="none" x="11019" y="5710" width="261" height="1021"/>
        <path fill="none" stroke="rgb(0,0,0)" stroke-width="40" stroke-linejoin="round" d="M 11149,6710 L 11149,5953"/>
        <path fill="rgb(0,0,0)" stroke="none" d="M 11125,5967 L 11102,5960 11078,5949 11057,5932 11040,5911 11029,5887 11022,5864 11019,5840 11022,5816 11029,5792 11040,5768 11057,5748 11078,5731 11102,5720 11125,5712 11150,5710 11173,5712 11197,5720 11220,5731 11241,5748 11258,5768 11269,5792 11276,5816 11279,5840 11276,5864 11269,5887 11258,5911 11241,5932 11220,5949 11197,5960 11173,5967 11150,5970 11125,5967 Z"/>
       </g>
      </g>
      <g class="com.sun.star.drawing.LineShape">
       <g id="id22">
        <rect class="BoundingBox" stroke="none" fill="none" x="11358" y="5710" width="261" height="1021"/>
        <path fill="none" stroke="rgb(0,0,0)" stroke-width="40" stroke-linejoin="round" d="M 11488,6710 L 11488,5953"/>
        <path fill="rgb(0,0,0)" stroke="none" d="M 11464,5967 L 11441,5960 11417,5949 11396,5932 11379,5911 11368,5887 11361,5864 11358,5840 11361,5816 11368,5792 11379,5768 11396,5748 11417,5731 11441,5720 11464,5712 11489,5710 11512,5712 11536,5720 11559,5731 11580,5748 11597,5768 11608,5792 11615,5816 11618,5840 11615,5864 11608,5887 11597,5911 11580,5932 11559,5949 11536,5960 11512,5967 11489,5970 11464,5967 Z"/>
       </g>
      </g>
      <g class="com.sun.star.drawing.LineShape">
       <g id="id23">
        <rect class="BoundingBox" stroke="none" fill="none" x="11696" y="5710" width="261" height="1021"/>
        <path fill="none" stroke="rgb(0,0,0)" stroke-width="40" stroke-linejoin="round" d="M 11826,6710 L 11826,5953"/>
        <path fill="rgb(0,0,0)" stroke="none" d="M 11802,5967 L 11779,5960 11755,5949 11734,5932 11717,5911 11706,5887 11699,5864 11696,5840 11699,5816 11706,5792 11717,5768 11734,5748 11755,5731 11779,5720 11802,5712 11827,5710 11850,5712 11874,5720 11897,5731 11918,5748 11935,5768 11946,5792 11953,5816 11956,5840 11953,5864 11946,5887 11935,5911 11918,5932 11897,5949 11874,5960 11850,5967 11827,5970 11802,5967 Z"/>
       </g>
      </g>
      <g class="com.sun.star.drawing.LineShape">
       <g id="id24">
        <rect class="BoundingBox" stroke="none" fill="none" x="12034" y="5710" width="261" height="1021"/>
        <path fill="none" stroke="rgb(43,43,210)" stroke-width="40" stroke-linejoin="round" d="M 12164,6710 L 12164,5953"/>
        <path fill="rgb(43,43,210)" stroke="none" d="M 12140,5967 L 12117,5960 12093,5949 12072,5932 12055,5911 12044,5887 12037,5864 12034,5840 12037,5816 12044,5792 12055,5768 12072,5748 12093,5731 12117,5720 12140,5712 12165,5710 12188,5712 12212,5720 12235,5731 12256,5748 12273,5768 12284,5792 12291,5816 12294,5840 12291,5864 12284,5887 12273,5911 12256,5932 12235,5949 12212,5960 12188,5967 12165,5970 12140,5967 Z"/>
       </g>
      </g>
      <g class="com.sun.star.drawing.LineShape">
       <g id="id25">
        <rect class="BoundingBox" stroke="none" fill="none" x="12373" y="5710" width="261" height="1021"/>
        <path fill="none" stroke="rgb(0,0,0)" stroke-width="40" stroke-linejoin="round" d="M 12503,6710 L 12503,5953"/>
        <path fill="rgb(0,0,0)" stroke="none" d="M 12479,5967 L 12456,5960 12432,5949 12411,5932 12394,5911 12383,5887 12376,5864 12373,5840 12376,5816 12383,5792 12394,5768 12411,5748 12432,5731 12456,5720 12479,5712 12504,5710 12527,5712 12551,5720 12574,5731 12595,5748 12612,5768 12623,5792 12630,5816 12633,5840 12630,5864 12623,5887 12612,5911 12595,5932 12574,5949 12551,5960 12527,5967 12504,5970 12479,5967 Z"/>
       </g>
      </g>
      <g class="com.sun.star.drawing.LineShape">
       <g id="id26">
        <rect class="BoundingBox" stroke="none" fill="none" x="12711" y="5710" width="261" height="1021"/>
        <path fill="none" stroke="rgb(0,0,0)" stroke-width="40" stroke-linejoin="round" d="M 12841,6710 L 12841,5953"/>
        <path fill="rgb(0,0,0)" stroke="none" d="M 12817,5967 L 12794,5960 12770,5949 12749,5932 12732,5911 12721,5887 12714,5864 12711,5840 12714,5816 12721,5792 12732,5768 12749,5748 12770,5731 12794,5720 12817,5712 12842,5710 12865,5712 12889,5720 12912,5731 12933,5748 12950,5768 12961,5792 12968,5816 12971,5840 12968,5864 12961,5887 12950,5911 12933,5932 12912,5949 12889,5960 12865,5967 12842,5970 12817,5967 Z"/>
       </g>
      </g>
      <g class="com.sun.star.drawing.LineShape">
       <g id="id27">
        <rect class="BoundingBox" stroke="none" fill="none" x="13050" y="5710" width="261" height="1021"/>
        <path fill="none" stroke="rgb(0,0,0)" stroke-width="40" stroke-linejoin="round" d="M 13180,6710 L 13180,5953"/>
        <path fill="rgb(0,0,0)" stroke="none" d="M 13156,5967 L 13133,5960 13109,5949 13088,5932 13071,5911 13060,5887 13053,5864 13050,5840 13053,5816 13060,5792 13071,5768 13088,5748 13109,5731 13133,5720 13156,5712 13181,5710 13204,5712 13228,5720 13251,5731 13272,5748 13289,5768 13300,5792 13307,5816 13310,5840 13307,5864 13300,5887 13289,5911 13272,5932 13251,5949 13228,5960 13204,5967 13181,5970 13156,5967 Z"/>
       </g>
      </g>
      <g class="com.sun.star.drawing.LineShape">
       <g id="id28">
        <rect class="BoundingBox" stroke="none" fill="none" x="9328" y="5710" width="261" height="1021"/>
        <path fill="none" stroke="rgb(0,0,0)" stroke-width="40" stroke-linejoin="round" d="M 9458,6710 L 9458,5953"/>
        <path fill="rgb(0,0,0)" stroke="none" d="M 9434,5967 L 9411,5960 9387,5949 9366,5932 9349,5911 9338,5887 9331,5864 9328,5840 9331,5816 9338,5792 9349,5768 9366,5748 9387,5731 9411,5720 9434,5712 9459,5710 9482,5712 9506,5720 9529,5731 9550,5748 9567,5768 9578,5792 9585,5816 9588,5840 9585,5864 9578,5887 9567,5911 9550,5932 9529,5949 9506,5960 9482,5967 9459,5970 9434,5967 Z"/>
       </g>
      </g>
      <g class="com.sun.star.drawing.LineShape">
       <g id="id29">
        <rect class="BoundingBox" stroke="none" fill="none" x="13724" y="6568" width="262" height="261"/>
        <path fill="rgb(0,0,0)" stroke="none" d="M 13827,6824 L 13803,6817 13780,6804 13759,6787 13743,6765 13732,6742 13726,6718 13724,6694 13728,6670 13735,6646 13748,6623 13765,6603 13787,6587 13810,6576 13834,6569 13859,6568 13882,6571 13906,6579 13928,6591 13949,6609 13965,6630 13976,6653 13982,6678 13984,6701 13980,6726 13973,6749 13961,6772 13943,6793 13922,6809 13899,6820 13874,6826 13851,6828 13827,6824 Z"/>
       </g>
      </g>
      <g class="com.sun.star.drawing.LineShape">
       <g id="id30">
        <rect class="BoundingBox" stroke="none" fill="none" x="14063" y="6568" width="262" height="261"/>
        <path fill="rgb(0,0,0)" stroke="none" d="M 14166,6824 L 14142,6817 14119,6804 14098,6787 14082,6765 14071,6742 14065,6718 14063,6694 14067,6670 14074,6646 14087,6623 14104,6603 14126,6587 14149,6576 14173,6569 14198,6568 14221,6571 14245,6579 14267,6591 14288,6609 14304,6630 14315,6653 14321,6678 14323,6701 14319,6726 14312,6749 14300,6772 14282,6793 14261,6809 14238,6820 14213,6826 14190,6828 14166,6824 Z"/>
       </g>
      </g>
      <g class="com.sun.star.drawing.LineShape">
       <g id="id31">
        <rect class="BoundingBox" stroke="none" fill="none" x="14401" y="6568" width="262" height="261"/>
        <path fill="rgb(43,43,210)" stroke="none" d="M 14504,6824 L 14480,6817 14457,6804 14436,6787 14420,6765 14409,6742 14403,6718 14401,6694 14405,6670 14412,6646 14425,6623 14442,6603 14464,6587 14487,6576 14511,6569 14536,6568 14559,6571 14583,6579 14605,6591 14626,6609 14642,6630 14653,6653 14659,6678 14661,6701 14657,6726 14650,6749 14638,6772 14620,6793 14599,6809 14576,6820 14551,6826 14528,6828 14504,6824 Z"/>
       </g>
      </g>
      <g class="com.sun.star.drawing.LineShape">
       <g id="id32">
        <rect class="BoundingBox" stroke="none" fill="none" x="14739" y="6568" width="262" height="261"/>
        <path fill="rgb(0,0,0)" stroke="none" d="M 14842,6824 L 14818,6817 14795,6804 14774,6787 14758,6765 14747,6742 14741,6718 14739,6694 14743,6670 14750,6646 14763,6623 14780,6603 14802,6587 14825,6576 14849,6569 14874,6568 14897,6571 14921,6579 14943,6591 14964,6609 14980,6630 14991,6653 14997,6678 14999,6701 14995,6726 14988,6749 14976,6772 14958,6793 14937,6809 14914,6820 14889,6826 14866,6828 14842,6824 Z"/>
       </g>
      </g>
      <g class="com.sun.star.drawing.LineShape">
       <g id="id33">
        <rect class="BoundingBox" stroke="none" fill="none" x="15078" y="6568" width="262" height="261"/>
        <path fill="rgb(0,0,0)" stroke="none" d="M 15181,6824 L 15157,6817 15134,6804 15113,6787 15097,6765 15086,6742 15080,6718 15078,6694 15082,6670 15089,6646 15102,6623 15119,6603 15141,6587 15164,6576 15188,6569 15213,6568 15236,6571 15260,6579 15282,6591 15303,6609 15319,6630 15330,6653 15336,6678 15338,6701 15334,6726 15327,6749 15315,6772 15297,6793 15276,6809 15253,6820 15228,6826 15205,6828 15181,6824 Z"/>
       </g>
      </g>
      <g class="com.sun.star.drawing.LineShape">
       <g id="id34">
        <rect class="BoundingBox" stroke="none" fill="none" x="15416" y="6568" width="262" height="261"/>
        <path fill="rgb(0,0,0)" stroke="none" d="M 15519,6824 L 15495,6817 15472,6804 15451,6787 15435,6765 15424,6742 15418,6718 15416,6694 15420,6670 15427,6646 15440,6623 15457,6603 15479,6587 15502,6576 15526,6569 15551,6568 15574,6571 15598,6579 15620,6591 15641,6609 15657,6630 15668,6653 15674,6678 15676,6701 15672,6726 15665,6749 15653,6772 15635,6793 15614,6809 15591,6820 15566,6826 15543,6828 15519,6824 Z"/>
       </g>
      </g>
      <g class="com.sun.star.drawing.LineShape">
       <g id="id35">
        <rect class="BoundingBox" stroke="none" fill="none" x="8311" y="6565" width="262" height="261"/>
        <path fill="rgb(0,0,0)" stroke="none" d="M 8414,6821 L 8390,6814 8367,6801 8346,6784 8330,6762 8319,6739 8313,6715 8311,6691 8315,6667 8322,6643 8335,6620 8352,6600 8374,6584 8397,6573 8421,6566 8446,6565 8469,6568 8493,6576 8515,6588 8536,6606 8552,6627 8563,6650 8569,6675 8571,6698 8567,6723 8560,6746 8548,6769 8530,6790 8509,6806 8486,6817 8461,6823 8438,6825 8414,6821 Z"/>
       </g>
      </g>
      <g class="com.sun.star.drawing.LineShape">
       <g id="id36">
        <rect class="BoundingBox" stroke="none" fill="none" x="8989" y="5710" width="261" height="1021"/>
        <path fill="none" stroke="rgb(0,0,0)" stroke-width="40" stroke-linejoin="round" d="M 9119,6710 L 9119,5953"/>
        <path fill="rgb(0,0,0)" stroke="none" d="M 9095,5967 L 9072,5960 9048,5949 9027,5932 9010,5911 8999,5887 8992,5864 8989,5840 8992,5816 8999,5792 9010,5768 9027,5748 9048,5731 9072,5720 9095,5712 9120,5710 9143,5712 9167,5720 9190,5731 9211,5748 9228,5768 9239,5792 9246,5816 9249,5840 9246,5864 9239,5887 9228,5911 9211,5932 9190,5949 9167,5960 9143,5967 9120,5970 9095,5967 Z"/>
       </g>
      </g>
      <g class="com.sun.star.drawing.LineShape">
       <g id="id37">
        <rect class="BoundingBox" stroke="none" fill="none" x="8651" y="5710" width="261" height="1021"/>
        <path fill="none" stroke="rgb(0,0,0)" stroke-width="40" stroke-linejoin="round" d="M 8781,6710 L 8781,5953"/>
        <path fill="rgb(0,0,0)" stroke="none" d="M 8757,5967 L 8734,5960 8710,5949 8689,5932 8672,5911 8661,5887 8654,5864 8651,5840 8654,5816 8661,5792 8672,5768 8689,5748 8710,5731 8734,5720 8757,5712 8782,5710 8805,5712 8829,5720 8852,5731 8873,5748 8890,5768 8901,5792 8908,5816 8911,5840 8908,5864 8901,5887 8890,5911 8873,5932 8852,5949 8829,5960 8805,5967 8782,5970 8757,5967 Z"/>
       </g>
      </g>
      <g class="com.sun.star.drawing.TextShape">
       <g id="id38">
        <rect class="BoundingBox" stroke="none" fill="none" x="2017" y="5904" width="1667" height="688"/>
        <text class="TextShape"><tspan class="TextParagraph" font-family="Liberation Mono, monospace" font-size="388px" font-weight="400"><tspan class="TextPosition" x="2267" y="6351"><tspan fill="rgb(0,0,0)" stroke="none">input</tspan></tspan></tspan></text>
       </g>
      </g>
      <g class="com.sun.star.drawing.LineShape">
       <g id="id39">
        <rect class="BoundingBox" stroke="none" fill="none" x="3694" y="8303" width="13021" height="301"/>
        <path fill="none" stroke="rgb(0,0,0)" stroke-width="40" stroke-linejoin="round" d="M 3714,8453 L 16284,8453"/>
        <path fill="rgb(0,0,0)" stroke="none" d="M 16714,8453 L 16264,8303 16264,8603 16714,8453 Z"/>
       </g>
      </g>
      <g class="com.sun.star.drawing.LineShape">
       <g id="id40">
        <rect class="BoundingBox" stroke="none" fill="none" x="4892" y="7468" width="261" height="1021"/>
        <path fill="none" stroke="rgb(43,43,210)" stroke-width="40" stroke-linejoin="round" d="M 5022,8468 L 5022,7711"/>
        <path fill="rgb(43,43,210)" stroke="none" d="M 4998,7725 L 4975,7718 4951,7707 4930,7690 4913,7669 4902,7645 4895,7622 4892,7598 4895,7574 4902,7550 4913,7526 4930,7506 4951,7489 4975,7478 4998,7470 5023,7468 5046,7470 5070,7478 5093,7489 5114,7506 5131,7526 5142,7550 5149,7574 5152,7598 5149,7622 5142,7645 5131,7669 5114,7690 5093,7707 5070,7718 5046,7725 5023,7728 4998,7725 Z"/>
       </g>
      </g>
      <g class="com.sun.star.drawing.LineShape">
       <g id="id41">
        <rect class="BoundingBox" stroke="none" fill="none" x="7259" y="8326" width="262" height="261"/>
        <path fill="rgb(43,43,210)" stroke="none" d="M 7362,8582 L 7338,8575 7315,8562 7294,8545 7278,8523 7267,8500 7261,8476 7259,8452 7263,8428 7270,8404 7283,8381 7300,8361 7322,8345 7345,8334 7369,8327 7394,8326 7417,8329 7441,8337 7463,8349 7484,8367 7500,8388 7511,8411 7517,8436 7519,8459 7515,8484 7508,8507 7496,8530 7478,8551 7457,8567 7434,8578 7409,8584 7386,8586 7362,8582 Z"/>
       </g>
      </g>
      <g class="com.sun.star.drawing.LineShape">
       <g id="id42">
        <rect class="BoundingBox" stroke="none" fill="none" x="9629" y="7468" width="261" height="1021"/>
        <path fill="none" stroke="rgb(43,43,210)" stroke-width="40" stroke-linejoin="round" d="M 9759,8468 L 9759,7711"/>
        <path fill="rgb(43,43,210)" stroke="none" d="M 9735,7725 L 9712,7718 9688,7707 9667,7690 9650,7669 9639,7645 9632,7622 9629,7598 9632,7574 9639,7550 9650,7526 9667,7506 9688,7489 9712,7478 9735,7470 9760,7468 9783,7470 9807,7478 9830,7489 9851,7506 9868,7526 9879,7550 9886,7574 9889,7598 9886,7622 9879,7645 9868,7669 9851,7690 9830,7707 9807,7718 9783,7725 9760,7728 9735,7725 Z"/>
       </g>
      </g>
      <g class="com.sun.star.drawing.LineShape">
       <g id="id43">
        <rect class="BoundingBox" stroke="none" fill="none" x="11997" y="7468" width="261" height="1021"/>
        <path fill="none" stroke="rgb(43,43,210)" stroke-width="40" stroke-linejoin="round" d="M 12127,8468 L 12127,7711"/>
        <path fill="rgb(43,43,210)" stroke="none" d="M 12103,7725 L 12080,7718 12056,7707 12035,7690 12018,7669 12007,7645 12000,7622 11997,7598 12000,7574 12007,7550 12018,7526 12035,7506 12056,7489 12080,7478 12103,7470 12128,7468 12151,7470 12175,7478 12198,7489 12219,7506 12236,7526 12247,7550 12254,7574 12257,7598 12254,7622 12247,7645 12236,7669 12219,7690 12198,7707 12175,7718 12151,7725 12128,7728 12103,7725 Z"/>
       </g>
      </g>
      <g class="com.sun.star.drawing.LineShape">
       <g id="id44">
        <rect class="BoundingBox" stroke="none" fill="none" x="14364" y="8326" width="262" height="261"/>
        <path fill="rgb(43,43,210)" stroke="none" d="M 14467,8582 L 14443,8575 14420,8562 14399,8545 14383,8523 14372,8500 14366,8476 14364,8452 14368,8428 14375,8404 14388,8381 14405,8361 14427,8345 14450,8334 14474,8327 14499,8326 14522,8329 14546,8337 14568,8349 14589,8367 14605,8388 14616,8411 14622,8436 14624,8459 14620,8484 14613,8507 14601,8530 14583,8551 14562,8567 14539,8578 14514,8584 14491,8586 14467,8582 Z"/>
       </g>
      </g>
      <g class="com.sun.star.drawing.TextShape">
       <g id="id45">
        <rect class="BoundingBox" stroke="none" fill="none" x="1784" y="7662" width="1900" height="688"/>
        <text class="TextShape"><tspan class="TextParagraph" font-family="Liberation Mono, monospace" font-size="388px" font-weight="400"><tspan class="TextPosition" x="2034" y="8109"><tspan fill="rgb(0,0,0)" stroke="none">output</tspan></tspan></tspan></text>
       </g>
      </g>
      <g class="com.sun.star.drawing.LineShape">
       <g id="id46">
        <rect class="BoundingBox" stroke="none" fill="none" x="5942" y="6565" width="262" height="261"/>
        <path fill="rgb(255,0,0)" stroke="none" d="M 6045,6821 L 6021,6814 5998,6801 5977,6784 5961,6762 5950,6739 5944,6715 5942,6691 5946,6667 5953,6643 5966,6620 5983,6600 6005,6584 6028,6573 6052,6566 6077,6565 6100,6568 6124,6576 6146,6588 6167,6606 6183,6627 6194,6650 6200,6675 6202,6698 6198,6723 6191,6746 6179,6769 6161,6790 6140,6806 6117,6817 6092,6823 6069,6825 6045,6821 Z"/>
       </g>
      </g>
      <g class="com.sun.star.drawing.LineShape">
       <g id="id47">
        <rect class="BoundingBox" stroke="none" fill="none" x="13388" y="5710" width="261" height="1021"/>
        <path fill="none" stroke="rgb(255,0,0)" stroke-width="40" stroke-linejoin="round" d="M 13518,6710 L 13518,5953"/>
        <path fill="rgb(255,0,0)" stroke="none" d="M 13494,5967 L 13471,5960 13447,5949 13426,5932 13409,5911 13398,5887 13391,5864 13388,5840 13391,5816 13398,5792 13409,5768 13426,5748 13447,5731 13471,5720 13494,5712 13519,5710 13542,5712 13566,5720 13589,5731 13610,5748 13627,5768 13638,5792 13645,5816 13648,5840 13645,5864 13638,5887 13627,5911 13610,5932 13589,5949 13566,5960 13542,5967 13519,5970 13494,5967 Z"/>
       </g>
      </g>
      <g class="com.sun.star.drawing.TextShape">
       <g id="id48">
        <rect class="BoundingBox" stroke="none" fill="none" x="12771" y="4543" width="1511" height="565"/>
        <text class="TextShape"><tspan class="TextParagraph" font-family="Liberation Sans, sans-serif" font-size="282px" font-weight="400"><tspan class="TextPosition" x="13021" y="4922"><tspan fill="rgb(0,0,0)" stroke="none">Error bit</tspan></tspan></tspan></text>
       </g>
      </g>
      <g class="com.sun.star.drawing.LineShape">
       <g id="id49">
        <rect class="BoundingBox" stroke="none" fill="none" x="13376" y="4952" width="301" height="721"/>
        <path fill="none" stroke="rgb(0,0,0)" stroke-width="40" stroke-linejoin="round" d="M 13526,4972 L 13526,5242"/>
        <path fill="rgb(0,0,0)" stroke="none" d="M 13526,5672 L 13676,5222 13376,5222 13526,5672 Z"/>
       </g>
      </g>
      <g class="com.sun.star.drawing.TextShape">
       <g id="id50">
        <rect class="BoundingBox" stroke="none" fill="none" x="5325" y="4543" width="1511" height="565"/>
        <text class="TextShape"><tspan class="TextParagraph" font-family="Liberation Sans, sans-serif" font-size="282px" font-weight="400"><tspan class="TextPosition" x="5575" y="4922"><tspan fill="rgb(0,0,0)" stroke="none">Error bit</tspan></tspan></tspan></text>
       </g>
      </g>
      <g class="com.sun.star.drawing.LineShape">
       <g id="id51">
        <rect class="BoundingBox" stroke="none" fill="none" x="5930" y="4952" width="301" height="1522"/>
        <path fill="none" stroke="rgb(0,0,0)" stroke-width="40" stroke-linejoin="round" d="M 6080,4972 L 6080,6042"/>
        <path fill="rgb(0,0,0)" stroke="none" d="M 6080,6472 L 6230,6022 5930,6022 6080,6472 Z"/>
       </g>
      </g>
     </g>
    </g>
   </g>
  </g>
 </g>
</svg>