<?xml version="1.0" encoding="UTF-8"?>
<!DOCTYPE svg PUBLIC "-//W3C//DTD SVG 1.1//EN" "http://www.w3.org/Graphics/SVG/1.1/DTD/svg11.dtd">
<svg version="1.2" width="105.39mm" height="46.83mm" viewBox="5244 5239 10539 4683" preserveAspectRatio="xMidYMid" fill-rule="evenodd" stroke-width="28.222" stroke-linejoin="round" xmlns="http://www.w3.org/2000/svg" xmlns:ooo="http://xml.openoffice.org/svg/export" xmlns:xlink="http://www.w3.org/1999/xlink" xmlns:presentation="http://sun.com/xmlns/staroffice/presentation" xmlns:smil="http://www.w3.org/2001/SMIL20/" xmlns:anim="urn:oasis:names:tc:opendocument:xmlns:animation:1.0" xml:space="preserve">
 <defs class="ClipPathGroup">
  <clipPath id="presentation_clip_path" clipPathUnits="userSpaceOnUse">
   <rect x="5244" y="5239" width="10539" height="4683"/>
  </clipPath>
  <clipPath id="presentation_clip_path_shrink" clipPathUnits="userSpaceOnUse">
   <rect x="5254" y="5243" width="10518" height="4674"/>
  </clipPath>
 </defs>
 <defs>
  <font id="EmbeddedFont_1" horiz-adv-x="2048">
   <font-face font-family="Liberation Mono embedded" units-per-em="2048" font-weight="normal" font-style="normal" ascent="1693" descent="609"/>
   <missing-glyph horiz-adv-x="2048" d="M 0,0 L 2047,0 2047,2047 0,2047 0,0 Z"/>
   <glyph unicode="u" horiz-adv-x="900" d="M 365,1082 L 365,396 C 365,343 369,299 377,264 384,229 397,200 415,179 432,157 455,142 484,133 512,124 547,119 589,119 632,119 670,127 705,142 739,157 768,178 793,207 817,235 836,270 849,312 862,353 868,401 868,455 L 868,1082 1049,1082 1049,231 C 1049,208 1049,185 1050,160 1050,135 1050,111 1051,89 1052,66 1052,47 1053,31 1054,15 1054,5 1055,0 L 885,0 C 884,3 884,12 883,27 882,42 882,59 881,78 880,97 879,116 878,136 877,155 877,172 877,185 L 874,185 C 857,154 838,125 817,100 796,75 772,53 745,36 718,18 686,4 651,-6 616,-15 575,-20 528,-20 468,-20 416,-13 373,2 330,17 294,39 266,70 238,101 218,140 205,189 192,237 185,294 185,361 L 185,1082 365,1082 Z"/>
   <glyph unicode="t" horiz-adv-x="848" d="M 190,940 L 190,1082 360,1082 418,1364 538,1364 538,1082 970,1082 970,940 538,940 538,288 C 538,235 552,196 581,171 609,146 655,133 720,133 747,133 774,134 803,137 831,139 858,142 885,145 911,148 936,152 959,156 982,160 1001,164 1017,167 L 1017,30 C 1002,26 983,21 960,16 937,11 911,6 882,1 853,-4 821,-8 787,-11 753,-14 718,-16 682,-16 574,-16 493,7 439,53 385,98 358,170 358,269 L 358,940 190,940 Z"/>
   <glyph unicode="s" horiz-adv-x="900" d="M 1060,309 C 1060,258 1050,213 1031,172 1011,131 982,97 945,69 908,40 862,18 808,3 753,-12 691,-20 621,-20 558,-20 502,-15 452,-7 401,3 357,17 319,38 281,59 249,86 224,121 198,155 179,197 167,248 L 326,279 C 334,242 347,213 365,192 382,170 404,153 429,142 454,131 482,123 515,120 548,116 583,114 621,114 660,114 696,117 729,123 762,128 790,138 814,152 838,165 857,183 871,205 884,226 891,253 891,285 891,318 883,345 866,366 849,386 825,403 796,417 767,431 732,443 692,453 651,463 607,474 560,487 517,498 475,511 433,524 391,537 354,555 321,577 288,598 261,626 241,659 220,692 210,735 210,786 210,884 245,961 316,1016 387,1071 489,1099 623,1099 676,1099 725,1094 771,1085 817,1075 858,1060 894,1039 930,1018 960,991 985,958 1009,925 1026,885 1035,839 L 873,819 C 868,849 858,873 843,892 828,911 809,926 787,937 764,948 739,955 711,959 683,963 654,965 623,965 460,965 378,915 378,814 378,783 385,759 400,740 414,721 434,705 460,692 486,679 517,669 553,660 589,651 629,640 672,629 715,618 760,606 806,592 851,578 893,559 931,536 968,513 999,483 1024,447 1048,410 1060,364 1060,309 Z"/>
   <glyph unicode="p" horiz-adv-x="927" d="M 1090,546 C 1090,464 1083,388 1070,319 1057,250 1035,190 1004,140 973,90 933,51 883,23 833,-6 771,-20 698,-20 661,-20 626,-17 593,-10 560,-3 529,7 500,22 471,37 446,56 424,79 401,102 382,131 367,164 L 362,164 C 363,163 363,157 364,147 364,136 364,123 365,108 365,93 365,75 366,56 366,37 366,17 366,-2 L 366,-425 185,-425 185,858 C 185,885 185,910 185,935 184,960 184,982 183,1002 182,1021 182,1038 181,1052 180,1066 180,1076 179,1082 L 354,1082 C 355,1080 356,1073 357,1061 358,1048 359,1033 360,1016 361,999 362,980 363,960 364,940 364,921 364,904 L 368,904 C 385,939 404,969 425,994 446,1019 469,1040 496,1057 523,1073 553,1085 586,1093 619,1100 657,1104 698,1104 771,1104 833,1091 883,1064 933,1037 973,1000 1004,951 1035,902 1057,843 1070,774 1083,705 1090,629 1090,546 Z M 904,546 C 904,613 900,672 892,724 884,776 870,820 851,856 831,891 805,918 773,937 740,956 700,965 651,965 612,965 575,959 540,947 505,934 475,912 450,880 424,847 404,802 389,745 374,688 366,614 366,524 366,447 372,383 385,331 397,278 415,236 439,204 463,171 493,148 528,134 563,120 604,113 649,113 698,113 738,123 771,142 804,161 830,188 850,225 869,262 883,307 892,361 900,415 904,477 904,546 Z"/>
   <glyph unicode="o" horiz-adv-x="1006" d="M 1097,542 C 1097,447 1086,365 1064,295 1041,224 1009,166 967,119 925,72 874,38 814,15 753,-8 685,-20 609,-20 536,-20 471,-9 412,14 353,37 302,71 261,118 219,165 187,223 164,294 141,364 130,447 130,542 130,728 172,868 257,962 341,1055 460,1102 615,1102 778,1102 899,1056 978,963 1057,870 1097,730 1097,542 Z M 908,542 C 908,626 901,695 887,750 872,805 852,848 827,881 801,914 770,937 735,950 700,963 661,969 618,969 575,969 535,962 498,949 461,935 430,912 404,879 377,846 357,802 342,747 327,692 319,624 319,542 319,458 327,389 343,334 358,279 379,235 406,202 432,169 463,146 498,133 533,120 569,113 607,113 650,113 691,120 728,133 765,146 796,168 823,201 850,234 871,278 886,333 901,388 908,458 908,542 Z"/>
   <glyph unicode="n" horiz-adv-x="900" d="M 868,0 L 868,695 C 868,748 863,792 852,827 841,861 825,888 806,909 786,929 763,943 736,951 709,959 680,963 648,963 609,963 572,956 538,941 503,926 473,904 448,876 422,847 402,812 387,771 372,729 365,681 365,627 L 365,0 185,0 185,851 C 185,874 185,898 185,923 184,948 184,971 183,994 182,1016 182,1035 181,1051 180,1067 180,1077 179,1082 L 349,1082 C 350,1079 350,1070 351,1055 352,1040 353,1024 354,1005 355,986 355,966 356,947 357,927 357,910 357,897 L 360,897 C 376,928 395,957 417,982 438,1007 463,1029 492,1047 520,1064 552,1078 587,1088 622,1097 662,1102 706,1102 761,1102 810,1095 853,1080 896,1065 932,1043 961,1012 990,981 1012,942 1027,894 1042,846 1049,788 1049,721 L 1049,0 868,0 Z"/>
   <glyph unicode="m" horiz-adv-x="1060" d="M 531,0 L 531,686 C 531,739 529,783 525,818 521,853 515,882 506,904 497,925 485,941 471,950 456,959 438,963 417,963 395,963 375,955 358,938 341,921 326,897 313,866 300,835 291,797 284,754 277,710 274,661 274,607 L 274,0 105,0 105,851 C 105,874 105,898 105,923 104,948 104,971 103,994 102,1016 102,1035 101,1051 100,1067 100,1077 99,1082 L 248,1082 C 249,1079 249,1070 250,1057 251,1043 251,1027 252,1010 253,992 253,974 254,955 254,936 254,920 254,907 L 256,907 C 265,933 275,958 287,982 299,1005 314,1026 331,1044 348,1062 368,1076 391,1087 414,1097 441,1102 472,1102 531,1102 575,1086 604,1054 633,1022 653,973 666,906 L 668,906 C 680,937 693,965 708,990 722,1014 738,1034 757,1051 776,1068 797,1080 821,1089 845,1098 873,1102 904,1102 945,1102 979,1095 1007,1080 1035,1065 1058,1043 1075,1012 1092,981 1105,942 1113,894 1120,846 1124,788 1124,721 L 1124,0 956,0 956,686 C 956,739 954,783 950,818 946,853 940,882 931,904 922,925 910,941 896,950 881,959 863,963 842,963 798,963 763,935 738,879 712,823 699,739 699,627 L 699,0 531,0 Z"/>
   <glyph unicode="l" horiz-adv-x="980" d="M 736,142 L 1116,142 1116,0 134,0 134,142 556,142 556,1342 267,1342 267,1484 736,1484 736,142 Z"/>
   <glyph unicode="i" horiz-adv-x="1007" d="M 745,142 L 1125,142 1125,0 143,0 143,142 565,142 565,940 246,940 246,1082 745,1082 745,142 Z M 545,1292 L 545,1484 745,1484 745,1292 545,1292 Z"/>
   <glyph unicode="f" horiz-adv-x="980" d="M 580,940 L 580,0 400,0 400,940 138,940 138,1082 400,1082 400,1107 C 400,1174 408,1231 423,1279 438,1326 462,1365 495,1395 528,1425 572,1447 625,1461 678,1475 742,1482 818,1482 837,1482 860,1482 887,1482 914,1482 940,1481 967,1479 994,1477 1019,1474 1043,1471 1066,1469 1085,1466 1099,1463 L 1099,1318 C 1087,1320 1069,1322 1045,1324 1021,1326 996,1328 970,1330 943,1331 918,1333 894,1334 870,1335 852,1335 839,1335 795,1335 757,1332 724,1325 691,1318 664,1306 643,1288 622,1270 606,1245 596,1214 585,1183 580,1142 580,1092 L 580,1082 1071,1082 1071,940 580,940 Z"/>
   <glyph unicode="e" horiz-adv-x="980" d="M 322,503 C 322,446 328,394 341,347 354,299 373,258 398,224 423,189 455,163 493,144 530,125 574,115 623,115 660,115 694,119 725,128 756,136 783,147 808,162 833,177 853,194 870,215 887,235 899,257 907,281 L 1065,236 C 1054,206 1038,176 1017,146 996,115 967,88 932,64 897,39 854,19 803,4 752,-12 692,-20 623,-20 546,-20 478,-8 417,16 356,40 305,76 263,123 221,170 189,230 167,301 144,372 133,454 133,548 133,652 146,739 173,810 199,881 234,938 279,981 324,1024 375,1055 434,1074 492,1093 553,1102 617,1102 704,1102 778,1088 839,1060 899,1032 948,993 986,943 1024,892 1052,832 1069,761 1086,690 1094,612 1094,527 L 1094,503 322,503 Z M 619,969 C 588,969 556,964 523,955 489,945 458,928 429,903 400,878 376,845 357,803 337,760 326,706 324,641 L 908,641 C 903,704 891,756 874,798 857,840 835,874 810,899 784,924 755,942 722,953 689,964 655,969 619,969 Z"/>
   <glyph unicode="d" horiz-adv-x="927" d="M 862,174 C 829,104 786,53 732,22 678,-10 611,-26 530,-26 395,-26 296,20 233,113 170,206 138,345 138,532 138,909 269,1098 530,1098 611,1098 678,1084 733,1055 787,1026 830,979 863,914 L 865,914 C 865,917 865,926 865,940 864,954 864,969 864,986 864,1003 864,1019 864,1034 863,1049 863,1059 863,1065 L 863,1484 1043,1484 1043,223 C 1043,197 1043,172 1044,148 1044,124 1044,102 1045,82 1046,62 1046,45 1047,31 1048,16 1048,6 1049,0 L 877,0 C 876,3 875,10 874,22 873,34 872,48 871,65 870,82 869,100 868,119 867,138 867,157 867,174 L 862,174 Z M 324,538 C 324,463 329,399 339,346 348,293 363,249 384,214 404,179 430,154 462,138 494,121 532,113 577,113 623,113 664,121 700,137 735,153 765,179 790,214 814,249 832,294 845,350 857,406 863,474 863,554 863,631 857,696 845,749 832,801 814,843 790,875 766,907 736,930 701,944 666,958 625,965 579,965 536,965 499,957 467,942 435,927 409,902 388,868 367,834 351,790 340,736 329,681 324,615 324,538 Z"/>
   <glyph unicode="a" horiz-adv-x="1059" d="M 1101,111 C 1111,111 1121,112 1131,113 1141,114 1151,116 1160,118 L 1160,6 C 1137,1 1115,-3 1093,-6 1070,-9 1046,-10 1021,-10 987,-10 958,-5 934,4 909,13 889,26 874,45 859,63 847,86 839,113 831,140 826,171 824,207 L 818,207 C 799,172 779,141 756,113 733,85 707,61 678,42 649,22 615,7 577,-4 539,-15 495,-20 446,-20 341,-20 261,9 208,66 155,123 128,202 128,302 128,373 141,432 168,478 194,523 228,559 271,585 314,611 362,629 417,640 471,650 526,655 582,656 L 818,660 818,719 C 818,764 814,802 805,833 796,864 782,890 764,909 745,928 722,943 694,952 666,961 633,965 596,965 563,965 533,963 506,958 479,953 455,944 436,931 417,918 401,900 389,878 376,855 368,827 364,793 L 176,810 C 183,853 195,892 214,928 232,963 258,994 291,1020 324,1046 366,1066 417,1081 467,1095 528,1102 599,1102 732,1102 833,1071 900,1009 967,946 1000,856 1000,738 L 1000,272 C 1000,219 1007,179 1021,152 1035,125 1062,111 1101,111 Z M 492,117 C 547,117 595,128 636,149 677,170 711,196 738,228 765,260 785,295 798,334 811,373 818,410 818,445 L 818,534 628,530 C 591,529 555,527 518,522 481,517 447,506 418,490 388,474 364,451 345,421 326,390 317,350 317,299 317,244 332,200 362,167 391,134 435,117 492,117 Z"/>
   <glyph unicode="_" horiz-adv-x="1271" d="M -5,-220 L -5,-124 1233,-124 1233,-220 -5,-220 Z"/>
  </font>
 </defs>
 <defs class="TextShapeIndex">
  <g ooo:slide="id1" ooo:id-list="id3 id4 id5 id6 id7 id8 id9 id10 id11 id12 id13 id14 id15 id16 id17 id18 id19 id20 id21 id22"/>
 </defs>
 <defs class="EmbeddedBulletChars">
  <g id="bullet-char-template(57356)" transform="scale(0.00048828125,-0.00048828125)">
   <path d="M 580,1141 L 1163,571 580,0 -4,571 580,1141 Z"/>
  </g>
  <g id="bullet-char-template(57354)" transform="scale(0.00048828125,-0.00048828125)">
   <path d="M 8,1128 L 1137,1128 1137,0 8,0 8,1128 Z"/>
  </g>
  <g id="bullet-char-template(10146)" transform="scale(0.00048828125,-0.00048828125)">
   <path d="M 174,0 L 602,739 174,1481 1456,739 174,0 Z M 1358,739 L 309,1346 659,739 1358,739 Z"/>
  </g>
  <g id="bullet-char-template(10132)" transform="scale(0.00048828125,-0.00048828125)">
   <path d="M 2015,739 L 1276,0 717,0 1260,543 174,543 174,936 1260,936 717,1481 1274,1481 2015,739 Z"/>
  </g>
  <g id="bullet-char-template(10007)" transform="scale(0.00048828125,-0.00048828125)">
   <path d="M 0,-2 C -7,14 -16,27 -25,37 L 356,567 C 262,823 215,952 215,954 215,979 228,992 255,992 264,992 276,990 289,987 310,991 331,999 354,1012 L 381,999 492,748 772,1049 836,1024 860,1049 C 881,1039 901,1025 922,1006 886,937 835,863 770,784 769,783 710,716 594,584 L 774,223 C 774,196 753,168 711,139 L 727,119 C 717,90 699,76 672,76 641,76 570,178 457,381 L 164,-76 C 142,-110 111,-127 72,-127 30,-127 9,-110 8,-76 1,-67 -2,-52 -2,-32 -2,-23 -1,-13 0,-2 Z"/>
  </g>
  <g id="bullet-char-template(10004)" transform="scale(0.00048828125,-0.00048828125)">
   <path d="M 285,-33 C 182,-33 111,30 74,156 52,228 41,333 41,471 41,549 55,616 82,672 116,743 169,778 240,778 293,778 328,747 346,684 L 369,508 C 377,444 397,411 428,410 L 1163,1116 C 1174,1127 1196,1133 1229,1133 1271,1133 1292,1118 1292,1087 L 1292,965 C 1292,929 1282,901 1262,881 L 442,47 C 390,-6 338,-33 285,-33 Z"/>
  </g>
  <g id="bullet-char-template(9679)" transform="scale(0.00048828125,-0.00048828125)">
   <path d="M 813,0 C 632,0 489,54 383,161 276,268 223,411 223,592 223,773 276,916 383,1023 489,1130 632,1184 813,1184 992,1184 1136,1130 1245,1023 1353,916 1407,772 1407,592 1407,412 1353,268 1245,161 1136,54 992,0 813,0 Z"/>
  </g>
  <g id="bullet-char-template(8226)" transform="scale(0.00048828125,-0.00048828125)">
   <path d="M 346,457 C 273,457 209,483 155,535 101,586 74,649 74,723 74,796 101,859 155,911 209,963 273,989 346,989 419,989 480,963 531,910 582,859 608,796 608,723 608,648 583,586 532,535 482,483 420,457 346,457 Z"/>
  </g>
  <g id="bullet-char-template(8211)" transform="scale(0.00048828125,-0.00048828125)">
   <path d="M -4,459 L 1135,459 1135,606 -4,606 -4,459 Z"/>
  </g>
  <g id="bullet-char-template(61548)" transform="scale(0.00048828125,-0.00048828125)">
   <path d="M 173,740 C 173,903 231,1043 346,1159 462,1274 601,1332 765,1332 928,1332 1067,1274 1183,1159 1299,1043 1357,903 1357,740 1357,577 1299,437 1183,322 1067,206 928,148 765,148 601,148 462,206 346,322 231,437 173,577 173,740 Z"/>
  </g>
 </defs>
 <defs class="TextEmbeddedBitmaps"/>
 <g class="SlideGroup">
  <g>
   <g id="container-id1">
    <g id="id1" class="Slide" clip-path="url(#presentation_clip_path)">
     <g class="Page">
      <g class="Group">
       <g class="com.sun.star.drawing.LineShape">
        <g id="id3">
         <rect class="BoundingBox" stroke="none" fill="none" x="8552" y="5292" width="301" height="3847"/>
         <path fill="none" stroke="rgb(0,0,0)" stroke-width="40" stroke-linejoin="round" d="M 8702,9118 L 8702,5722"/>
         <path fill="rgb(0,0,0)" stroke="none" d="M 8702,5292 L 8552,5742 8852,5742 8702,5292 Z"/>
        </g>
       </g>
       <g class="com.sun.star.drawing.LineShape">
        <g id="id4">
         <rect class="BoundingBox" stroke="none" fill="none" x="8062" y="8241" width="7723" height="301"/>
         <path fill="none" stroke="rgb(0,0,0)" stroke-width="40" stroke-linejoin="round" d="M 8083,8391 L 15353,8391"/>
         <path fill="rgb(0,0,0)" stroke="none" d="M 15783,8391 L 15333,8241 15333,8541 15783,8391 Z"/>
        </g>
       </g>
       <g class="com.sun.star.drawing.LineShape">
        <g id="id5">
         <rect class="BoundingBox" stroke="none" fill="none" x="8682" y="6389" width="41" height="2040"/>
         <path fill="none" stroke="rgb(255,0,0)" stroke-width="40" stroke-linejoin="round" d="M 8702,8408 L 8702,6409"/>
        </g>
       </g>
       <g class="com.sun.star.drawing.LineShape">
        <g id="id6">
         <rect class="BoundingBox" stroke="none" fill="none" x="10271" y="6389" width="41" height="2541"/>
         <path fill="none" stroke="rgb(255,0,0)" stroke-width="40" stroke-linejoin="round" d="M 10291,8909 L 10291,6409"/>
        </g>
       </g>
       <g class="com.sun.star.drawing.LineShape">
        <g id="id7">
         <rect class="BoundingBox" stroke="none" fill="none" x="11465" y="6389" width="41" height="2541"/>
         <path fill="none" stroke="rgb(255,0,0)" stroke-width="40" stroke-linejoin="round" d="M 11485,8909 L 11485,6409"/>
        </g>
       </g>
       <g class="com.sun.star.drawing.LineShape">
        <g id="id8">
         <rect class="BoundingBox" stroke="none" fill="none" x="13052" y="6389" width="41" height="2541"/>
         <path fill="none" stroke="rgb(255,0,0)" stroke-width="40" stroke-linejoin="round" d="M 13072,8909 L 13072,6409"/>
        </g>
       </g>
       <g class="com.sun.star.drawing.LineShape">
        <g id="id9">
         <rect class="BoundingBox" stroke="none" fill="none" x="14246" y="6389" width="41" height="2541"/>
         <path fill="none" stroke="rgb(255,0,0)" stroke-width="40" stroke-linejoin="round" d="M 14266,8909 L 14266,6409"/>
        </g>
       </g>
       <g class="com.sun.star.drawing.LineShape">
        <g id="id10">
         <rect class="BoundingBox" stroke="none" fill="none" x="8682" y="6389" width="1628" height="41"/>
         <path fill="none" stroke="rgb(255,0,0)" stroke-width="40" stroke-linejoin="round" d="M 10289,6409 L 8702,6409"/>
        </g>
       </g>
       <g class="com.sun.star.drawing.LineShape">
        <g id="id11">
         <rect class="BoundingBox" stroke="none" fill="none" x="11463" y="6389" width="1628" height="41"/>
         <path fill="none" stroke="rgb(255,0,0)" stroke-width="40" stroke-linejoin="round" d="M 13070,6409 L 11483,6409"/>
        </g>
       </g>
       <g class="com.sun.star.drawing.LineShape">
        <g id="id12">
         <rect class="BoundingBox" stroke="none" fill="none" x="10269" y="8889" width="1241" height="41"/>
         <path fill="none" stroke="rgb(255,0,0)" stroke-width="40" stroke-linejoin="round" d="M 11489,8909 L 10289,8909"/>
        </g>
       </g>
       <g class="com.sun.star.drawing.LineShape">
        <g id="id13">
         <rect class="BoundingBox" stroke="none" fill="none" x="13079" y="8889" width="1241" height="41"/>
         <path fill="none" stroke="rgb(255,0,0)" stroke-width="40" stroke-linejoin="round" d="M 14299,8909 L 13099,8909"/>
        </g>
       </g>
       <g class="com.sun.star.drawing.LineShape">
        <g id="id14">
         <rect class="BoundingBox" stroke="none" fill="none" x="14245" y="6389" width="1041" height="41"/>
         <path fill="none" stroke="rgb(255,0,0)" stroke-width="40" stroke-linejoin="round" d="M 15265,6409 L 14265,6409"/>
        </g>
       </g>
       <g class="com.sun.star.drawing.TextShape">
        <g id="id15">
         <rect class="BoundingBox" stroke="none" fill="none" x="5477" y="6116" width="3297" height="688"/>
         <text class="TextShape"><tspan class="TextParagraph" font-family="Liberation Mono, monospace" font-size="388px" font-weight="400"><tspan class="TextPosition" x="5727" y="6563"><tspan fill="rgb(0,0,0)" stroke="none">on_amplitude</tspan></tspan></tspan></text>
        </g>
       </g>
       <g class="com.sun.star.drawing.TextShape">
        <g id="id16">
         <rect class="BoundingBox" stroke="none" fill="none" x="5244" y="8492" width="3530" height="688"/>
         <text class="TextShape"><tspan class="TextParagraph" font-family="Liberation Mono, monospace" font-size="388px" font-weight="400"><tspan class="TextPosition" x="5494" y="8939"><tspan fill="rgb(0,0,0)" stroke="none">off_amplitude</tspan></tspan></tspan></text>
        </g>
       </g>
       <g class="com.sun.star.drawing.LineShape">
        <g id="id17">
         <rect class="BoundingBox" stroke="none" fill="none" x="8506" y="8799" width="217" height="41"/>
         <path fill="none" stroke="rgb(0,0,0)" stroke-width="40" stroke-linejoin="round" d="M 8702,8819 L 8526,8819"/>
        </g>
       </g>
       <g class="com.sun.star.drawing.LineShape">
        <g id="id18">
         <rect class="BoundingBox" stroke="none" fill="none" x="8516" y="6380" width="217" height="41"/>
         <path fill="none" stroke="rgb(0,0,0)" stroke-width="40" stroke-linejoin="round" d="M 8712,6400 L 8536,6400"/>
        </g>
       </g>
       <g class="com.sun.star.drawing.TextShape">
        <g id="id19">
         <rect class="BoundingBox" stroke="none" fill="none" x="9128" y="9235" width="3064" height="688"/>
         <text class="TextShape"><tspan class="TextParagraph" font-family="Liberation Mono, monospace" font-size="388px" font-weight="400"><tspan class="TextPosition" x="9378" y="9682"><tspan fill="rgb(0,0,0)" stroke="none">off_samples</tspan></tspan></tspan></text>
        </g>
       </g>
       <g class="com.sun.star.drawing.TextShape">
        <g id="id20">
         <rect class="BoundingBox" stroke="none" fill="none" x="10609" y="5239" width="2831" height="688"/>
         <text class="TextShape"><tspan class="TextParagraph" font-family="Liberation Mono, monospace" font-size="388px" font-weight="400"><tspan class="TextPosition" x="10859" y="5686"><tspan fill="rgb(0,0,0)" stroke="none">on_samples</tspan></tspan></tspan></text>
        </g>
       </g>
       <g class="com.sun.star.drawing.LineShape">
        <g id="id21">
         <rect class="BoundingBox" stroke="none" fill="none" x="11486" y="5988" width="1571" height="301"/>
         <path fill="none" stroke="rgb(0,0,0)" stroke-width="40" stroke-linejoin="round" d="M 11859,6138 L 12626,6138"/>
         <path fill="rgb(0,0,0)" stroke="none" d="M 11486,6138 L 11876,6268 11876,6008 11486,6138 Z"/>
         <path fill="rgb(0,0,0)" stroke="none" d="M 13056,6138 L 12606,5988 12606,6288 13056,6138 Z"/>
        </g>
       </g>
       <g class="com.sun.star.drawing.LineShape">
        <g id="id22">
         <rect class="BoundingBox" stroke="none" fill="none" x="10293" y="9004" width="1201" height="301"/>
         <path fill="none" stroke="rgb(0,0,0)" stroke-width="40" stroke-linejoin="round" d="M 10666,9154 L 11063,9154"/>
         <path fill="rgb(0,0,0)" stroke="none" d="M 10293,9154 L 10683,9284 10683,9024 10293,9154 Z"/>
         <path fill="rgb(0,0,0)" stroke="none" d="M 11493,9154 L 11043,9004 11043,9304 11493,9154 Z"/>
        </g>
       </g>
      </g>
     </g>
    </g>
   </g>
  </g>
 </g>
</svg>