<?xml version="1.0" encoding="UTF-8"?>
<!DOCTYPE svg PUBLIC "-//W3C//DTD SVG 1.1//EN" "http://www.w3.org/Graphics/SVG/1.1/DTD/svg11.dtd">
<svg version="1.2" width="114.37mm" height="37.69mm" viewBox="1000 17293 11437 3769" preserveAspectRatio="xMidYMid" fill-rule="evenodd" stroke-width="28.222" stroke-linejoin="round" xmlns="http://www.w3.org/2000/svg" xmlns:ooo="http://xml.openoffice.org/svg/export" xmlns:xlink="http://www.w3.org/1999/xlink" xmlns:presentation="http://sun.com/xmlns/staroffice/presentation" xmlns:smil="http://www.w3.org/2001/SMIL20/" xmlns:anim="urn:oasis:names:tc:opendocument:xmlns:animation:1.0" xml:space="preserve">
 <defs class="ClipPathGroup">
  <clipPath id="presentation_clip_path" clipPathUnits="userSpaceOnUse">
   <rect x="1000" y="17293" width="11437" height="3769"/>
  </clipPath>
  <clipPath id="presentation_clip_path_shrink" clipPathUnits="userSpaceOnUse">
   <rect x="1011" y="17296" width="11415" height="3762"/>
  </clipPath>
 </defs>
 <defs>
  <font id="EmbeddedFont_1" horiz-adv-x="2048">
   <font-face font-family="Liberation Serif embedded" units-per-em="2048" font-weight="normal" font-style="normal" ascent="1799" descent="423"/>
   <missing-glyph horiz-adv-x="2048" d="M 0,0 L 2047,0 2047,2047 0,2047 0,0 Z"/>
   <glyph unicode="5" horiz-adv-x="848" d="M 485,784 C 560,784 626,777 683,762 740,747 788,723 827,692 866,661 895,621 915,573 934,524 944,466 944,399 944,336 935,278 916,227 897,176 867,132 828,95 789,58 739,30 680,10 620,-10 550,-20 469,-20 406,-20 347,-16 291,-10 234,-2 181,8 130,23 L 119,305 185,305 230,117 C 242,110 257,104 274,97 291,90 309,85 329,80 349,75 370,71 391,68 412,65 433,63 453,63 515,63 566,71 606,87 645,102 677,124 700,153 723,182 738,216 747,256 756,296 760,340 760,389 760,441 756,486 747,525 738,564 721,596 697,622 673,648 640,668 599,681 557,694 503,700 438,700 399,700 364,697 334,692 304,687 279,681 260,676 L 164,676 164,1341 844,1341 844,1188 254,1188 254,760 C 266,763 280,765 295,768 310,771 326,773 345,776 363,778 384,780 407,782 430,783 456,784 485,784 Z"/>
   <glyph unicode="1" horiz-adv-x="742" d="M 627,80 L 901,53 901,0 180,0 180,53 455,80 455,1174 184,1077 184,1130 575,1352 627,1352 627,80 Z"/>
  </font>
 </defs>
 <defs>
  <font id="EmbeddedFont_2" horiz-adv-x="2048">
   <font-face font-family="Liberation Serif embedded" units-per-em="2048" font-weight="normal" font-style="italic" ascent="1799" descent="423"/>
   <missing-glyph horiz-adv-x="2048" d="M 0,0 L 2047,0 2047,2047 0,2047 0,0 Z"/>
   <glyph unicode="y" horiz-adv-x="1112" d="M 52,940 L 308,940 453,208 688,614 C 710,653 726,688 737,721 747,753 752,782 752,807 752,832 745,851 731,866 717,881 702,890 686,895 L 694,940 884,940 C 890,935 896,926 902,915 907,904 910,891 910,877 910,856 904,828 893,793 882,758 860,713 827,657 L 431,-9 C 392,-76 355,-136 320,-189 285,-242 250,-288 215,-325 180,-362 143,-391 105,-411 66,-431 24,-441 -22,-441 -39,-441 -54,-441 -68,-441 -80,-441 -92,-440 -104,-438 -114,-437 -125,-435 -136,-433 -147,-430 -158,-428 -171,-424 L -134,-221 -89,-221 -73,-317 C -56,-332 -29,-340 9,-340 38,-340 66,-332 93,-315 120,-298 145,-277 170,-251 194,-224 217,-195 238,-163 259,-131 277,-100 294,-70 L 339,12 156,870 44,895 52,940 Z"/>
   <glyph unicode="x" horiz-adv-x="927" d="M 248,236 C 227,215 209,197 196,182 182,167 171,153 163,142 155,130 150,119 147,110 144,101 142,92 142,84 142,73 146,65 154,59 161,53 171,48 184,45 L 176,0 -9,0 C -13,3 -17,9 -20,17 -23,24 -25,33 -25,43 -25,52 -22,63 -18,74 -12,85 -5,97 6,111 17,125 31,141 48,159 65,177 87,198 112,221 L 385,475 213,870 106,895 114,940 362,940 507,582 631,700 C 674,741 704,773 721,796 738,819 747,839 747,856 747,861 745,866 742,870 738,874 733,878 727,881 721,884 715,886 708,889 701,891 694,893 688,895 L 696,940 873,940 C 879,935 884,930 888,923 892,916 894,907 894,897 894,858 848,794 756,707 L 542,506 734,66 850,45 842,0 586,0 419,400 248,236 Z"/>
   <glyph unicode="n" horiz-adv-x="901" d="M 755,748 C 755,778 747,802 731,821 715,840 690,849 655,849 627,849 598,843 569,830 540,817 511,800 484,779 457,758 431,735 408,709 385,682 365,656 349,630 L 239,0 73,0 226,871 108,896 116,941 394,941 367,749 C 392,782 419,811 447,838 474,865 503,887 533,906 562,925 593,939 624,950 655,960 686,965 718,965 749,965 777,961 802,953 827,945 848,932 866,915 883,898 897,876 907,849 916,822 921,791 921,754 921,746 920,735 919,722 917,708 915,693 912,677 909,661 907,645 904,628 901,611 899,595 896,580 L 808,69 939,45 931,0 630,0 732,582 C 735,597 737,612 740,628 743,644 745,660 748,675 750,690 752,704 753,717 754,730 755,740 755,748 Z"/>
   <glyph unicode="g" horiz-adv-x="980" d="M 418,104 C 441,104 464,108 488,117 511,125 534,136 557,149 580,162 601,177 622,194 642,211 660,227 676,243 L 786,861 C 770,865 756,869 743,872 730,875 718,878 706,880 693,882 680,884 666,885 652,886 636,886 618,886 565,886 515,871 470,840 425,809 386,769 353,718 320,667 294,609 276,543 257,477 248,409 248,339 248,306 252,275 259,246 266,217 276,193 290,172 304,151 322,134 343,122 364,110 389,104 418,104 Z M 662,160 C 649,145 631,128 608,107 585,86 559,67 530,48 501,29 471,12 439,-1 406,-14 374,-21 342,-21 298,-21 259,-13 225,4 191,20 163,43 140,72 117,101 99,137 87,178 75,219 69,264 69,313 69,372 76,430 89,485 102,540 121,591 146,640 171,688 200,732 235,772 269,811 307,845 349,874 391,903 436,925 485,941 533,956 583,964 636,964 659,964 684,963 713,961 742,958 771,955 801,952 831,948 860,944 889,939 917,934 942,928 964,923 L 796,-35 C 783,-107 765,-168 741,-220 716,-270 685,-312 648,-344 611,-376 566,-399 514,-414 462,-429 402,-436 334,-436 298,-436 263,-434 229,-429 195,-424 164,-418 135,-412 106,-404 80,-397 57,-389 34,-380 15,-372 1,-365 L 19,-137 64,-137 100,-263 C 124,-286 155,-305 194,-320 232,-335 278,-342 333,-342 382,-342 424,-335 459,-321 493,-306 521,-287 544,-263 566,-238 583,-210 596,-178 608,-145 617,-111 623,-75 L 662,160 Z"/>
  </font>
 </defs>
 <defs>
  <font id="EmbeddedFont_3" horiz-adv-x="2048">
   <font-face font-family="OpenSymbol embedded" units-per-em="2048" font-weight="normal" font-style="normal" ascent="1402" descent="423"/>
   <missing-glyph horiz-adv-x="2048" d="M 0,0 L 2047,0 2047,2047 0,2047 0,0 Z"/>
   <glyph unicode="⌋" horiz-adv-x="398" d="M 428,-403 L 74,-403 74,-330 330,-330 330,1622 428,1622 428,-403 Z"/>
   <glyph unicode="⌊" horiz-adv-x="372" d="M 150,-403 L 150,1622 248,1622 248,-330 504,-330 504,-403 150,-403 Z"/>
   <glyph unicode="≫" horiz-adv-x="1853" d="M 885,0 L 885,111 1845,594 885,1073 885,1184 2068,592 885,0 Z M 223,0 L 223,111 1184,594 223,1073 223,1184 1407,592 223,0 Z"/>
   <glyph unicode="δ" horiz-adv-x="901" d="M 528,40 C 607,40 666,68 705,123 744,178 763,260 763,371 763,509 738,620 687,705 636,790 570,832 487,832 414,832 357,802 316,742 275,681 255,597 255,489 255,358 280,250 331,166 382,82 447,40 528,40 Z M 552,881 L 529,897 C 320,1035 216,1150 216,1243 216,1300 237,1347 278,1384 319,1421 372,1439 436,1439 510,1439 577,1416 637,1369 696,1322 734,1264 750,1197 L 703,1197 C 680,1255 644,1302 595,1338 546,1373 493,1391 436,1391 399,1391 371,1383 350,1367 329,1350 319,1327 319,1298 319,1241 376,1176 489,1104 489,1104 518,1085 577,1047 700,961 792,869 852,772 911,674 941,566 941,449 941,308 901,195 821,110 740,25 633,-18 498,-18 374,-18 273,23 195,106 116,188 77,293 77,422 77,557 116,668 194,753 271,838 372,880 496,880 506,880 515,879 523,878 531,877 539,875 548,872 551,871 553,872 554,875 555,878 554,880 552,881 Z"/>
   <glyph unicode="×" horiz-adv-x="1191" d="M 221,70 L 743,592 221,1114 293,1184 813,662 1337,1184 1405,1114 883,592 1405,70 1337,0 813,522 293,0 221,70 Z"/>
   <glyph unicode="]" horiz-adv-x="398" d="M 428,-403 L 74,-403 74,-330 330,-330 330,1553 74,1553 74,1622 428,1622 428,-403 Z"/>
   <glyph unicode="[" horiz-adv-x="372" d="M 150,-403 L 150,1622 504,1622 504,1552 248,1552 248,-332 504,-332 504,-403 150,-403 Z"/>
  </font>
 </defs>
 <defs class="TextShapeIndex">
  <g ooo:slide="id1" ooo:id-list="id3 id4 id5 id6 id7 id8 id9 id10 id11 id12 id13 id14 id15 id16 id17 id18 id19 id20 id21"/>
 </defs>
 <defs class="EmbeddedBulletChars">
  <g id="bullet-char-template(57356)" transform="scale(0.00048828125,-0.00048828125)">
   <path d="M 580,1141 L 1163,571 580,0 -4,571 580,1141 Z"/>
  </g>
  <g id="bullet-char-template(57354)" transform="scale(0.00048828125,-0.00048828125)">
   <path d="M 8,1128 L 1137,1128 1137,0 8,0 8,1128 Z"/>
  </g>
  <g id="bullet-char-template(10146)" transform="scale(0.00048828125,-0.00048828125)">
   <path d="M 174,0 L 602,739 174,1481 1456,739 174,0 Z M 1358,739 L 309,1346 659,739 1358,739 Z"/>
  </g>
  <g id="bullet-char-template(10132)" transform="scale(0.00048828125,-0.00048828125)">
   <path d="M 2015,739 L 1276,0 717,0 1260,543 174,543 174,936 1260,936 717,1481 1274,1481 2015,739 Z"/>
  </g>
  <g id="bullet-char-template(10007)" transform="scale(0.00048828125,-0.00048828125)">
   <path d="M 0,-2 C -7,14 -16,27 -25,37 L 356,567 C 262,823 215,952 215,954 215,979 228,992 255,992 264,992 276,990 289,987 310,991 331,999 354,1012 L 381,999 492,748 772,1049 836,1024 860,1049 C 881,1039 901,1025 922,1006 886,937 835,863 770,784 769,783 710,716 594,584 L 774,223 C 774,196 753,168 711,139 L 727,119 C 717,90 699,76 672,76 641,76 570,178 457,381 L 164,-76 C 142,-110 111,-127 72,-127 30,-127 9,-110 8,-76 1,-67 -2,-52 -2,-32 -2,-23 -1,-13 0,-2 Z"/>
  </g>
  <g id="bullet-char-template(10004)" transform="scale(0.00048828125,-0.00048828125)">
   <path d="M 285,-33 C 182,-33 111,30 74,156 52,228 41,333 41,471 41,549 55,616 82,672 116,743 169,778 240,778 293,778 328,747 346,684 L 369,508 C 377,444 397,411 428,410 L 1163,1116 C 1174,1127 1196,1133 1229,1133 1271,1133 1292,1118 1292,1087 L 1292,965 C 1292,929 1282,901 1262,881 L 442,47 C 390,-6 338,-33 285,-33 Z"/>
  </g>
  <g id="bullet-char-template(9679)" transform="scale(0.00048828125,-0.00048828125)">
   <path d="M 813,0 C 632,0 489,54 383,161 276,268 223,411 223,592 223,773 276,916 383,1023 489,1130 632,1184 813,1184 992,1184 1136,1130 1245,1023 1353,916 1407,772 1407,592 1407,412 1353,268 1245,161 1136,54 992,0 813,0 Z"/>
  </g>
  <g id="bullet-char-template(8226)" transform="scale(0.00048828125,-0.00048828125)">
   <path d="M 346,457 C 273,457 209,483 155,535 101,586 74,649 74,723 74,796 101,859 155,911 209,963 273,989 346,989 419,989 480,963 531,910 582,859 608,796 608,723 608,648 583,586 532,535 482,483 420,457 346,457 Z"/>
  </g>
  <g id="bullet-char-template(8211)" transform="scale(0.00048828125,-0.00048828125)">
   <path d="M -4,459 L 1135,459 1135,606 -4,606 -4,459 Z"/>
  </g>
  <g id="bullet-char-template(61548)" transform="scale(0.00048828125,-0.00048828125)">
   <path d="M 173,740 C 173,903 231,1043 346,1159 462,1274 601,1332 765,1332 928,1332 1067,1274 1183,1159 1299,1043 1357,903 1357,740 1357,577 1299,437 1183,322 1067,206 928,148 765,148 601,148 462,206 346,322 231,437 173,577 173,740 Z"/>
  </g>
 </defs>
 <defs class="TextEmbeddedBitmaps"/>
 <g class="SlideGroup">
  <g>
   <g id="container-id1">
    <g id="id1" class="Slide" clip-path="url(#presentation_clip_path)">
     <g class="Page">
      <g class="OLE2">
       <g id="id3">
        <rect class="BoundingBox" stroke="none" fill="none" x="4456" y="17361" width="1001" height="481"/>
        <defs>
         <clipPath id="clip_path_1" clipPathUnits="userSpaceOnUse">
          <path d="M 4445,17357 L 5450,17357 5450,17833 4445,17833 4445,17357 Z"/>
         </clipPath>
        </defs>
        <g clip-path="url(#clip_path_1)">
         <text class="TextShape"><tspan class="TextParagraph" font-family="Liberation Serif, serif" font-size="422px" font-style="italic" font-weight="400"><tspan class="TextPosition" x="4588" y="17731"><tspan fill="rgb(0,0,0)" stroke="none">g</tspan></tspan></tspan></text>
         <text class="TextShape"><tspan class="TextParagraph" font-family="OpenSymbol" font-size="422px" font-weight="400"><tspan class="TextPosition" x="4826" y="17731"><tspan fill="rgb(0,0,0)" stroke="none">[</tspan></tspan></tspan></text>
         <text class="TextShape"><tspan class="TextParagraph" font-family="Liberation Serif, serif" font-size="422px" font-style="italic" font-weight="400"><tspan class="TextPosition" x="4985" y="17731"><tspan fill="rgb(0,0,0)" stroke="none">n</tspan></tspan></tspan></text>
         <text class="TextShape"><tspan class="TextParagraph" font-family="OpenSymbol" font-size="422px" font-weight="400"><tspan class="TextPosition" x="5250" y="17731"><tspan fill="rgb(0,0,0)" stroke="none">]</tspan></tspan></tspan></text>
        </g>
       </g>
      </g>
      <g class="com.sun.star.drawing.LineShape">
       <g id="id4">
        <rect class="BoundingBox" stroke="none" fill="none" x="1982" y="17887" width="1219" height="353"/>
        <path fill="none" stroke="rgb(0,0,0)" stroke-width="35" stroke-linejoin="round" d="M 2000,18063 L 2695,18063"/>
        <path fill="rgb(0,0,0)" stroke="none" d="M 3200,18063 L 2672,17887 2672,18239 3200,18063 Z"/>
       </g>
      </g>
      <g class="com.sun.star.drawing.LineShape">
       <g id="id5">
        <rect class="BoundingBox" stroke="none" fill="none" x="4373" y="17887" width="1219" height="353"/>
        <path fill="none" stroke="rgb(0,0,0)" stroke-width="35" stroke-linejoin="round" d="M 4391,18063 L 5086,18063"/>
        <path fill="rgb(0,0,0)" stroke="none" d="M 5591,18063 L 5063,17887 5063,18239 5591,18063 Z"/>
       </g>
      </g>
      <g class="OLE2">
       <g id="id6">
        <rect class="BoundingBox" stroke="none" fill="none" x="1000" y="17823" width="992" height="481"/>
        <defs>
         <clipPath id="clip_path_2" clipPathUnits="userSpaceOnUse">
          <path d="M 1005,17833 L 1984,17833 1984,18309 1005,18309 1005,17833 Z"/>
         </clipPath>
        </defs>
        <g clip-path="url(#clip_path_2)">
         <text class="TextShape"><tspan class="TextParagraph" font-family="Liberation Serif, serif" font-size="422px" font-style="italic" font-weight="400"><tspan class="TextPosition" x="1132" y="18193"><tspan fill="rgb(0,0,0)" stroke="none">x</tspan></tspan></tspan></text>
         <text class="TextShape"><tspan class="TextParagraph" font-family="OpenSymbol" font-size="422px" font-weight="400"><tspan class="TextPosition" x="1370" y="18193"><tspan fill="rgb(0,0,0)" stroke="none">[</tspan></tspan></tspan></text>
         <text class="TextShape"><tspan class="TextParagraph" font-family="Liberation Serif, serif" font-size="422px" font-style="italic" font-weight="400"><tspan class="TextPosition" x="1529" y="18193"><tspan fill="rgb(0,0,0)" stroke="none">n</tspan></tspan></tspan></text>
         <text class="TextShape"><tspan class="TextParagraph" font-family="OpenSymbol" font-size="422px" font-weight="400"><tspan class="TextPosition" x="1767" y="18193"><tspan fill="rgb(0,0,0)" stroke="none">]</tspan></tspan></tspan></text>
        </g>
       </g>
      </g>
      <g class="OLE2">
       <g id="id7">
        <rect class="BoundingBox" stroke="none" fill="none" x="1012" y="20301" width="980" height="481"/>
        <defs>
         <clipPath id="clip_path_3" clipPathUnits="userSpaceOnUse">
          <path d="M 1005,20294 L 1984,20294 1984,20770 1005,20770 1005,20294 Z"/>
         </clipPath>
        </defs>
        <g clip-path="url(#clip_path_3)">
         <text class="TextShape"><tspan class="TextParagraph" font-family="OpenSymbol" font-size="422px" font-weight="400"><tspan class="TextPosition" x="1118" y="20671"><tspan fill="rgb(0,0,0)" stroke="none">δ</tspan></tspan></tspan></text>
         <text class="TextShape"><tspan class="TextParagraph" font-family="OpenSymbol" font-size="422px" font-weight="400"><tspan class="TextPosition" x="1382" y="20671"><tspan fill="rgb(0,0,0)" stroke="none">[</tspan></tspan></tspan></text>
         <text class="TextShape"><tspan class="TextParagraph" font-family="Liberation Serif, serif" font-size="422px" font-style="italic" font-weight="400"><tspan class="TextPosition" x="1515" y="20671"><tspan fill="rgb(0,0,0)" stroke="none">n</tspan></tspan></tspan></text>
         <text class="TextShape"><tspan class="TextParagraph" font-family="OpenSymbol" font-size="422px" font-weight="400"><tspan class="TextPosition" x="1779" y="20671"><tspan fill="rgb(0,0,0)" stroke="none">]</tspan></tspan></tspan></text>
        </g>
       </g>
      </g>
      <g class="com.sun.star.drawing.CustomShape">
       <g id="id8">
        <rect class="BoundingBox" stroke="none" fill="none" x="3290" y="17543" width="1042" height="1042"/>
        <path fill="none" stroke="rgb(0,0,0)" stroke-width="40" stroke-linejoin="round" d="M 3810,17563 C 4093,17563 4310,17780 4310,18063 4310,18346 4093,18563 3810,18563 3527,18563 3310,18346 3310,18063 3310,17780 3527,17563 3810,17563 Z"/>
       </g>
      </g>
      <g class="com.sun.star.drawing.LineShape">
       <g id="id9">
        <rect class="BoundingBox" stroke="none" fill="none" x="3634" y="18721" width="353" height="1219"/>
        <path fill="none" stroke="rgb(0,0,0)" stroke-width="35" stroke-linejoin="round" d="M 3810,19921 L 3810,19226"/>
        <path fill="rgb(0,0,0)" stroke="none" d="M 3810,18721 L 3634,19249 3986,19249 3810,18721 Z"/>
       </g>
      </g>
      <g class="OLE2">
       <g id="id10">
        <rect class="BoundingBox" stroke="none" fill="none" x="3510" y="17830" width="601" height="467"/>
        <defs>
         <clipPath id="clip_path_4" clipPathUnits="userSpaceOnUse">
          <path d="M 3519,17833 L 4101,17833 4101,18309 3519,18309 3519,17833 Z"/>
         </clipPath>
        </defs>
        <g clip-path="url(#clip_path_4)">
         <text class="TextShape"><tspan class="TextParagraph" font-family="OpenSymbol" font-size="422px" font-weight="400"><tspan class="TextPosition" x="3669" y="18200"><tspan fill="rgb(0,0,0)" stroke="none">×</tspan></tspan></tspan></text>
        </g>
       </g>
      </g>
      <g class="com.sun.star.drawing.LineShape">
       <g id="id11">
        <rect class="BoundingBox" stroke="none" fill="none" x="7350" y="17887" width="1219" height="353"/>
        <path fill="none" stroke="rgb(0,0,0)" stroke-width="35" stroke-linejoin="round" d="M 7368,18063 L 8063,18063"/>
        <path fill="rgb(0,0,0)" stroke="none" d="M 8568,18063 L 8040,17887 8040,18239 8568,18063 Z"/>
       </g>
      </g>
      <g class="com.sun.star.drawing.CustomShape">
       <g id="id12">
        <rect class="BoundingBox" stroke="none" fill="none" x="8657" y="17293" width="1541" height="1541"/>
        <path fill="none" stroke="rgb(0,0,0)" stroke-width="40" stroke-linejoin="round" d="M 9427,18813 L 8677,18813 8677,17313 10177,17313 10177,18813 9427,18813 Z"/>
       </g>
      </g>
      <g class="OLE2">
       <g id="id13">
        <rect class="BoundingBox" stroke="none" fill="none" x="8823" y="17830" width="1210" height="467"/>
        <defs>
         <clipPath id="clip_path_5" clipPathUnits="userSpaceOnUse">
          <path d="M 8810,17833 L 10027,17833 10027,18309 8810,18309 8810,17833 Z"/>
         </clipPath>
        </defs>
        <g clip-path="url(#clip_path_5)">
         <text class="TextShape"><tspan class="TextParagraph" font-family="OpenSymbol" font-size="422px" font-weight="400"><tspan class="TextPosition" x="8983" y="18200"><tspan fill="rgb(0,0,0)" stroke="none">≫</tspan></tspan></tspan></text>
         <text class="TextShape"><tspan class="TextParagraph" font-family="Liberation Serif, serif" font-size="422px" font-weight="400"><tspan class="TextPosition" x="9490" y="18200"><tspan fill="rgb(0,0,0)" stroke="none">15</tspan></tspan></tspan></text>
        </g>
       </g>
      </g>
      <g class="com.sun.star.drawing.LineShape">
       <g id="id14">
        <rect class="BoundingBox" stroke="none" fill="none" x="10250" y="17887" width="1219" height="353"/>
        <path fill="none" stroke="rgb(0,0,0)" stroke-width="35" stroke-linejoin="round" d="M 10268,18063 L 10963,18063"/>
        <path fill="rgb(0,0,0)" stroke="none" d="M 11468,18063 L 10940,17887 10940,18239 11468,18063 Z"/>
       </g>
      </g>
      <g class="OLE2">
       <g id="id15">
        <rect class="BoundingBox" stroke="none" fill="none" x="11411" y="17823" width="1027" height="481"/>
        <defs>
         <clipPath id="clip_path_6" clipPathUnits="userSpaceOnUse">
          <path d="M 11404,17833 L 12435,17833 12435,18309 11404,18309 11404,17833 Z"/>
         </clipPath>
        </defs>
        <g clip-path="url(#clip_path_6)">
         <text class="TextShape"><tspan class="TextParagraph" font-family="Liberation Serif, serif" font-size="422px" font-style="italic" font-weight="400"><tspan class="TextPosition" x="11570" y="18193"><tspan fill="rgb(0,0,0)" stroke="none">y</tspan></tspan></tspan></text>
         <text class="TextShape"><tspan class="TextParagraph" font-family="OpenSymbol" font-size="422px" font-weight="400"><tspan class="TextPosition" x="11808" y="18193"><tspan fill="rgb(0,0,0)" stroke="none">[</tspan></tspan></tspan></text>
         <text class="TextShape"><tspan class="TextParagraph" font-family="Liberation Serif, serif" font-size="422px" font-style="italic" font-weight="400"><tspan class="TextPosition" x="11967" y="18193"><tspan fill="rgb(0,0,0)" stroke="none">n</tspan></tspan></tspan></text>
         <text class="TextShape"><tspan class="TextParagraph" font-family="OpenSymbol" font-size="422px" font-weight="400"><tspan class="TextPosition" x="12231" y="18193"><tspan fill="rgb(0,0,0)" stroke="none">]</tspan></tspan></tspan></text>
        </g>
       </g>
      </g>
      <g class="com.sun.star.drawing.CustomShape">
       <g id="id16">
        <rect class="BoundingBox" stroke="none" fill="none" x="3290" y="20021" width="1042" height="1042"/>
        <path fill="none" stroke="rgb(0,0,0)" stroke-width="40" stroke-linejoin="round" d="M 3810,20041 C 4093,20041 4310,20258 4310,20541 4310,20824 4093,21041 3810,21041 3527,21041 3310,20824 3310,20541 3310,20258 3527,20041 3810,20041 Z"/>
       </g>
      </g>
      <g class="com.sun.star.drawing.LineShape">
       <g id="id17">
        <rect class="BoundingBox" stroke="none" fill="none" x="1982" y="20365" width="1219" height="353"/>
        <path fill="none" stroke="rgb(0,0,0)" stroke-width="35" stroke-linejoin="round" d="M 2000,20541 L 2695,20541"/>
        <path fill="rgb(0,0,0)" stroke="none" d="M 3200,20541 L 2672,20365 2672,20717 3200,20541 Z"/>
       </g>
      </g>
      <g class="com.sun.star.drawing.CustomShape">
       <g id="id18">
        <rect class="BoundingBox" stroke="none" fill="none" x="5651" y="17293" width="1541" height="1541"/>
        <path fill="none" stroke="rgb(0,0,0)" stroke-width="40" stroke-linejoin="round" d="M 6421,18813 L 5671,18813 5671,17313 7171,17313 7171,18813 6421,18813 Z"/>
       </g>
      </g>
      <g class="OLE2">
       <g id="id19">
        <rect class="BoundingBox" stroke="none" fill="none" x="5770" y="17823" width="1303" height="481"/>
        <defs>
         <clipPath id="clip_path_7" clipPathUnits="userSpaceOnUse">
          <path d="M 5768,17833 L 7064,17833 7064,18309 5768,18309 5768,17833 Z"/>
         </clipPath>
        </defs>
        <g clip-path="url(#clip_path_7)">
         <text class="TextShape"><tspan class="TextParagraph" font-family="OpenSymbol" font-size="422px" font-weight="400"><tspan class="TextPosition" x="5877" y="18193"><tspan fill="rgb(0,0,0)" stroke="none">⌊</tspan></tspan></tspan></text>
         <text class="TextShape"><tspan class="TextParagraph" font-family="Liberation Serif, serif" font-size="422px" font-style="italic" font-weight="400"><tspan class="TextPosition" x="6037" y="18193"><tspan fill="rgb(0,0,0)" stroke="none">g</tspan></tspan></tspan></text>
         <text class="TextShape"><tspan class="TextParagraph" font-family="OpenSymbol" font-size="422px" font-weight="400"><tspan class="TextPosition" x="6304" y="18193"><tspan fill="rgb(0,0,0)" stroke="none">[</tspan></tspan></tspan></text>
         <text class="TextShape"><tspan class="TextParagraph" font-family="Liberation Serif, serif" font-size="422px" font-style="italic" font-weight="400"><tspan class="TextPosition" x="6464" y="18193"><tspan fill="rgb(0,0,0)" stroke="none">n</tspan></tspan></tspan></text>
         <text class="TextShape"><tspan class="TextParagraph" font-family="OpenSymbol" font-size="422px" font-weight="400"><tspan class="TextPosition" x="6705" y="18193"><tspan fill="rgb(0,0,0)" stroke="none">]</tspan></tspan></tspan></text>
         <text class="TextShape"><tspan class="TextParagraph" font-family="OpenSymbol" font-size="422px" font-weight="400"><tspan class="TextPosition" x="6838" y="18193"><tspan fill="rgb(0,0,0)" stroke="none">⌋</tspan></tspan></tspan></text>
        </g>
       </g>
      </g>
      <g class="Group">
       <g class="com.sun.star.drawing.EllipseShape">
        <g id="id20">
         <rect class="BoundingBox" stroke="none" fill="none" x="3394" y="20186" width="416" height="395"/>
         <path fill="none" stroke="rgb(0,0,0)" stroke-width="40" stroke-linejoin="round" d="M 3414,20560 C 3414,20495 3422,20439 3439,20383 3456,20327 3478,20286 3508,20253 3538,20221 3567,20206 3602,20206 3636,20206 3665,20221 3695,20253 3725,20286 3747,20327 3764,20383 3781,20439 3789,20495 3789,20560 L 3789,20560"/>
        </g>
       </g>
       <g class="com.sun.star.drawing.EllipseShape">
        <g id="id21">
         <rect class="BoundingBox" stroke="none" fill="none" x="3769" y="20532" width="416" height="395"/>
         <path fill="none" stroke="rgb(0,0,0)" stroke-width="40" stroke-linejoin="round" d="M 4164,20552 C 4164,20617 4156,20673 4139,20729 4122,20785 4100,20826 4070,20859 4040,20891 4011,20906 3977,20906 3942,20906 3913,20891 3883,20859 3853,20826 3831,20785 3814,20729 3797,20673 3789,20617 3789,20552 L 3789,20552"/>
        </g>
       </g>
      </g>
     </g>
    </g>
   </g>
  </g>
 </g>
</svg>