<?xml version="1.0" encoding="UTF-8"?>
<!DOCTYPE svg PUBLIC "-//W3C//DTD SVG 1.1//EN" "http://www.w3.org/Graphics/SVG/1.1/DTD/svg11.dtd">
<svg version="1.2" width="91.79mm" height="91.69mm" viewBox="-79 20500 9179 9169" preserveAspectRatio="xMidYMid" fill-rule="evenodd" stroke-width="28.222" stroke-linejoin="round" xmlns="http://www.w3.org/2000/svg" xmlns:ooo="http://xml.openoffice.org/svg/export" xmlns:xlink="http://www.w3.org/1999/xlink" xmlns:presentation="http://sun.com/xmlns/staroffice/presentation" xmlns:smil="http://www.w3.org/2001/SMIL20/" xmlns:anim="urn:oasis:names:tc:opendocument:xmlns:animation:1.0" xml:space="preserve">
 <defs class="ClipPathGroup">
  <clipPath id="presentation_clip_path" clipPathUnits="userSpaceOnUse">
   <rect x="-79" y="20500" width="9179" height="9169"/>
  </clipPath>
  <clipPath id="presentation_clip_path_shrink" clipPathUnits="userSpaceOnUse">
   <rect x="-70" y="20509" width="9161" height="9151"/>
  </clipPath>
 </defs>
 <defs>
  <font id="EmbeddedFont_1" horiz-adv-x="2048">
   <font-face font-family="Liberation Sans embedded" units-per-em="2048" font-weight="normal" font-style="normal" ascent="1826" descent="423"/>
   <missing-glyph horiz-adv-x="2048" d="M 0,0 L 2047,0 2047,2047 0,2047 0,0 Z"/>
   <glyph unicode="x" horiz-adv-x="1006" d="M 801,0 L 510,444 217,0 23,0 408,556 41,1082 240,1082 510,661 778,1082 979,1082 612,558 1002,0 801,0 Z"/>
   <glyph unicode="t" horiz-adv-x="531" d="M 554,8 C 527,1 499,-5 471,-10 442,-14 409,-16 372,-16 228,-16 156,66 156,229 L 156,951 31,951 31,1082 163,1082 216,1324 336,1324 336,1082 536,1082 536,951 336,951 336,268 C 336,216 345,180 362,159 379,138 408,127 450,127 467,127 484,128 501,131 517,134 535,137 554,141 L 554,8 Z"/>
   <glyph unicode="p" horiz-adv-x="953" d="M 1053,546 C 1053,464 1046,388 1033,319 1020,250 998,190 967,140 936,90 895,51 844,23 793,-6 730,-20 655,-20 578,-20 510,-5 452,24 394,53 350,101 319,168 L 314,168 C 315,167 315,161 316,150 316,139 316,126 317,110 317,94 317,76 318,57 318,37 318,17 318,-2 L 318,-425 138,-425 138,861 C 138,887 138,912 138,936 137,960 137,982 136,1002 135,1021 135,1038 134,1052 133,1066 133,1076 132,1082 L 306,1082 C 307,1080 308,1073 309,1061 310,1049 311,1035 312,1018 313,1001 314,982 315,963 316,944 316,925 316,908 L 320,908 C 337,943 356,972 377,997 398,1021 423,1041 450,1057 477,1072 508,1084 542,1091 575,1098 613,1101 655,1101 730,1101 793,1088 844,1061 895,1034 936,997 967,949 998,900 1020,842 1033,774 1046,705 1053,629 1053,546 Z M 864,542 C 864,609 860,668 852,720 844,772 830,816 811,852 791,888 765,915 732,934 699,953 658,962 609,962 569,962 531,956 496,945 461,934 430,912 404,880 377,848 356,804 341,748 326,691 318,618 318,528 318,451 324,387 337,334 350,281 368,238 393,205 417,172 447,149 483,135 519,120 560,113 607,113 657,113 699,123 732,142 765,161 791,189 811,226 830,263 844,308 852,361 860,414 864,474 864,542 Z"/>
   <glyph unicode="o" horiz-adv-x="980" d="M 1053,542 C 1053,353 1011,212 928,119 845,26 724,-20 565,-20 490,-20 422,-9 363,14 304,37 254,71 213,118 172,165 140,223 119,294 97,364 86,447 86,542 86,915 248,1102 571,1102 655,1102 728,1090 789,1067 850,1044 900,1009 939,962 978,915 1006,857 1025,787 1044,717 1053,635 1053,542 Z M 864,542 C 864,626 858,695 845,750 832,805 813,848 788,881 763,914 732,937 696,950 660,963 619,969 574,969 528,969 487,962 450,949 413,935 381,912 355,879 329,846 309,802 296,747 282,692 275,624 275,542 275,458 282,389 297,334 312,279 332,235 358,202 383,169 414,146 449,133 484,120 522,113 563,113 609,113 651,120 688,133 725,146 757,168 783,201 809,234 829,278 843,333 857,388 864,458 864,542 Z"/>
   <glyph unicode="n" horiz-adv-x="874" d="M 825,0 L 825,686 C 825,739 821,783 814,818 806,853 793,882 776,904 759,925 736,941 708,950 679,959 644,963 602,963 559,963 521,956 487,941 452,926 423,904 399,876 374,847 355,812 342,771 329,729 322,681 322,627 L 322,0 142,0 142,851 C 142,874 142,898 142,923 141,948 141,971 140,994 139,1016 139,1035 138,1051 137,1067 137,1077 136,1082 L 306,1082 C 307,1079 307,1070 308,1055 309,1040 310,1024 311,1005 312,986 312,966 313,947 314,927 314,910 314,897 L 317,897 C 334,928 353,957 374,982 395,1007 419,1029 446,1047 473,1064 505,1078 540,1088 575,1097 616,1102 663,1102 723,1102 775,1095 818,1080 861,1065 897,1043 925,1012 953,981 974,942 987,894 1000,845 1006,788 1006,721 L 1006,0 825,0 Z"/>
   <glyph unicode="i" horiz-adv-x="187" d="M 137,1312 L 137,1484 317,1484 317,1312 137,1312 Z M 137,0 L 137,1082 317,1082 317,0 137,0 Z"/>
   <glyph unicode="e" horiz-adv-x="980" d="M 276,503 C 276,446 282,394 294,347 305,299 323,258 348,224 372,189 403,163 441,144 479,125 525,115 578,115 656,115 719,131 766,162 813,193 844,233 861,281 L 1019,236 C 1008,206 992,176 972,146 951,115 924,88 890,64 856,39 814,19 763,4 712,-12 650,-20 578,-20 418,-20 296,28 213,123 129,218 87,360 87,548 87,649 100,735 125,806 150,876 185,933 229,977 273,1021 324,1053 383,1073 442,1092 504,1102 571,1102 662,1102 738,1087 799,1058 860,1029 909,988 946,937 983,885 1009,824 1025,754 1040,684 1048,608 1048,527 L 1048,503 276,503 Z M 862,641 C 852,755 823,838 775,891 727,943 658,969 568,969 538,969 507,964 474,955 441,945 410,928 382,903 354,878 330,845 311,803 292,760 281,706 278,641 L 862,641 Z"/>
   <glyph unicode="b" horiz-adv-x="953" d="M 1053,546 C 1053,169 920,-20 655,-20 573,-20 505,-5 451,25 396,54 352,102 318,168 L 316,168 C 316,151 316,133 315,114 314,95 313,78 312,62 311,46 310,32 309,21 308,10 307,3 306,0 L 132,0 C 133,6 133,16 134,31 135,45 135,62 136,82 137,102 137,124 138,148 138,172 138,197 138,223 L 138,1484 318,1484 318,1061 C 318,1041 318,1022 318,1004 317,985 317,969 316,955 315,938 315,923 314,908 L 318,908 C 351,977 396,1027 451,1057 506,1087 574,1102 655,1102 792,1102 892,1056 957,964 1021,872 1053,733 1053,546 Z M 864,540 C 864,615 859,679 850,732 841,785 826,829 805,864 784,898 758,923 726,939 694,955 655,963 609,963 562,963 520,955 484,940 447,925 417,900 393,866 368,832 350,787 337,732 324,677 318,609 318,529 318,452 324,387 337,334 350,281 368,239 393,206 417,173 447,149 483,135 519,120 560,113 607,113 651,113 689,121 721,136 753,151 780,176 801,210 822,244 838,288 849,343 859,397 864,463 864,540 Z"/>
   <glyph unicode="a" horiz-adv-x="1060" d="M 414,-20 C 305,-20 224,9 169,66 114,123 87,202 87,302 87,373 101,432 128,478 155,523 190,559 234,585 277,611 327,629 383,639 439,649 496,655 554,656 L 797,660 797,719 C 797,764 792,802 783,833 774,864 759,890 740,909 721,928 697,943 668,952 639,961 604,965 565,965 530,965 499,963 471,958 443,953 419,944 398,931 377,918 361,900 348,878 335,855 327,827 323,793 L 135,810 C 142,853 154,892 173,928 192,963 218,994 253,1020 287,1046 330,1066 382,1081 433,1095 496,1102 569,1102 705,1102 807,1071 876,1009 945,946 979,856 979,738 L 979,272 C 979,219 986,179 1000,152 1014,125 1041,111 1080,111 1090,111 1100,112 1110,113 1120,114 1130,116 1139,118 L 1139,6 C 1116,1 1094,-3 1072,-6 1049,-9 1025,-10 1000,-10 966,-10 937,-5 913,4 888,13 868,26 853,45 838,63 826,86 818,113 810,140 805,171 803,207 L 797,207 C 778,172 757,141 734,113 711,85 684,61 653,42 622,22 588,7 549,-4 510,-15 465,-20 414,-20 Z M 455,115 C 512,115 563,126 606,147 649,168 684,194 713,227 741,260 762,295 776,334 790,373 797,410 797,445 L 797,534 600,530 C 556,529 514,526 475,521 435,515 400,504 370,487 340,470 316,447 299,417 281,387 272,348 272,299 272,240 288,195 320,163 351,131 396,115 455,115 Z"/>
   <glyph unicode="E" horiz-adv-x="1138" d="M 168,0 L 168,1409 1237,1409 1237,1253 359,1253 359,801 1177,801 1177,647 359,647 359,156 1278,156 1278,0 168,0 Z"/>
   <glyph unicode="=" horiz-adv-x="1033" d="M 100,856 L 100,1004 1095,1004 1095,856 100,856 Z M 100,344 L 100,492 1095,492 1095,344 100,344 Z"/>
   <glyph unicode="5" horiz-adv-x="980" d="M 1053,459 C 1053,388 1042,324 1021,265 1000,206 968,156 926,114 884,71 832,38 770,15 707,-8 635,-20 553,-20 479,-20 415,-11 360,6 305,23 258,47 220,78 182,108 152,143 130,184 107,225 91,268 82,315 L 264,336 C 271,309 282,284 295,259 308,234 327,211 350,192 373,172 401,156 435,145 468,133 509,127 557,127 604,127 646,134 684,149 722,163 755,184 782,212 809,240 829,274 844,315 859,356 866,402 866,455 866,498 859,538 845,575 831,611 811,642 785,669 759,695 727,715 690,730 652,745 609,752 561,752 531,752 503,749 478,744 453,739 429,731 408,722 386,713 366,702 349,690 331,677 314,664 299,651 L 123,651 170,1409 971,1409 971,1256 334,1256 307,809 C 339,834 379,855 427,873 475,890 532,899 598,899 668,899 731,888 787,867 843,846 891,816 930,777 969,738 1000,691 1021,637 1042,583 1053,524 1053,459 Z"/>
   <glyph unicode="4" horiz-adv-x="1060" d="M 881,319 L 881,0 711,0 711,319 47,319 47,459 692,1409 881,1409 881,461 1079,461 1079,319 881,319 Z M 711,1206 C 710,1203 706,1196 701,1187 696,1177 690,1166 683,1154 676,1142 670,1130 663,1118 656,1105 649,1095 644,1087 L 283,555 C 280,550 275,543 269,534 262,525 256,517 249,508 242,499 236,490 229,481 222,472 217,466 213,461 L 711,461 711,1206 Z"/>
   <glyph unicode="3" horiz-adv-x="1006" d="M 1049,389 C 1049,324 1039,267 1018,216 997,165 966,123 926,88 885,53 835,26 776,8 716,-11 648,-20 571,-20 484,-20 410,-9 351,13 291,34 242,63 203,99 164,134 135,175 116,221 97,266 84,313 78,362 L 264,379 C 269,342 279,308 294,277 308,246 327,220 352,198 377,176 407,159 443,147 479,135 522,129 571,129 662,129 733,151 785,196 836,241 862,307 862,395 862,447 851,489 828,521 805,552 776,577 742,595 707,612 670,624 630,630 589,636 552,639 518,639 L 416,639 416,795 514,795 C 548,795 583,799 620,806 657,813 690,825 721,844 751,862 776,887 796,918 815,949 825,989 825,1038 825,1113 803,1173 759,1217 714,1260 648,1282 561,1282 482,1282 418,1262 369,1221 320,1180 291,1123 283,1049 L 102,1063 C 109,1125 126,1179 153,1225 180,1271 214,1309 255,1340 296,1370 342,1393 395,1408 448,1423 504,1430 563,1430 642,1430 709,1420 766,1401 823,1381 869,1354 905,1321 941,1287 968,1247 985,1202 1002,1157 1010,1108 1010,1057 1010,1016 1004,977 993,941 982,905 964,873 940,844 916,815 886,791 849,770 812,749 767,734 715,723 L 715,719 C 772,713 821,700 863,681 905,661 940,636 967,607 994,578 1015,544 1029,507 1042,470 1049,430 1049,389 Z"/>
   <glyph unicode="2" horiz-adv-x="954" d="M 103,0 L 103,127 C 137,205 179,274 228,334 277,393 328,447 382,496 436,544 490,589 543,630 596,671 643,713 686,754 729,795 763,839 790,884 816,929 829,981 829,1038 829,1078 823,1113 811,1144 799,1174 782,1199 759,1220 736,1241 709,1256 678,1267 646,1277 611,1282 572,1282 536,1282 502,1277 471,1267 439,1257 411,1242 386,1222 361,1202 341,1177 326,1148 310,1118 300,1083 295,1044 L 111,1061 C 117,1112 131,1159 153,1204 175,1249 205,1288 244,1322 283,1355 329,1382 384,1401 438,1420 501,1430 572,1430 642,1430 704,1422 759,1405 814,1388 860,1364 898,1331 935,1298 964,1258 984,1210 1004,1162 1014,1107 1014,1044 1014,997 1006,952 989,909 972,866 949,826 921,787 892,748 859,711 822,675 785,639 746,604 705,570 664,535 623,501 582,468 541,434 502,400 466,366 429,332 397,298 368,263 339,228 317,191 301,153 L 1036,153 1036,0 103,0 Z"/>
   <glyph unicode="1" horiz-adv-x="927" d="M 156,0 L 156,153 515,153 515,1237 197,1010 197,1180 530,1409 696,1409 696,153 1039,153 1039,0 156,0 Z"/>
   <glyph unicode="0" horiz-adv-x="980" d="M 1059,705 C 1059,570 1046,456 1021,364 995,271 960,197 916,140 871,83 819,42 759,17 699,-8 635,-20 567,-20 498,-20 434,-8 375,17 316,42 264,82 221,139 177,196 143,270 118,363 93,455 80,569 80,705 80,847 93,965 118,1058 143,1151 177,1225 221,1280 265,1335 317,1374 377,1397 437,1419 502,1430 573,1430 640,1430 704,1419 763,1397 822,1374 873,1335 917,1280 961,1225 996,1151 1021,1058 1046,965 1059,847 1059,705 Z M 876,705 C 876,817 869,910 856,985 843,1059 823,1118 797,1163 771,1207 739,1238 702,1257 664,1275 621,1284 573,1284 522,1284 478,1275 439,1256 400,1237 368,1206 342,1162 315,1117 295,1058 282,984 269,909 262,816 262,705 262,597 269,506 283,432 296,358 316,299 343,254 369,209 401,176 439,157 477,137 520,127 569,127 616,127 659,137 697,157 735,176 767,209 794,254 820,299 840,358 855,432 869,506 876,597 876,705 Z"/>
   <glyph unicode="-" horiz-adv-x="531" d="M 91,464 L 91,624 591,624 591,464 91,464 Z"/>
   <glyph unicode=" " horiz-adv-x="556"/>
  </font>
 </defs>
 <defs class="TextShapeIndex">
  <g ooo:slide="id1" ooo:id-list="id3 id4 id5 id6"/>
 </defs>
 <defs class="EmbeddedBulletChars">
  <g id="bullet-char-template(57356)" transform="scale(0.00048828125,-0.00048828125)">
   <path d="M 580,1141 L 1163,571 580,0 -4,571 580,1141 Z"/>
  </g>
  <g id="bullet-char-template(57354)" transform="scale(0.00048828125,-0.00048828125)">
   <path d="M 8,1128 L 1137,1128 1137,0 8,0 8,1128 Z"/>
  </g>
  <g id="bullet-char-template(10146)" transform="scale(0.00048828125,-0.00048828125)">
   <path d="M 174,0 L 602,739 174,1481 1456,739 174,0 Z M 1358,739 L 309,1346 659,739 1358,739 Z"/>
  </g>
  <g id="bullet-char-template(10132)" transform="scale(0.00048828125,-0.00048828125)">
   <path d="M 2015,739 L 1276,0 717,0 1260,543 174,543 174,936 1260,936 717,1481 1274,1481 2015,739 Z"/>
  </g>
  <g id="bullet-char-template(10007)" transform="scale(0.00048828125,-0.00048828125)">
   <path d="M 0,-2 C -7,14 -16,27 -25,37 L 356,567 C 262,823 215,952 215,954 215,979 228,992 255,992 264,992 276,990 289,987 310,991 331,999 354,1012 L 381,999 492,748 772,1049 836,1024 860,1049 C 881,1039 901,1025 922,1006 886,937 835,863 770,784 769,783 710,716 594,584 L 774,223 C 774,196 753,168 711,139 L 727,119 C 717,90 699,76 672,76 641,76 570,178 457,381 L 164,-76 C 142,-110 111,-127 72,-127 30,-127 9,-110 8,-76 1,-67 -2,-52 -2,-32 -2,-23 -1,-13 0,-2 Z"/>
  </g>
  <g id="bullet-char-template(10004)" transform="scale(0.00048828125,-0.00048828125)">
   <path d="M 285,-33 C 182,-33 111,30 74,156 52,228 41,333 41,471 41,549 55,616 82,672 116,743 169,778 240,778 293,778 328,747 346,684 L 369,508 C 377,444 397,411 428,410 L 1163,1116 C 1174,1127 1196,1133 1229,1133 1271,1133 1292,1118 1292,1087 L 1292,965 C 1292,929 1282,901 1262,881 L 442,47 C 390,-6 338,-33 285,-33 Z"/>
  </g>
  <g id="bullet-char-template(9679)" transform="scale(0.00048828125,-0.00048828125)">
   <path d="M 813,0 C 632,0 489,54 383,161 276,268 223,411 223,592 223,773 276,916 383,1023 489,1130 632,1184 813,1184 992,1184 1136,1130 1245,1023 1353,916 1407,772 1407,592 1407,412 1353,268 1245,161 1136,54 992,0 813,0 Z"/>
  </g>
  <g id="bullet-char-template(8226)" transform="scale(0.00048828125,-0.00048828125)">
   <path d="M 346,457 C 273,457 209,483 155,535 101,586 74,649 74,723 74,796 101,859 155,911 209,963 273,989 346,989 419,989 480,963 531,910 582,859 608,796 608,723 608,648 583,586 532,535 482,483 420,457 346,457 Z"/>
  </g>
  <g id="bullet-char-template(8211)" transform="scale(0.00048828125,-0.00048828125)">
   <path d="M -4,459 L 1135,459 1135,606 -4,606 -4,459 Z"/>
  </g>
  <g id="bullet-char-template(61548)" transform="scale(0.00048828125,-0.00048828125)">
   <path d="M 173,740 C 173,903 231,1043 346,1159 462,1274 601,1332 765,1332 928,1332 1067,1274 1183,1159 1299,1043 1357,903 1357,740 1357,577 1299,437 1183,322 1067,206 928,148 765,148 601,148 462,206 346,322 231,437 173,577 173,740 Z"/>
  </g>
 </defs>
 <defs class="TextEmbeddedBitmaps"/>
 <g class="SlideGroup">
  <g>
   <g id="container-id1">
    <g id="id1" class="Slide" clip-path="url(#presentation_clip_path)">
     <g class="Page">
      <g class="OLE2">
       <g id="id3">
        <rect class="BoundingBox" stroke="none" fill="none" x="-79" y="20669" width="9001" height="9001"/>
        <defs>
         <clipPath id="clip_path_1" clipPathUnits="userSpaceOnUse">
          <path d="M -79,20664 L 8916,20664 8916,29660 -79,29660 -79,20664 Z"/>
         </clipPath>
        </defs>
        <g clip-path="url(#clip_path_1)"/>
        <defs>
         <clipPath id="clip_path_2" clipPathUnits="userSpaceOnUse">
          <path d="M -79,20664 L 8916,20664 8916,29660 -79,29660 -79,20664 Z"/>
         </clipPath>
        </defs>
        <g clip-path="url(#clip_path_2)">
         <path fill="rgb(255,255,255)" stroke="none" d="M 4422,29670 L -79,29670 -79,20669 8922,20669 8922,29670 4422,29670 Z"/>
         <path fill="none" stroke="rgb(179,179,179)" d="M 4927,28389 L 1206,28389 1206,21022 8647,21022 8647,28389 4927,28389 Z"/>
         <path fill="none" stroke="rgb(179,179,179)" d="M 1206,21020 L 1206,28388"/>
         <path fill="none" stroke="rgb(179,179,179)" d="M 2446,21020 L 2446,28388"/>
         <path fill="none" stroke="rgb(179,179,179)" d="M 3686,21020 L 3686,28388"/>
         <path fill="none" stroke="rgb(179,179,179)" d="M 4926,21020 L 4926,28388"/>
         <path fill="none" stroke="rgb(179,179,179)" d="M 6166,21020 L 6166,28388"/>
         <path fill="none" stroke="rgb(179,179,179)" d="M 7406,21020 L 7406,28388"/>
         <path fill="none" stroke="rgb(179,179,179)" d="M 8647,21020 L 8647,28388"/>
         <path fill="none" stroke="rgb(179,179,179)" d="M 8647,28388 L 1206,28388"/>
         <path fill="none" stroke="rgb(179,179,179)" d="M 8647,27160 L 1206,27160"/>
         <path fill="none" stroke="rgb(179,179,179)" d="M 8647,25932 L 1206,25932"/>
         <path fill="none" stroke="rgb(179,179,179)" d="M 8647,24704 L 1206,24704"/>
         <path fill="none" stroke="rgb(179,179,179)" d="M 8647,23476 L 1206,23476"/>
         <path fill="none" stroke="rgb(179,179,179)" d="M 8647,22248 L 1206,22248"/>
         <path fill="none" stroke="rgb(179,179,179)" d="M 8647,21020 L 1206,21020"/>
         <path fill="none" stroke="rgb(179,179,179)" d="M 1206,27310 L 1206,27010"/>
         <path fill="none" stroke="rgb(179,179,179)" d="M 1206,27310 L 1206,27010"/>
         <path fill="none" stroke="rgb(179,179,179)" d="M 2446,27310 L 2446,27010"/>
         <path fill="none" stroke="rgb(179,179,179)" d="M 2446,27310 L 2446,27010"/>
         <path fill="none" stroke="rgb(179,179,179)" d="M 3686,27310 L 3686,27010"/>
         <path fill="none" stroke="rgb(179,179,179)" d="M 3686,27310 L 3686,27010"/>
         <path fill="none" stroke="rgb(179,179,179)" d="M 4926,27310 L 4926,27010"/>
         <path fill="none" stroke="rgb(179,179,179)" d="M 4926,27310 L 4926,27010"/>
         <path fill="none" stroke="rgb(179,179,179)" d="M 6166,27310 L 6166,27010"/>
         <path fill="none" stroke="rgb(179,179,179)" d="M 6166,27310 L 6166,27010"/>
         <path fill="none" stroke="rgb(179,179,179)" d="M 7406,27310 L 7406,27010"/>
         <path fill="none" stroke="rgb(179,179,179)" d="M 7406,27310 L 7406,27010"/>
         <path fill="none" stroke="rgb(179,179,179)" d="M 8647,27310 L 8647,27010"/>
         <path fill="none" stroke="rgb(179,179,179)" d="M 8647,27310 L 8647,27010"/>
         <path fill="none" stroke="rgb(179,179,179)" d="M 1206,27160 L 8647,27160"/>
         <path fill="none" stroke="rgb(179,179,179)" d="M 4776,28388 L 4926,28388"/>
         <path fill="none" stroke="rgb(179,179,179)" d="M 4776,28388 L 4926,28388"/>
         <path fill="none" stroke="rgb(179,179,179)" d="M 4776,27160 L 4926,27160"/>
         <path fill="none" stroke="rgb(179,179,179)" d="M 4776,27160 L 4926,27160"/>
         <path fill="none" stroke="rgb(179,179,179)" d="M 4776,25932 L 4926,25932"/>
         <path fill="none" stroke="rgb(179,179,179)" d="M 4776,25932 L 4926,25932"/>
         <path fill="none" stroke="rgb(179,179,179)" d="M 4776,24704 L 4926,24704"/>
         <path fill="none" stroke="rgb(179,179,179)" d="M 4776,24704 L 4926,24704"/>
         <path fill="none" stroke="rgb(179,179,179)" d="M 4776,23476 L 4926,23476"/>
         <path fill="none" stroke="rgb(179,179,179)" d="M 4776,23476 L 4926,23476"/>
         <path fill="none" stroke="rgb(179,179,179)" d="M 4776,22248 L 4926,22248"/>
         <path fill="none" stroke="rgb(179,179,179)" d="M 4776,22248 L 4926,22248"/>
         <path fill="none" stroke="rgb(179,179,179)" d="M 4776,21020 L 4926,21020"/>
         <path fill="none" stroke="rgb(179,179,179)" d="M 4776,21020 L 4926,21020"/>
         <path fill="none" stroke="rgb(179,179,179)" d="M 4926,28388 L 4926,21020"/>
         <path fill="none" stroke="rgb(0,168,0)" stroke-width="80" stroke-linejoin="round" d="M 1206,27158 L 1212,27158 1218,27158 1224,27158 1230,27158 1237,27158 1243,27158 1249,27158 1255,27158 1261,27158 1268,27158 1274,27158 1280,27158 1286,27158 1292,27158 1299,27158 1305,27158 1311,27158 1317,27158 1323,27158 1330,27158 1336,27158 1342,27158 1348,27158 1354,27158 1361,27158 1367,27158 1373,27158 1379,27158 1385,27158 1392,27158 1398,27158 1404,27158 1410,27158 1416,27158 1423,27158 1429,27158 1435,27158 1441,27158 1447,27158 1454,27158 1460,27158 1466,27158 1472,27158 1478,27158 1485,27158 1491,27158 1497,27158 1503,27158 1509,27158 1516,27157 1522,27157 1528,27157 1534,27157 1540,27157 1547,27157 1553,27157 1559,27157 1565,27157 1571,27157 1578,27157 1584,27157 1590,27157 1596,27157 1602,27157 1609,27157 1615,27157 1621,27157 1627,27157 1633,27157 1640,27157 1646,27157 1652,27157 1658,27157 1664,27157 1671,27157 1677,27157 1683,27157 1689,27157 1695,27157 1702,27157 1708,27157 1714,27157 1720,27156 1726,27156 1733,27156 1739,27156 1745,27156 1751,27156 1757,27156 1764,27156 1770,27156 1776,27156 1782,27156 1788,27156 1795,27156 1801,27156 1807,27156 1813,27156 1819,27156 1826,27156 1832,27156 1838,27156 1844,27156 1850,27156 1857,27156 1863,27156 1869,27155 1875,27155 1881,27155 1888,27155 1894,27155 1900,27155 1906,27155 1912,27155 1919,27155 1925,27155 1931,27155 1937,27155 1943,27155 1950,27155 1956,27155 1962,27155 1968,27155 1974,27155 1981,27154 1987,27154 1993,27154 1999,27154 2005,27154 2012,27154 2018,27154 2024,27154 2030,27154 2036,27154 2043,27154 2049,27154 2055,27154 2061,27154 2067,27154 2074,27154 2080,27153 2086,27153 2092,27153 2098,27153 2105,27153 2111,27153 2117,27153 2123,27153 2129,27153 2136,27153 2142,27153 2148,27153 2154,27153 2160,27152 2167,27152 2173,27152 2179,27152 2185,27152 2191,27152 2198,27152 2204,27152 2210,27152 2216,27152 2222,27152 2229,27151 2235,27151 2241,27151 2247,27151 2253,27151 2260,27151 2266,27151 2272,27151 2278,27151 2284,27151 2291,27150 2297,27150 2303,27150 2309,27150 2315,27150 2322,27150 2328,27150 2334,27150 2340,27150 2346,27149 2353,27149 2359,27149 2365,27149 2371,27149 2377,27149 2384,27149 2390,27149 2396,27148 2402,27148 2408,27148 2415,27148 2421,27148 2427,27148 2433,27148 2439,27148 2446,27147 2452,27147 2458,27147 2464,27147 2470,27147 2477,27147 2483,27147 2489,27146 2495,27146 2501,27146 2508,27146 2514,27146 2520,27146 2526,27145 2532,27145 2539,27145 2545,27145 2551,27145 2557,27145 2563,27144 2570,27144 2576,27144 2582,27144 2588,27144 2594,27143 2601,27143 2607,27143 2613,27143 2619,27143 2625,27143 2632,27142 2638,27142 2644,27142 2650,27142 2656,27142 2663,27141 2669,27141 2675,27141 2681,27141 2687,27140 2694,27140 2700,27140 2706,27140 2712,27140 2719,27139 2725,27139 2731,27139 2737,27139 2743,27138 2750,27138 2756,27138 2762,27138 2768,27137 2774,27137 2781,27137 2787,27137 2793,27136 2799,27136 2805,27136 2812,27135 2818,27135 2824,27135 2830,27135 2836,27134 2843,27134 2849,27134 2855,27133 2861,27133 2867,27133 2874,27132 2880,27132 2886,27132 2892,27132 2898,27131 2905,27131 2911,27131 2917,27130 2923,27130 2929,27130 2936,27129 2942,27129 2948,27128 2954,27128 2960,27128 2967,27127 2973,27127 2979,27127 2985,27126 2991,27126 2998,27125 3004,27125 3010,27125 3016,27124 3022,27124 3029,27123 3035,27123 3041,27123 3047,27122 3053,27122 3060,27121 3066,27121 3072,27120 3078,27120 3084,27119 3091,27119 3097,27119 3103,27118 3109,27118 3115,27117 3122,27117 3128,27116 3134,27116 3140,27115 3146,27115 3153,27114 3159,27114 3165,27113 3171,27112 3177,27112 3184,27111 3190,27111 3196,27110 3202,27110 3208,27109 3215,27108 3221,27108 3227,27107 3233,27107 3239,27106 3246,27105 3252,27105 3258,27104 3264,27104 3270,27103 3277,27102 3283,27102 3289,27101 3295,27100 3301,27100 3308,27099 3314,27098 3320,27097 3326,27097 3332,27096 3339,27095 3345,27094 3351,27094 3357,27093 3363,27092 3370,27091 3376,27091 3382,27090 3388,27089 3394,27088 3401,27087 3407,27087 3413,27086 3419,27085 3425,27084 3432,27083 3438,27082 3444,27081 3450,27080 3456,27079 3463,27079 3469,27078 3475,27077 3481,27076 3487,27075 3494,27074 3500,27073 3506,27072 3512,27071 3518,27070 3525,27069 3531,27068 3537,27067 3543,27065 3549,27064 3556,27063 3562,27062 3568,27061 3574,27060 3580,27059 3587,27058 3593,27056 3599,27055 3605,27054 3611,27053 3618,27051 3624,27050 3630,27049 3636,27048 3642,27046 3649,27045 3655,27044 3661,27042 3667,27041 3673,27040 3680,27038 3686,27037 3692,27035 3698,27034 3704,27033 3711,27031 3717,27030 3723,27028 3729,27027 3735,27025 3742,27023 3748,27022 3754,27020 3760,27019 3766,27017 3773,27015 3779,27014 3785,27012 3791,27010 3797,27009 3804,27007 3810,27005 3816,27003 3822,27001 3828,27000 3835,26998 3841,26996 3847,26994 3853,26992 3859,26990 3866,26988 3872,26986 3878,26984 3884,26982 3890,26980 3897,26978 3903,26976 3909,26974 3915,26972 3921,26969 3928,26967 3934,26965 3940,26963 3946,26961 3952,26958 3959,26956 3965,26954 3971,26951 3977,26949 3983,26946 3990,26944 3996,26941 4002,26939 4008,26936 4014,26934 4021,26931 4027,26928 4033,26926 4039,26923 4045,26920 4052,26917 4058,26915 4064,26912 4070,26909 4076,26906 4083,26903 4089,26900 4095,26897 4101,26894 4107,26891 4114,26888 4120,26885 4126,26882 4132,26878 4138,26875 4145,26872 4151,26869 4157,26865 4163,26862 4169,26858 4176,26855 4182,26851 4188,26848 4194,26844 4201,26840 4207,26837 4213,26833 4219,26829 4225,26825 4232,26821 4238,26818 4244,26814 4250,26810 4256,26806 4263,26801 4269,26797 4275,26793 4281,26789 4287,26785 4294,26780 4300,26776 4306,26771 4312,26767 4318,26762 4325,26758 4331,26753 4337,26748 4343,26744 4349,26739 4356,26734 4362,26729 4368,26724 4374,26719 4380,26714 4387,26709 4393,26703 4399,26698 4405,26693 4411,26687 4418,26682 4424,26676 4430,26671 4436,26665 4442,26659 4449,26654 4455,26648 4461,26642 4467,26636 4473,26630 4480,26624 4486,26617 4492,26611 4498,26605 4504,26598 4511,26592 4517,26585 4523,26579 4529,26572 4535,26565 4542,26558 4548,26551 4554,26544 4560,26537 4566,26530 4573,26523 4579,26515 4585,26508 4591,26500 4597,26493 4604,26485 4610,26477 4616,26469 4622,26461 4628,26453 4635,26445 4641,26437 4647,26428 4653,26420 4659,26411 4666,26403 4672,26394 4678,26385 4684,26376 4690,26367 4697,26358 4703,26348 4709,26339 4715,26330 4721,26320 4728,26310 4734,26300 4740,26290 4746,26280 4752,26270 4759,26260 4765,26249 4771,26239 4777,26228 4783,26217 4790,26207 4796,26196 4802,26184 4808,26173 4814,26162 4821,26150 4827,26138 4833,26127 4839,26115 4845,26103 4852,26090 4858,26078 4864,26065 4870,26053 4876,26040 4883,26027 4889,26014 4895,26001 4901,25987 4907,25974 4914,25960 4920,25946 4926,25932 4932,25918 4938,25903 4945,25889 4951,25874 4957,25859 4963,25844 4969,25829 4976,25813 4982,25798 4988,25782 4994,25766 5000,25750 5007,25734 5013,25717 5019,25700 5025,25683 5031,25666 5038,25649 5044,25632 5050,25614 5056,25596 5062,25578 5069,25560 5075,25541 5081,25522 5087,25503 5093,25484 5100,25465 5106,25445 5112,25425 5118,25405 5124,25385 5131,25364 5137,25344 5143,25323 5149,25301 5155,25280 5162,25258 5168,25236 5174,25214 5180,25191 5186,25168 5193,25145 5199,25122 5205,25098 5211,25075 5217,25050 5224,25026 5230,25001 5236,24976 5242,24951 5248,24925 5255,24900 5261,24873 5267,24847 5273,24820 5279,24793 5286,24766 5292,24738 5298,24710 5304,24681 5310,24653 5317,24624 5323,24594 5329,24565 5335,24535 5341,24504 5348,24473 5354,24442 5360,24411 5366,24379 5372,24347 5379,24314 5385,24281 5391,24248 5397,24214 5403,24180 5410,24146 5416,24111 5422,24075 5428,24040 5434,24004 5441,23967 5447,23930 5453,23893 5459,23855 5465,23817 5472,23778 5478,23739 5484,23699 5490,23659 5496,23619 5503,23578 5509,23536 5515,23494 5521,23452 5527,23409 5534,23365 5540,23321 5546,23277 5552,23232 5558,23186 5565,23140 5571,23094 5577,23047 5583,22999 5589,22951 5596,22902 5602,22853 5608,22803 5614,22753 5620,22702 5627,22650 5633,22598 5639,22545 5645,22492 5651,22438 5658,22383 5664,22328 5670,22272 5676,22215 5683,22158 5689,22100 5695,22041 5701,21982 5707,21922 5714,21861 5720,21800 5726,21738 5732,21675 5738,21612 5745,21547 5751,21482 5757,21417 5763,21350 5769,21283 5776,21215 5782,21146 5788,21076 5793,21020"/>
         <path fill="none" stroke="rgb(210,43,43)" stroke-width="80" stroke-linejoin="round" d="M 1206,27099 L 1212,27098 1218,27098 1224,27098 1230,27097 1237,27097 1243,27097 1249,27096 1255,27096 1261,27096 1268,27095 1274,27095 1280,27095 1286,27094 1292,27094 1299,27094 1305,27093 1311,27093 1317,27093 1323,27092 1330,27092 1336,27092 1342,27091 1348,27091 1354,27091 1361,27090 1367,27090 1373,27090 1379,27089 1385,27089 1392,27089 1398,27088 1404,27088 1410,27088 1416,27087 1423,27087 1429,27086 1435,27086 1441,27086 1447,27085 1454,27085 1460,27085 1466,27084 1472,27084 1478,27083 1485,27083 1491,27083 1497,27082 1503,27082 1509,27082 1516,27081 1522,27081 1528,27080 1534,27080 1540,27080 1547,27079 1553,27079 1559,27078 1565,27078 1571,27078 1578,27077 1584,27077 1590,27076 1596,27076 1602,27075 1609,27075 1615,27075 1621,27074 1627,27074 1633,27073 1640,27073 1646,27072 1652,27072 1658,27072 1664,27071 1671,27071 1677,27070 1683,27070 1689,27069 1695,27069 1702,27068 1708,27068 1714,27068 1720,27067 1726,27067 1733,27066 1739,27066 1745,27065 1751,27065 1757,27064 1764,27064 1770,27063 1776,27063 1782,27062 1788,27062 1795,27061 1801,27061 1807,27060 1813,27060 1819,27059 1826,27059 1832,27058 1838,27058 1844,27057 1850,27057 1857,27056 1863,27056 1869,27055 1875,27055 1881,27054 1888,27054 1894,27053 1900,27053 1906,27052 1912,27052 1919,27051 1925,27050 1931,27050 1937,27049 1943,27049 1950,27048 1956,27048 1962,27047 1968,27047 1974,27046 1981,27045 1987,27045 1993,27044 1999,27044 2005,27043 2012,27043 2018,27042 2024,27041 2030,27041 2036,27040 2043,27040 2049,27039 2055,27038 2061,27038 2067,27037 2074,27037 2080,27036 2086,27035 2092,27035 2098,27034 2105,27033 2111,27033 2117,27032 2123,27032 2129,27031 2136,27030 2142,27030 2148,27029 2154,27028 2160,27028 2167,27027 2173,27026 2179,27026 2185,27025 2191,27024 2198,27024 2204,27023 2210,27022 2216,27022 2222,27021 2229,27020 2235,27019 2241,27019 2247,27018 2253,27017 2260,27017 2266,27016 2272,27015 2278,27014 2284,27014 2291,27013 2297,27012 2303,27012 2309,27011 2315,27010 2322,27009 2328,27009 2334,27008 2340,27007 2346,27006 2353,27006 2359,27005 2365,27004 2371,27003 2377,27002 2384,27002 2390,27001 2396,27000 2402,26999 2408,26998 2415,26998 2421,26997 2427,26996 2433,26995 2439,26994 2446,26993 2452,26993 2458,26992 2464,26991 2470,26990 2477,26989 2483,26988 2489,26988 2495,26987 2501,26986 2508,26985 2514,26984 2520,26983 2526,26982 2532,26981 2539,26981 2545,26980 2551,26979 2557,26978 2563,26977 2570,26976 2576,26975 2582,26974 2588,26973 2594,26972 2601,26971 2607,26970 2613,26969 2619,26969 2625,26968 2632,26967 2638,26966 2644,26965 2650,26964 2656,26963 2663,26962 2669,26961 2675,26960 2681,26959 2687,26958 2694,26957 2700,26956 2706,26955 2712,26954 2719,26953 2725,26952 2731,26951 2737,26949 2743,26948 2750,26947 2756,26946 2762,26945 2768,26944 2774,26943 2781,26942 2787,26941 2793,26940 2799,26939 2805,26938 2812,26936 2818,26935 2824,26934 2830,26933 2836,26932 2843,26931 2849,26930 2855,26929 2861,26927 2867,26926 2874,26925 2880,26924 2886,26923 2892,26921 2898,26920 2905,26919 2911,26918 2917,26917 2923,26915 2929,26914 2936,26913 2942,26912 2948,26911 2954,26909 2960,26908 2967,26907 2973,26905 2979,26904 2985,26903 2991,26902 2998,26900 3004,26899 3010,26898 3016,26896 3022,26895 3029,26894 3035,26892 3041,26891 3047,26890 3053,26888 3060,26887 3066,26886 3072,26884 3078,26883 3084,26882 3091,26880 3097,26879 3103,26877 3109,26876 3115,26875 3122,26873 3128,26872 3134,26870 3140,26869 3146,26867 3153,26866 3159,26864 3165,26863 3171,26861 3177,26860 3184,26858 3190,26857 3196,26855 3202,26854 3208,26852 3215,26851 3221,26849 3227,26848 3233,26846 3239,26845 3246,26843 3252,26841 3258,26840 3264,26838 3270,26837 3277,26835 3283,26833 3289,26832 3295,26830 3301,26828 3308,26827 3314,26825 3320,26823 3326,26822 3332,26820 3339,26818 3345,26817 3351,26815 3357,26813 3363,26811 3370,26810 3376,26808 3382,26806 3388,26804 3394,26803 3401,26801 3407,26799 3413,26797 3419,26795 3425,26794 3432,26792 3438,26790 3444,26788 3450,26786 3456,26784 3463,26782 3469,26780 3475,26779 3481,26777 3487,26775 3494,26773 3500,26771 3506,26769 3512,26767 3518,26765 3525,26763 3531,26761 3537,26759 3543,26757 3549,26755 3556,26753 3562,26751 3568,26749 3574,26747 3580,26745 3587,26743 3593,26741 3599,26739 3605,26736 3611,26734 3618,26732 3624,26730 3630,26728 3636,26726 3642,26724 3649,26721 3655,26719 3661,26717 3667,26715 3673,26712 3680,26710 3686,26708 3692,26706 3698,26703 3704,26701 3711,26699 3717,26697 3723,26694 3729,26692 3735,26690 3742,26687 3748,26685 3754,26682 3760,26680 3766,26678 3773,26675 3779,26673 3785,26670 3791,26668 3797,26665 3804,26663 3810,26660 3816,26658 3822,26655 3828,26653 3835,26650 3841,26648 3847,26645 3853,26643 3859,26640 3866,26637 3872,26635 3878,26632 3884,26630 3890,26627 3897,26624 3903,26622 3909,26619 3915,26616 3921,26613 3928,26611 3934,26608 3940,26605 3946,26602 3952,26600 3959,26597 3965,26594 3971,26591 3977,26588 3983,26585 3990,26583 3996,26580 4002,26577 4008,26574 4014,26571 4021,26568 4027,26565 4033,26562 4039,26559 4045,26556 4052,26553 4058,26550 4064,26547 4070,26544 4076,26541 4083,26538 4089,26535 4095,26531 4101,26528 4107,26525 4114,26522 4120,26519 4126,26515 4132,26512 4138,26509 4145,26506 4151,26502 4157,26499 4163,26496 4169,26493 4176,26489 4182,26486 4188,26482 4194,26479 4201,26476 4207,26472 4213,26469 4219,26465 4225,26462 4232,26458 4238,26455 4244,26451 4250,26448 4256,26444 4263,26441 4269,26437 4275,26433 4281,26430 4287,26426 4294,26422 4300,26419 4306,26415 4312,26411 4318,26407 4325,26404 4331,26400 4337,26396 4343,26392 4349,26388 4356,26385 4362,26381 4368,26377 4374,26373 4380,26369 4387,26365 4393,26361 4399,26357 4405,26353 4411,26349 4418,26345 4424,26341 4430,26337 4436,26332 4442,26328 4449,26324 4455,26320 4461,26316 4467,26312 4473,26307 4480,26303 4486,26299 4492,26294 4498,26290 4504,26286 4511,26281 4517,26277 4523,26273 4529,26268 4535,26264 4542,26259 4548,26255 4554,26250 4560,26246 4566,26241 4573,26236 4579,26232 4585,26227 4591,26222 4597,26218 4604,26213 4610,26208 4616,26203 4622,26199 4628,26194 4635,26189 4641,26184 4647,26179 4653,26174 4659,26169 4666,26164 4672,26159 4678,26154 4684,26149 4690,26144 4697,26139 4703,26134 4709,26129 4715,26124 4721,26119 4728,26113 4734,26108 4740,26103 4746,26098 4752,26092 4759,26087 4765,26082 4771,26076 4777,26071 4783,26065 4790,26060 4796,26054 4802,26049 4808,26043 4814,26038 4821,26032 4827,26026 4833,26021 4839,26015 4845,26009 4852,26003 4858,25998 4864,25992 4870,25986 4876,25980 4883,25974 4889,25968 4895,25962 4901,25956 4907,25950 4914,25944 4920,25938 4926,25932 4932,25926 4938,25919 4945,25913 4951,25907 4957,25901 4963,25894 4969,25888 4976,25882 4982,25875 4988,25869 4994,25862 5000,25856 5007,25849 5013,25843 5019,25836 5025,25830 5031,25823 5038,25816 5044,25809 5050,25803 5056,25796 5062,25789 5069,25782 5075,25775 5081,25768 5087,25761 5093,25754 5100,25747 5106,25740 5112,25733 5118,25726 5124,25719 5131,25712 5137,25704 5143,25697 5149,25690 5155,25682 5162,25675 5168,25667 5174,25660 5180,25652 5186,25645 5193,25637 5199,25630 5205,25622 5211,25614 5217,25607 5224,25599 5230,25591 5236,25583 5242,25575 5248,25567 5255,25559 5261,25551 5267,25543 5273,25535 5279,25527 5286,25519 5292,25511 5298,25502 5304,25494 5310,25486 5317,25477 5323,25469 5329,25460 5335,25452 5341,25443 5348,25435 5354,25426 5360,25417 5366,25409 5372,25400 5379,25391 5385,25382 5391,25373 5397,25364 5403,25355 5410,25346 5416,25337 5422,25328 5428,25319 5434,25310 5441,25300 5447,25291 5453,25282 5459,25272 5465,25263 5472,25253 5478,25244 5484,25234 5490,25224 5496,25215 5503,25205 5509,25195 5515,25185 5521,25175 5527,25165 5534,25155 5540,25145 5546,25135 5552,25125 5558,25115 5565,25105 5571,25094 5577,25084 5583,25074 5589,25063 5596,25053 5602,25042 5608,25032 5614,25021 5620,25010 5627,24999 5633,24989 5639,24978 5645,24967 5651,24956 5658,24945 5664,24934 5670,24922 5676,24911 5683,24900 5689,24889 5695,24877 5701,24866 5707,24854 5714,24843 5720,24831 5726,24819 5732,24808 5738,24796 5745,24784 5751,24772 5757,24760 5763,24748 5769,24736 5776,24724 5782,24712 5788,24699 5794,24687 5800,24675 5807,24662 5813,24650 5819,24637 5825,24625 5831,24612 5838,24599 5844,24586 5850,24573 5856,24560 5862,24547 5869,24534 5875,24521 5881,24508 5887,24495 5893,24481 5900,24468 5906,24454 5912,24441 5918,24427 5924,24413 5931,24400 5937,24386 5943,24372 5949,24358 5955,24344 5962,24330 5968,24316 5974,24301 5980,24287 5986,24273 5993,24258 5999,24244 6005,24229 6011,24214 6017,24199 6024,24185 6030,24170 6036,24155 6042,24140 6048,24125 6055,24109 6061,24094 6067,24079 6073,24063 6079,24048 6086,24032 6092,24016 6098,24001 6104,23985 6110,23969 6117,23953 6123,23937 6129,23921 6135,23904 6141,23888 6148,23872 6154,23855 6160,23839 6166,23822 6172,23805 6179,23789 6185,23772 6191,23755 6197,23738 6203,23720 6210,23703 6216,23686 6222,23668 6228,23651 6234,23633 6241,23616 6247,23598 6253,23580 6259,23562 6265,23544 6272,23526 6278,23508 6284,23489 6290,23471 6296,23453 6303,23434 6309,23415 6315,23397 6321,23378 6327,23359 6334,23340 6340,23321 6346,23301 6352,23282 6358,23262 6365,23243 6371,23223 6377,23204 6383,23184 6389,23164 6396,23144 6402,23124 6408,23103 6414,23083 6420,23063 6427,23042 6433,23022 6439,23001 6445,22980 6451,22959 6458,22938 6464,22917 6470,22895 6476,22874 6482,22853 6489,22831 6495,22809 6501,22788 6507,22766 6513,22744 6520,22721 6526,22699 6532,22677 6538,22654 6544,22632 6551,22609 6557,22586 6563,22563 6569,22540 6575,22517 6582,22494 6588,22471 6594,22447 6600,22423 6606,22400 6613,22376 6619,22352 6625,22328 6631,22303 6637,22279 6644,22255 6650,22230 6656,22205 6662,22181 6668,22156 6675,22131 6681,22105 6687,22080 6693,22055 6699,22029 6706,22003 6712,21977 6718,21951 6724,21925 6730,21899 6737,21873 6743,21846 6749,21820 6755,21793 6761,21766 6768,21739 6774,21712 6780,21684 6786,21657 6792,21629 6799,21602 6805,21574 6811,21546 6817,21518 6823,21489 6830,21461 6836,21432 6842,21404 6848,21375 6854,21346 6861,21317 6867,21287 6873,21258 6879,21228 6885,21199 6892,21169 6898,21139 6904,21108 6910,21078 6916,21048 6922,21020"/>
         <path fill="none" stroke="rgb(0,0,168)" stroke-width="80" stroke-linejoin="round" d="M 1206,27006 L 1212,27006 1218,27005 1224,27005 1230,27004 1237,27003 1243,27003 1249,27002 1255,27002 1261,27001 1268,27001 1274,27000 1280,27000 1286,26999 1292,26999 1299,26998 1305,26997 1311,26997 1317,26996 1323,26996 1330,26995 1336,26995 1342,26994 1348,26993 1354,26993 1361,26992 1367,26992 1373,26991 1379,26991 1385,26990 1392,26989 1398,26989 1404,26988 1410,26988 1416,26987 1423,26986 1429,26986 1435,26985 1441,26985 1447,26984 1454,26983 1460,26983 1466,26982 1472,26982 1478,26981 1485,26980 1491,26980 1497,26979 1503,26978 1509,26978 1516,26977 1522,26977 1528,26976 1534,26975 1540,26975 1547,26974 1553,26973 1559,26973 1565,26972 1571,26971 1578,26971 1584,26970 1590,26969 1596,26969 1602,26968 1609,26967 1615,26967 1621,26966 1627,26965 1633,26965 1640,26964 1646,26963 1652,26963 1658,26962 1664,26961 1671,26961 1677,26960 1683,26959 1689,26959 1695,26958 1702,26957 1708,26956 1714,26956 1720,26955 1726,26954 1733,26954 1739,26953 1745,26952 1751,26951 1757,26951 1764,26950 1770,26949 1776,26949 1782,26948 1788,26947 1795,26946 1801,26946 1807,26945 1813,26944 1819,26943 1826,26943 1832,26942 1838,26941 1844,26940 1850,26940 1857,26939 1863,26938 1869,26937 1875,26937 1881,26936 1888,26935 1894,26934 1900,26933 1906,26933 1912,26932 1919,26931 1925,26930 1931,26929 1937,26929 1943,26928 1950,26927 1956,26926 1962,26925 1968,26925 1974,26924 1981,26923 1987,26922 1993,26921 1999,26920 2005,26920 2012,26919 2018,26918 2024,26917 2030,26916 2036,26915 2043,26915 2049,26914 2055,26913 2061,26912 2067,26911 2074,26910 2080,26909 2086,26909 2092,26908 2098,26907 2105,26906 2111,26905 2117,26904 2123,26903 2129,26902 2136,26902 2142,26901 2148,26900 2154,26899 2160,26898 2167,26897 2173,26896 2179,26895 2185,26894 2191,26893 2198,26892 2204,26892 2210,26891 2216,26890 2222,26889 2229,26888 2235,26887 2241,26886 2247,26885 2253,26884 2260,26883 2266,26882 2272,26881 2278,26880 2284,26879 2291,26878 2297,26877 2303,26876 2309,26875 2315,26874 2322,26873 2328,26872 2334,26871 2340,26870 2346,26869 2353,26868 2359,26867 2365,26866 2371,26865 2377,26864 2384,26863 2390,26862 2396,26861 2402,26860 2408,26859 2415,26858 2421,26857 2427,26856 2433,26855 2439,26854 2446,26853 2452,26852 2458,26851 2464,26850 2470,26848 2477,26847 2483,26846 2489,26845 2495,26844 2501,26843 2508,26842 2514,26841 2520,26840 2526,26839 2532,26837 2539,26836 2545,26835 2551,26834 2557,26833 2563,26832 2570,26831 2576,26830 2582,26828 2588,26827 2594,26826 2601,26825 2607,26824 2613,26823 2619,26821 2625,26820 2632,26819 2638,26818 2644,26817 2650,26816 2656,26814 2663,26813 2669,26812 2675,26811 2681,26809 2687,26808 2694,26807 2700,26806 2706,26805 2712,26803 2719,26802 2725,26801 2731,26800 2737,26798 2743,26797 2750,26796 2756,26795 2762,26793 2768,26792 2774,26791 2781,26790 2787,26788 2793,26787 2799,26786 2805,26784 2812,26783 2818,26782 2824,26780 2830,26779 2836,26778 2843,26776 2849,26775 2855,26774 2861,26772 2867,26771 2874,26770 2880,26768 2886,26767 2892,26766 2898,26764 2905,26763 2911,26762 2917,26760 2923,26759 2929,26757 2936,26756 2942,26755 2948,26753 2954,26752 2960,26750 2967,26749 2973,26748 2979,26746 2985,26745 2991,26743 2998,26742 3004,26740 3010,26739 3016,26737 3022,26736 3029,26734 3035,26733 3041,26732 3047,26730 3053,26729 3060,26727 3066,26726 3072,26724 3078,26723 3084,26721 3091,26720 3097,26718 3103,26716 3109,26715 3115,26713 3122,26712 3128,26710 3134,26709 3140,26707 3146,26706 3153,26704 3159,26702 3165,26701 3171,26699 3177,26698 3184,26696 3190,26694 3196,26693 3202,26691 3208,26690 3215,26688 3221,26686 3227,26685 3233,26683 3239,26681 3246,26680 3252,26678 3258,26676 3264,26675 3270,26673 3277,26671 3283,26670 3289,26668 3295,26666 3301,26664 3308,26663 3314,26661 3320,26659 3326,26658 3332,26656 3339,26654 3345,26652 3351,26651 3357,26649 3363,26647 3370,26645 3376,26643 3382,26642 3388,26640 3394,26638 3401,26636 3407,26634 3413,26633 3419,26631 3425,26629 3432,26627 3438,26625 3444,26623 3450,26622 3456,26620 3463,26618 3469,26616 3475,26614 3481,26612 3487,26610 3494,26608 3500,26606 3506,26604 3512,26603 3518,26601 3525,26599 3531,26597 3537,26595 3543,26593 3549,26591 3556,26589 3562,26587 3568,26585 3574,26583 3580,26581 3587,26579 3593,26577 3599,26575 3605,26573 3611,26571 3618,26569 3624,26567 3630,26565 3636,26563 3642,26560 3649,26558 3655,26556 3661,26554 3667,26552 3673,26550 3680,26548 3686,26546 3692,26544 3698,26541 3704,26539 3711,26537 3717,26535 3723,26533 3729,26531 3735,26528 3742,26526 3748,26524 3754,26522 3760,26520 3766,26517 3773,26515 3779,26513 3785,26511 3791,26508 3797,26506 3804,26504 3810,26502 3816,26499 3822,26497 3828,26495 3835,26493 3841,26490 3847,26488 3853,26486 3859,26483 3866,26481 3872,26478 3878,26476 3884,26474 3890,26471 3897,26469 3903,26467 3909,26464 3915,26462 3921,26459 3928,26457 3934,26454 3940,26452 3946,26450 3952,26447 3959,26445 3965,26442 3971,26440 3977,26437 3983,26435 3990,26432 3996,26430 4002,26427 4008,26425 4014,26422 4021,26419 4027,26417 4033,26414 4039,26412 4045,26409 4052,26406 4058,26404 4064,26401 4070,26399 4076,26396 4083,26393 4089,26391 4095,26388 4101,26385 4107,26383 4114,26380 4120,26377 4126,26374 4132,26372 4138,26369 4145,26366 4151,26364 4157,26361 4163,26358 4169,26355 4176,26352 4182,26350 4188,26347 4194,26344 4201,26341 4207,26338 4213,26335 4219,26333 4225,26330 4232,26327 4238,26324 4244,26321 4250,26318 4256,26315 4263,26312 4269,26309 4275,26306 4281,26303 4287,26300 4294,26297 4300,26294 4306,26291 4312,26288 4318,26285 4325,26282 4331,26279 4337,26276 4343,26273 4349,26270 4356,26267 4362,26264 4368,26261 4374,26258 4380,26255 4387,26251 4393,26248 4399,26245 4405,26242 4411,26239 4418,26236 4424,26232 4430,26229 4436,26226 4442,26223 4449,26219 4455,26216 4461,26213 4467,26210 4473,26206 4480,26203 4486,26200 4492,26196 4498,26193 4504,26190 4511,26186 4517,26183 4523,26179 4529,26176 4535,26173 4542,26169 4548,26166 4554,26162 4560,26159 4566,26155 4573,26152 4579,26148 4585,26145 4591,26141 4597,26138 4604,26134 4610,26131 4616,26127 4622,26124 4628,26120 4635,26116 4641,26113 4647,26109 4653,26105 4659,26102 4666,26098 4672,26094 4678,26091 4684,26087 4690,26083 4697,26080 4703,26076 4709,26072 4715,26068 4721,26065 4728,26061 4734,26057 4740,26053 4746,26049 4752,26045 4759,26042 4765,26038 4771,26034 4777,26030 4783,26026 4790,26022 4796,26018 4802,26014 4808,26010 4814,26006 4821,26002 4827,25998 4833,25994 4839,25990 4845,25986 4852,25982 4858,25978 4864,25974 4870,25970 4876,25965 4883,25961 4889,25957 4895,25953 4901,25949 4907,25945 4914,25940 4920,25936 4926,25932 4932,25928 4938,25923 4945,25919 4951,25915 4957,25910 4963,25906 4969,25902 4976,25897 4982,25893 4988,25889 4994,25884 5000,25880 5007,25875 5013,25871 5019,25866 5025,25862 5031,25857 5038,25853 5044,25848 5050,25844 5056,25839 5062,25835 5069,25830 5075,25825 5081,25821 5087,25816 5093,25811 5100,25807 5106,25802 5112,25797 5118,25793 5124,25788 5131,25783 5137,25778 5143,25773 5149,25769 5155,25764 5162,25759 5168,25754 5174,25749 5180,25744 5186,25739 5193,25735 5199,25730 5205,25725 5211,25720 5217,25715 5224,25710 5230,25705 5236,25700 5242,25694 5248,25689 5255,25684 5261,25679 5267,25674 5273,25669 5279,25664 5286,25658 5292,25653 5298,25648 5304,25643 5310,25638 5317,25632 5323,25627 5329,25622 5335,25616 5341,25611 5348,25606 5354,25600 5360,25595 5366,25589 5372,25584 5379,25578 5385,25573 5391,25567 5397,25562 5403,25556 5410,25551 5416,25545 5422,25540 5428,25534 5434,25528 5441,25523 5447,25517 5453,25511 5459,25505 5465,25500 5472,25494 5478,25488 5484,25482 5490,25477 5496,25471 5503,25465 5509,25459 5515,25453 5521,25447 5527,25441 5534,25435 5540,25429 5546,25423 5552,25417 5558,25411 5565,25405 5571,25399 5577,25393 5583,25387 5589,25381 5596,25374 5602,25368 5608,25362 5614,25356 5620,25350 5627,25343 5633,25337 5639,25331 5645,25324 5651,25318 5658,25311 5664,25305 5670,25299 5676,25292 5683,25286 5689,25279 5695,25273 5701,25266 5707,25260 5714,25253 5720,25246 5726,25240 5732,25233 5738,25226 5745,25220 5751,25213 5757,25206 5763,25199 5769,25193 5776,25186 5782,25179 5788,25172 5794,25165 5800,25158 5807,25151 5813,25144 5819,25137 5825,25130 5831,25123 5838,25116 5844,25109 5850,25102 5856,25095 5862,25088 5869,25080 5875,25073 5881,25066 5887,25059 5893,25051 5900,25044 5906,25037 5912,25029 5918,25022 5924,25014 5931,25007 5937,25000 5943,24992 5949,24985 5955,24977 5962,24969 5968,24962 5974,24954 5980,24946 5986,24939 5993,24931 5999,24923 6005,24916 6011,24908 6017,24900 6024,24892 6030,24884 6036,24876 6042,24868 6048,24860 6055,24853 6061,24845 6067,24836 6073,24828 6079,24820 6086,24812 6092,24804 6098,24796 6104,24788 6110,24779 6117,24771 6123,24763 6129,24755 6135,24746 6141,24738 6148,24729 6154,24721 6160,24712 6166,24704 6172,24695 6179,24687 6185,24678 6191,24670 6197,24661 6203,24652 6210,24644 6216,24635 6222,24626 6228,24617 6234,24609 6241,24600 6247,24591 6253,24582 6259,24573 6265,24564 6272,24555 6278,24546 6284,24537 6290,24528 6296,24519 6303,24509 6309,24500 6315,24491 6321,24482 6327,24472 6334,24463 6340,24454 6346,24444 6352,24435 6358,24425 6365,24416 6371,24406 6377,24397 6383,24387 6389,24378 6396,24368 6402,24358 6408,24349 6414,24339 6420,24329 6427,24319 6433,24309 6439,24299 6445,24290 6451,24280 6458,24270 6464,24260 6470,24249 6476,24239 6482,24229 6489,24219 6495,24209 6501,24199 6507,24188 6513,24178 6520,24168 6526,24157 6532,24147 6538,24136 6544,24126 6551,24115 6557,24105 6563,24094 6569,24084 6575,24073 6582,24062 6588,24051 6594,24041 6600,24030 6606,24019 6613,24008 6619,23997 6625,23986 6631,23975 6637,23964 6644,23953 6650,23942 6656,23931 6662,23919 6668,23908 6675,23897 6681,23886 6687,23874 6693,23863 6699,23851 6706,23840 6712,23828 6718,23817 6724,23805 6730,23793 6737,23782 6743,23770 6749,23758 6755,23746 6761,23735 6768,23723 6774,23711 6780,23699 6786,23687 6792,23675 6799,23663 6805,23651 6811,23638 6817,23626 6823,23614 6830,23602 6836,23589 6842,23577 6848,23564 6854,23552 6861,23539 6867,23527 6873,23514 6879,23502 6885,23489 6892,23476 6898,23463 6904,23450 6910,23438 6916,23425 6923,23412 6929,23399 6935,23386 6941,23373 6947,23359 6954,23346 6960,23333 6966,23320 6972,23306 6978,23293 6985,23280 6991,23266 6997,23253 7003,23239 7009,23225 7016,23212 7022,23198 7028,23184 7034,23170 7040,23157 7047,23143 7053,23129 7059,23115 7065,23101 7071,23087 7078,23072 7084,23058 7090,23044 7096,23030 7102,23015 7109,23001 7115,22987 7121,22972 7127,22958 7133,22943 7140,22928 7146,22914 7152,22899 7158,22884 7165,22869 7171,22854 7177,22839 7183,22824 7189,22809 7196,22794 7202,22779 7208,22764 7214,22749 7220,22733 7227,22718 7233,22703 7239,22687 7245,22672 7251,22656 7258,22640 7264,22625 7270,22609 7276,22593 7282,22577 7289,22561 7295,22545 7301,22529 7307,22513 7313,22497 7320,22481 7326,22465 7332,22448 7338,22432 7344,22416 7351,22399 7357,22383 7363,22366 7369,22349 7375,22333 7382,22316 7388,22299 7394,22282 7400,22265 7406,22248 7413,22231 7419,22214 7425,22197 7431,22180 7437,22162 7444,22145 7450,22128 7456,22110 7462,22093 7468,22075 7475,22057 7481,22040 7487,22022 7493,22004 7499,21986 7506,21968 7512,21950 7518,21932 7524,21914 7530,21896 7537,21878 7543,21859 7549,21841 7555,21822 7561,21804 7568,21785 7574,21767 7580,21748 7586,21729 7592,21710 7599,21691 7605,21672 7611,21653 7617,21634 7623,21615 7630,21596 7636,21576 7642,21557 7648,21538 7654,21518 7661,21498 7667,21479 7673,21459 7679,21439 7685,21419 7692,21399 7698,21379 7704,21359 7710,21339 7716,21319 7723,21299 7729,21278 7735,21258 7741,21238 7747,21217 7754,21196 7760,21176 7766,21155 7772,21134 7778,21113 7785,21092 7791,21071 7797,21050 7803,21029 7806,21020"/>
         <text class="TextShape"><tspan class="TextParagraph" font-family="Liberation Sans, sans-serif" font-size="353px" font-weight="400"><tspan class="TextPosition" x="1061" y="27701"><tspan fill="rgb(0,0,0)" stroke="none">-3</tspan></tspan></tspan></text>
         <text class="TextShape"><tspan class="TextParagraph" font-family="Liberation Sans, sans-serif" font-size="353px" font-weight="400"><tspan class="TextPosition" x="2301" y="27701"><tspan fill="rgb(0,0,0)" stroke="none">-2</tspan></tspan></tspan></text>
         <text class="TextShape"><tspan class="TextParagraph" font-family="Liberation Sans, sans-serif" font-size="353px" font-weight="400"><tspan class="TextPosition" x="3541" y="27701"><tspan fill="rgb(0,0,0)" stroke="none">-1</tspan></tspan></tspan></text>
         <text class="TextShape"><tspan class="TextParagraph" font-family="Liberation Sans, sans-serif" font-size="353px" font-weight="400"><tspan class="TextPosition" x="4834" y="27701"><tspan fill="rgb(0,0,0)" stroke="none">0</tspan></tspan></tspan></text>
         <text class="TextShape"><tspan class="TextParagraph" font-family="Liberation Sans, sans-serif" font-size="353px" font-weight="400"><tspan class="TextPosition" x="6074" y="27701"><tspan fill="rgb(0,0,0)" stroke="none">1</tspan></tspan></tspan></text>
         <text class="TextShape"><tspan class="TextParagraph" font-family="Liberation Sans, sans-serif" font-size="353px" font-weight="400"><tspan class="TextPosition" x="7314" y="27701"><tspan fill="rgb(0,0,0)" stroke="none">2</tspan></tspan></tspan></text>
         <text class="TextShape"><tspan class="TextParagraph" font-family="Liberation Sans, sans-serif" font-size="353px" font-weight="400"><tspan class="TextPosition" x="8555" y="27701"><tspan fill="rgb(0,0,0)" stroke="none">3</tspan></tspan></tspan></text>
         <text class="TextShape"><tspan class="TextParagraph" font-family="Liberation Sans, sans-serif" font-size="353px" font-weight="400"><tspan class="TextPosition" x="4385" y="28508"><tspan fill="rgb(0,0,0)" stroke="none">-1</tspan></tspan></tspan></text>
         <text class="TextShape"><tspan class="TextParagraph" font-family="Liberation Sans, sans-serif" font-size="353px" font-weight="400"><tspan class="TextPosition" x="4491" y="27280"><tspan fill="rgb(0,0,0)" stroke="none">0</tspan></tspan></tspan></text>
         <text class="TextShape"><tspan class="TextParagraph" font-family="Liberation Sans, sans-serif" font-size="353px" font-weight="400"><tspan class="TextPosition" x="4491" y="26052"><tspan fill="rgb(0,0,0)" stroke="none">1</tspan></tspan></tspan></text>
         <text class="TextShape"><tspan class="TextParagraph" font-family="Liberation Sans, sans-serif" font-size="353px" font-weight="400"><tspan class="TextPosition" x="4491" y="24824"><tspan fill="rgb(0,0,0)" stroke="none">2</tspan></tspan></tspan></text>
         <text class="TextShape"><tspan class="TextParagraph" font-family="Liberation Sans, sans-serif" font-size="353px" font-weight="400"><tspan class="TextPosition" x="4491" y="23596"><tspan fill="rgb(0,0,0)" stroke="none">3</tspan></tspan></tspan></text>
         <text class="TextShape"><tspan class="TextParagraph" font-family="Liberation Sans, sans-serif" font-size="353px" font-weight="400"><tspan class="TextPosition" x="4491" y="22368"><tspan fill="rgb(0,0,0)" stroke="none">4</tspan></tspan></tspan></text>
         <text class="TextShape"><tspan class="TextParagraph" font-family="Liberation Sans, sans-serif" font-size="353px" font-weight="400"><tspan class="TextPosition" x="4491" y="21140"><tspan fill="rgb(0,0,0)" stroke="none">5</tspan></tspan></tspan></text>
         <text class="TextShape"><tspan class="TextParagraph" font-family="Liberation Sans, sans-serif" font-size="318px" font-weight="400"><tspan class="TextPosition" x="4822" y="29102"><tspan fill="rgb(0,0,0)" stroke="none">x</tspan></tspan></tspan></text>
         <text class="TextShape" transform="translate(733,25790) rotate(-90) translate(-733,-25790)"><tspan class="TextParagraph" font-family="Liberation Sans, sans-serif" font-size="318px" font-weight="400"><tspan class="TextPosition" x="733" y="25790"><tspan fill="rgb(0,0,0)" stroke="none">Exponentiation</tspan></tspan></tspan></text>
        </g>
        <g clip-path="url(#clip_path_1)"/>
        <defs>
         <clipPath id="clip_path_3" clipPathUnits="userSpaceOnUse">
          <path d="M -79,20664 L 8916,20664 8916,29660 -79,29660 -79,20664 Z"/>
         </clipPath>
        </defs>
        <g clip-path="url(#clip_path_3)"/>
        <g clip-path="url(#clip_path_1)"/>
       </g>
      </g>
      <g class="com.sun.star.drawing.TextShape">
       <g id="id4">
        <rect class="BoundingBox" stroke="none" fill="none" x="5000" y="20500" width="1701" height="642"/>
        <text class="TextShape"><tspan class="TextParagraph" font-family="Liberation Sans, sans-serif" font-size="353px" font-weight="400"><tspan class="TextPosition" x="5250" y="20943"><tspan fill="rgb(0,0,0)" stroke="none">b = 10</tspan></tspan></tspan></text>
       </g>
      </g>
      <g class="com.sun.star.drawing.TextShape">
       <g id="id5">
        <rect class="BoundingBox" stroke="none" fill="none" x="6300" y="20500" width="1301" height="642"/>
        <text class="TextShape"><tspan class="TextParagraph" font-family="Liberation Sans, sans-serif" font-size="353px" font-weight="400"><tspan class="TextPosition" x="6550" y="20943"><tspan fill="rgb(0,0,0)" stroke="none">b = e</tspan></tspan></tspan></text>
       </g>
      </g>
      <g class="com.sun.star.drawing.TextShape">
       <g id="id6">
        <rect class="BoundingBox" stroke="none" fill="none" x="7400" y="20500" width="1701" height="642"/>
        <text class="TextShape"><tspan class="TextParagraph" font-family="Liberation Sans, sans-serif" font-size="353px" font-weight="400"><tspan class="TextPosition" x="7650" y="20943"><tspan fill="rgb(0,0,0)" stroke="none">b = 2</tspan></tspan></tspan></text>
       </g>
      </g>
     </g>
    </g>
   </g>
  </g>
 </g>
</svg>